# This file uses centimeters as units for non-parametric coordinates.

mtllib Customer_Rough.mtl
g default
v 0.073215 0.793016 0.108435
v 0.278150 1.634410 0.104426
v 0.278150 1.634410 -0.104426
v 0.073215 0.793016 -0.107563
v 0.293547 1.404886 -0.118463
v 0.293547 1.404886 0.119021
v 0.274558 0.965641 -0.120471
v 0.274558 0.965641 0.123819
v 0.000000 1.392561 0.148649
v 0.000000 0.979711 0.174805
v 0.000000 0.793016 0.112794
v 0.000000 0.793016 -0.107563
v 0.000000 0.979711 -0.143417
v -0.000000 1.392561 -0.143417
v -0.000000 1.637094 -0.107563
v 0.000000 1.637094 0.107563
v 0.091485 0.792908 -0.105546
v 0.091485 0.792908 0.105546
v 0.285183 0.917058 -0.105546
v 0.285183 0.917058 0.105546
v 0.103480 0.734152 -0.087236
v 0.103480 0.734151 0.087236
v 0.276872 0.830625 -0.087236
v 0.276872 0.830625 0.087236
v 0.142246 0.291621 -0.030603
v 0.124808 0.286968 0.062540
v 0.243562 0.291621 -0.030603
v 0.261540 0.286968 0.062540
v 0.319710 1.407075 -0.080620
v 0.319710 1.407075 0.080620
v 0.436554 1.480847 -0.080620
v 0.436554 1.480847 0.080620
v 0.586300 1.041400 -0.047589
v 0.586300 1.041400 0.047589
v 0.655294 1.084913 -0.047589
v 0.655293 1.084913 0.047589
v 0.112852 0.360693 0.064345
v 0.269219 0.369297 0.064345
v 0.261964 0.393114 -0.047886
v 0.120216 0.379671 -0.047886
v 0.141239 0.315901 0.188242
v 0.242303 0.315902 0.188242
v 0.142450 0.290417 0.187775
v 0.243596 0.290418 0.187775
v 0.691899 0.900797 -0.031561
v 0.691899 0.900797 0.031561
v 0.737659 0.929648 -0.031561
v 0.737659 0.929648 0.031561
v 0.305771 0.846704 0.000000
v 0.190176 0.782388 0.116315
v 0.112375 0.559724 -0.066592
v 0.096591 0.377430 0.000000
v 0.112375 0.559724 0.066592
v 0.268748 0.613496 -0.066592
v 0.191090 0.386393 -0.063848
v 0.268748 0.613496 0.066592
v 0.285589 0.395355 0.000000
v 0.190831 0.391933 0.085289
v 0.320522 1.463508 -0.095014
v 0.300236 1.394780 -0.000000
v 0.320522 1.463508 0.095014
v 0.319328 1.626359 -0.095014
v 0.378132 1.443961 -0.107493
v 0.319328 1.626359 0.095014
v 0.456028 1.493142 -0.000000
v 0.378132 1.443961 0.107493
v 0.448972 1.233111 -0.062536
v 0.574801 1.034148 -0.000000
v 0.448972 1.233111 0.062536
v 0.539618 1.290318 -0.062536
v 0.620797 1.063157 -0.063452
v 0.539618 1.290318 0.062536
v 0.666792 1.092165 -0.000000
v 0.620797 1.063157 0.063452
v 0.191612 0.320211 0.204918
v 0.124211 0.303009 0.204603
v 0.193241 0.285807 0.204288
v 0.260642 0.303009 0.204603
v 0.283368 0.304170 0.062776
v 0.260566 0.304363 -0.041441
v 0.123753 0.304363 -0.041441
v 0.101028 0.304169 0.062776
v 0.123176 0.320791 0.140912
v 0.259667 0.320791 0.140912
v 0.124865 0.286387 0.140281
v 0.261540 0.286388 0.140281
v 0.660339 0.932907 -0.042607
v 0.660339 0.932907 0.042607
v 0.722115 0.971855 -0.042607
v 0.722115 0.971855 0.042607
v 0.041212 0.793016 0.111051
v 0.161419 0.856277 0.146905
v 0.142553 0.979711 0.164342
v 0.000000 0.856277 0.164342
v 0.158654 1.626600 0.107563
v 0.277959 1.664241 0.000000
v 0.158654 1.626600 -0.107563
v 0.142553 0.979711 -0.143417
v 0.161419 0.856277 -0.143417
v 0.041212 0.793016 -0.107563
v -0.000000 0.856277 -0.143417
v 0.043814 0.771929 0.000000
v 0.000000 0.771929 0.000000
v 0.124789 0.287161 0.000000
v 0.193165 0.287161 -0.041231
v 0.261540 0.287161 0.000000
v 0.193500 0.281234 0.062461
v 0.278722 1.544919 -0.139234
v 0.159330 1.392561 -0.143417
v -0.000000 1.544914 -0.143417
v 0.692135 0.882744 -0.000000
v 0.723023 0.902217 -0.042607
v 0.753911 0.921692 -0.000000
v 0.723023 0.902217 0.042607
v 0.000000 1.544914 0.143417
v 0.159330 1.392561 0.146905
v 0.278722 1.544919 0.139234
v 0.279025 1.181316 -0.107563
v 0.000000 1.181316 -0.143417
v 0.318886 1.000798 0.000000
v 0.319345 1.365424 0.000000
v 0.279025 1.181316 0.111051
v 0.000000 1.181316 0.164342
v 0.086801 0.793016 -0.107563
v 0.059201 0.772216 0.000000
v 0.086801 0.793016 0.107563
v 0.285731 0.919539 -0.107563
v 0.188334 0.854983 -0.140728
v 0.285731 0.919539 0.107563
v 0.317466 0.937750 0.000000
v 0.188334 0.854983 0.140728
v 0.096781 0.792583 -0.099496
v 0.074582 0.718073 0.000000
v 0.096781 0.792583 0.099496
v 0.282291 0.909616 -0.099496
v 0.190176 0.782388 -0.116315
v 0.282291 0.909616 0.099496
v 0.091882 0.856277 0.157367
v 0.158542 1.657327 0.000000
v 0.091882 0.856277 -0.143417
v 0.024322 0.771929 0.000000
v 0.193500 0.281427 0.000000
v 0.158992 1.544914 -0.143417
v 0.733621 0.885496 -0.000000
v 0.158992 1.544914 0.143417
v 0.159443 1.181316 -0.143417
v 0.318886 1.181316 0.000000
v 0.159443 1.181316 0.157367
v 0.053646 0.771929 0.000000
v 0.186266 0.856277 -0.143417
v 0.318886 0.940626 0.000000
v 0.186266 0.856277 0.143417
v 0.065862 0.773077 0.000000
v 0.189536 0.851100 -0.132661
v 0.313209 0.929122 0.000000
v 0.189536 0.851100 0.132661
v 0.086313 0.550762 0.000000
v 0.190562 0.586610 -0.088790
v 0.294810 0.622458 0.000000
v 0.190562 0.586610 0.088790
v 0.320721 1.436366 0.000000
v 0.319925 1.544933 -0.126685
v 0.319129 1.653501 0.000000
v 0.319925 1.544933 0.126685
v 0.433865 1.223577 -0.000000
v 0.494295 1.261714 -0.083381
v 0.554726 1.299852 -0.000000
v 0.494295 1.261714 0.083381
v 0.192465 0.302816 0.225938
v 0.283368 0.304363 0.000000
v 0.192159 0.304363 -0.055254
v 0.100951 0.304363 0.000000
v 0.191125 0.326525 0.141017
v 0.101257 0.303589 0.140596
v 0.193500 0.280654 0.140176
v 0.283368 0.303590 0.140596
v 0.650043 0.926415 -0.000000
v 0.691227 0.952381 -0.056809
v 0.732411 0.978346 -0.000000
v 0.691227 0.952381 0.056809
v 0.000000 1.651455 0.057292
v 0.081985 1.667821 0.000000
v -0.000000 1.651319 -0.057768
v 0.066801 1.651301 0.057829
v 0.062010 1.652203 -0.054672
v 0.000000 1.690663 0.066177
v 0.066801 1.690663 0.066714
v 0.081985 1.690664 0.000000
v 0.062010 1.690664 -0.063557
v 0.000000 1.690663 -0.066653
v 0.000000 1.690663 0.066177
v 0.066801 1.690663 0.066714
v 0.081985 1.690664 0.000000
v 0.062010 1.690664 -0.063557
v 0.000000 1.690663 -0.066653
v 0.000000 1.723828 0.066177
v 0.066801 1.723828 0.066714
v 0.081985 1.723829 0.000000
v 0.062010 1.723829 -0.063557
v -0.000000 1.723828 -0.066653
v 0.687400 1.030590 0.045195
v 0.698321 1.037477 -0.000000
v 0.687400 1.030590 -0.045195
v 0.654638 1.009930 -0.060260
v 0.621875 0.989271 -0.045195
v 0.610954 0.982384 -0.000000
v 0.621875 0.989271 0.045195
v 0.654638 1.009930 0.060260
v 0.652440 1.013055 0.081352
v 0.674435 1.027178 0.085409
v 0.685672 0.959451 0.078685
v 0.706967 0.973120 0.082820
v 0.630455 0.998938 0.085258
v 0.664386 0.945788 0.082112
vt 0.625000 0.000000
vt 0.625000 1.000000
vt 0.625000 0.250000
vt 0.625000 0.500000
vt 0.875000 0.250000
vt 0.625000 0.750000
vt 0.875000 0.000000
vt 0.625000 0.583333
vt 0.875000 0.166667
vt 0.635000 0.166667
vt 0.625000 0.666667
vt 0.875000 0.083333
vt 0.635000 0.083333
vt 0.500000 0.166667
vt 0.500000 0.083333
vt 0.500000 0.000000
vt 0.500000 1.000000
vt 0.500000 0.770833
vt 0.500000 0.666667
vt 0.500000 0.583333
vt 0.500000 0.479167
vt 0.500000 0.270833
vt 0.843750 0.010417
vt 0.656250 0.010417
vt 0.843750 0.072917
vt 0.656250 0.072917
vt 0.843750 0.010417
vt 0.656250 0.010417
vt 0.843750 0.072917
vt 0.656250 0.072917
vt 0.819444 0.018519
vt 0.656250 0.010417
vt 0.819444 0.064815
vt 0.656250 0.072917
vt 0.843750 0.177083
vt 0.656250 0.177083
vt 0.843750 0.239583
vt 0.656250 0.239583
vt 0.843750 0.177083
vt 0.656250 0.177083
vt 0.843750 0.239583
vt 0.656250 0.239583
vt 0.645000 0.006667
vt 0.645000 0.076667
vt 0.843750 0.072917
vt 0.843750 0.010417
vt 0.625000 0.018519
vt 0.625000 0.064815
vt 0.625000 0.018519
vt 0.625000 0.064815
vt 0.819444 0.185185
vt 0.680556 0.185185
vt 0.819444 0.231481
vt 0.680556 0.231481
vt 0.562500 0.041667
vt 0.562500 0.375000
vt 0.562500 0.708333
vt 0.562500 0.875000
vt 0.750000 0.041667
vt 0.562500 0.541667
vt 0.750000 0.208333
vt 0.562500 0.208333
vt 0.562500 0.625000
vt 0.750000 0.125000
vt 0.562500 0.125000
vt 0.750000 0.000000
vt 0.875000 0.041667
vt 0.750000 0.083333
vt 0.625000 0.041667
vt 0.750000 0.000000
vt 0.875000 0.041667
vt 0.750000 0.083333
vt 0.625000 0.041667
vt 0.750000 0.000000
vt 0.875000 0.041667
vt 0.750000 0.083333
vt 0.625000 0.041667
vt 0.750000 0.166667
vt 0.875000 0.208333
vt 0.750000 0.250000
vt 0.625000 0.208333
vt 0.750000 0.166667
vt 0.875000 0.208333
vt 0.750000 0.250000
vt 0.625000 0.208333
vt 0.625000 0.041667
vt 0.750000 0.083333
vt 0.875000 0.041667
vt 0.750000 0.000000
vt 0.625000 0.041667
vt 0.625000 0.000000
vt 0.625000 0.041667
vt 0.625000 0.083333
vt 0.750000 0.166667
vt 0.875000 0.208333
vt 0.750000 0.250000
vt 0.625000 0.208333
vt 0.562500 0.000000
vt 0.562500 1.000000
vt 0.609375 0.041667
vt 0.562500 0.083333
vt 0.500000 0.041667
vt 0.562500 0.270833
vt 0.625000 0.375000
vt 0.750000 0.250000
vt 0.562500 0.479167
vt 0.562500 0.666667
vt 0.625000 0.708333
vt 0.875000 0.041667
vt 0.562500 0.770833
vt 0.500000 0.708333
vt 0.625000 0.875000
vt 0.750000 0.000000
vt 0.500000 0.875000
vt 0.750000 0.010417
vt 0.843750 0.041667
vt 0.750000 0.072917
vt 0.656250 0.041667
vt 0.625000 0.541667
vt 0.875000 0.208333
vt 0.562500 0.583333
vt 0.500000 0.541667
vt 0.750000 0.177083
vt 0.843750 0.208333
vt 0.750000 0.239583
vt 0.656250 0.208333
vt 0.500000 0.208333
vt 0.562500 0.166667
vt 0.609375 0.208333
vt 0.625000 0.625000
vt 0.875000 0.125000
vt 0.500000 0.625000
vt 0.750000 0.093750
vt 0.750000 0.156250
vt 0.640625 0.125000
vt 0.500000 0.125000
vt 0.843750 0.010417
vt 0.750000 0.000000
vt 0.656250 0.010417
vt 0.843750 0.072917
vt 0.875000 0.041667
vt 0.656250 0.072917
vt 0.750000 0.083333
vt 0.625000 0.041667
vt 0.843750 0.010417
vt 0.750000 0.000000
vt 0.656250 0.010417
vt 0.843750 0.072917
vt 0.875000 0.041667
vt 0.656250 0.072917
vt 0.750000 0.083333
vt 0.625000 0.041667
vt 0.843750 0.010417
vt 0.750000 0.000000
vt 0.656250 0.010417
vt 0.843750 0.072917
vt 0.875000 0.041667
vt 0.656250 0.072917
vt 0.750000 0.083333
vt 0.625000 0.041667
vt 0.843750 0.177083
vt 0.750000 0.166667
vt 0.656250 0.177083
vt 0.843750 0.239583
vt 0.875000 0.208333
vt 0.656250 0.239583
vt 0.750000 0.250000
vt 0.625000 0.208333
vt 0.843750 0.177083
vt 0.750000 0.166667
vt 0.656250 0.177083
vt 0.843750 0.239583
vt 0.875000 0.208333
vt 0.656250 0.239583
vt 0.750000 0.250000
vt 0.625000 0.208333
vt 0.625000 0.041667
vt 0.625000 0.010417
vt 0.625000 0.041667
vt 0.625000 0.072917
vt 0.656250 0.083333
vt 0.843750 0.072917
vt 0.843750 0.010417
vt 0.656250 0.000000
vt 0.625000 0.010417
vt 0.625000 0.072917
vt 0.625000 0.010417
vt 0.625000 0.072917
vt 0.843750 0.177083
vt 0.656250 0.177083
vt 0.843750 0.239583
vt 0.656250 0.239583
vt 0.500000 0.319517
vt 0.545702 0.375000
vt 0.500000 0.430944
vt 0.540067 0.318997
vt 0.538189 0.427946
vt 0.000000 0.000000
vt 1.000000 0.000000
vt 1.000000 1.000000
vt 0.000000 1.000000
vt 0.000000 0.000000
vt 1.000000 0.000000
vt 1.000000 1.000000
vt 0.000000 1.000000
vt 0.000000 0.000000
vt 1.000000 0.000000
vt 1.000000 1.000000
vt 0.000000 1.000000
vt 0.000000 0.000000
vt 1.000000 0.000000
vt 1.000000 1.000000
vt 0.000000 1.000000
vt 0.000000 0.000000
vt 1.000000 0.000000
vt 1.000000 1.000000
vt 0.000000 1.000000
vt 0.000000 0.000000
vt 1.000000 0.000000
vt 1.000000 1.000000
vt 0.000000 1.000000
vt 0.000000 0.000000
vt 1.000000 0.000000
vt 1.000000 1.000000
vt 0.000000 1.000000
vt 0.000000 0.000000
vt 1.000000 0.000000
vt 1.000000 1.000000
vt 0.000000 1.000000
vt 0.000000 0.000000
vt 1.000000 0.000000
vt 1.000000 1.000000
vt 0.000000 1.000000
vt 0.000000 0.000000
vt 1.000000 0.000000
vt 1.000000 1.000000
vt 0.000000 1.000000
vt 0.000000 0.000000
vt 1.000000 0.000000
vt 1.000000 1.000000
vt 0.000000 1.000000
vt 0.000000 0.000000
vt 1.000000 0.000000
vt 1.000000 1.000000
vt 0.000000 1.000000
vt 0.656250 0.239583
vt 0.750000 0.250000
vt 0.843750 0.239583
vt 0.875000 0.208333
vt 0.843750 0.177083
vt 0.750000 0.166667
vt 0.656250 0.177083
vt 0.625000 0.208333
vt 0.656250 0.239583
vt 0.625000 0.208333
vt 0.625000 0.208333
vt 0.656250 0.239583
vt 0.656250 0.177083
vt 0.656250 0.177083
vn 0.035790 -0.806397 0.590290
vn 0.047285 -0.813917 0.579053
vn 0.119891 -0.226614 0.966578
vn 0.070623 -0.221653 0.972565
vn 0.066050 -0.816548 0.573486
vn 0.223424 -0.203259 0.953293
vn 0.608493 -0.001806 0.793557
vn 0.176077 -0.003128 0.984371
vn 0.062929 0.000356 0.998018
vn 0.004192 0.685642 0.727927
vn 0.049704 0.758580 0.649681
vn 0.019654 0.999807 0.000000
vn 0.006515 0.999978 -0.001617
vn 0.049704 0.758580 -0.649681
vn 0.004222 0.686792 -0.726842
vn 0.000000 0.000000 -1.000000
vn 0.093210 0.009028 -0.995606
vn 0.027612 -0.111856 -0.993341
vn 0.000000 -0.126711 -0.991940
vn 0.561632 0.012437 -0.827294
vn 0.112102 -0.071124 -0.991148
vn -0.000000 -0.751806 -0.659385
vn -0.000000 -0.765546 -0.643382
vn 0.000000 -0.769795 -0.638291
vn 0.003541 -0.999994 -0.000014
vn 0.002554 -0.999997 0.000000
vn 0.004539 -0.999990 -0.000019
vn -0.240871 -0.970544 -0.005085
vn -0.248158 -0.965461 -0.079387
vn 0.000068 -0.998392 -0.056686
vn 0.000003 -0.999985 -0.005501
vn -0.227375 -0.913133 -0.338361
vn 0.001031 -0.880471 -0.474099
vn 0.233878 -0.909325 -0.344134
vn 0.255372 -0.963393 -0.081607
vn 0.247295 -0.968926 -0.005339
vn 0.024072 0.589905 -0.807114
vn 0.037977 0.127000 -0.991175
vn 0.004889 0.147990 -0.988977
vn 0.145306 0.092192 -0.985082
vn 0.539727 -0.066053 -0.839244
vn 0.085983 -0.020119 -0.996093
vn 0.000000 0.000000 -1.000000
vn -0.367144 -0.751754 0.547788
vn -0.428753 -0.903422 0.000000
vn 0.543743 -0.839252 -0.000000
vn 0.260714 -0.389126 0.883521
vn -0.367144 -0.751754 -0.547787
vn 0.260715 -0.389126 -0.883521
vn 0.853649 0.007805 -0.520790
vn 0.999999 0.000993 0.000001
vn 0.853648 0.007805 0.520791
vn 0.023299 0.586173 0.809851
vn 0.008317 0.165554 0.986166
vn 0.042985 0.140827 0.989101
vn 0.018205 0.047967 0.998683
vn 0.113928 0.016704 0.993349
vn 0.568766 -0.048688 0.821057
vn 0.151718 0.100113 0.983341
vn 0.111621 -0.003263 -0.993746
vn 0.000000 0.000000 -1.000000
vn 0.679523 -0.016750 -0.733463
vn 0.999931 0.011769 -0.000141
vn 0.999765 -0.021695 -0.000001
vn 0.706657 -0.004882 0.707539
vn 0.997215 -0.074576 -0.000025
vn 0.169537 0.033893 0.984941
vn 0.041922 0.051626 0.997786
vn 0.017481 -0.999847 0.000000
vn 0.085585 -0.816061 0.571594
vn 0.037928 -0.768491 -0.638735
vn 0.241184 -0.900015 -0.363046
vn 0.089259 -0.996008 0.000000
vn 0.241184 -0.900015 0.363047
vn 0.278977 -0.127669 -0.951773
vn 0.844723 0.011768 -0.535075
vn 0.715466 -0.578759 -0.391339
vn 0.458234 -0.706587 -0.539218
vn 0.999360 0.035765 -0.000000
vn 0.862439 -0.012731 0.506001
vn 0.715466 -0.578759 0.391340
vn 0.893842 -0.448383 0.000000
vn 0.331397 -0.217296 0.918128
vn 0.458233 -0.706588 0.539218
vn -0.951140 -0.308758 0.000000
vn -0.375522 -0.372788 0.848536
vn -0.375521 -0.372789 -0.848535
vn -0.592844 -0.150254 -0.791176
vn -0.994215 -0.107408 -0.000000
vn -0.592844 -0.150254 0.791176
vn 0.298898 -0.353353 -0.886455
vn 0.750502 -0.228518 -0.620101
vn 0.732683 -0.114875 -0.670805
vn 0.125017 -0.160328 -0.979115
vn 0.988831 -0.149041 0.000000
vn 0.750502 -0.228518 0.620102
vn 0.732683 -0.114875 0.670805
vn 0.997307 -0.073338 -0.000000
vn 0.298898 -0.353352 0.886455
vn 0.125017 -0.160328 0.979115
vn -0.997657 -0.067532 -0.010960
vn -0.671852 -0.067637 0.737591
vn -0.621386 -0.112770 -0.775346
vn -0.597625 -0.101365 -0.795342
vn -0.997973 -0.039075 -0.050221
vn -0.749598 0.125939 0.649802
vn 0.053837 -0.122118 -0.991054
vn 0.683278 -0.091232 -0.724436
vn 0.629701 -0.081624 -0.772537
vn 0.027215 -0.108650 -0.993707
vn 0.998764 -0.048861 -0.009130
vn 0.718607 -0.059863 0.692835
vn 0.755404 0.116132 0.644886
vn 0.998781 -0.022038 -0.044164
vn 0.046704 -0.076309 0.995990
vn 0.004108 0.241314 0.970439
vn 0.987838 -0.155486 0.000000
vn 0.547423 -0.290243 0.784912
vn 0.542821 -0.291141 -0.787770
vn -0.683533 -0.377637 -0.624638
vn -0.881331 -0.472500 0.000000
vn -0.683532 -0.377637 0.624639
vn 0.407793 0.105596 -0.906948
vn 0.608924 0.605225 -0.512752
vn 0.697757 0.419764 -0.580459
vn 0.126905 -0.038767 -0.991157
vn 0.690612 0.723226 0.000000
vn 0.608923 0.605225 0.512752
vn 0.697757 0.419764 0.580459
vn 0.834795 0.550562 0.000000
vn 0.408872 0.106214 0.906390
vn 0.126905 -0.038767 0.991157
vn -0.794571 -0.607171 0.000000
vn -0.589857 -0.491278 0.640870
vn -0.589857 -0.491278 -0.640870
vn -0.603592 -0.475452 -0.640018
vn -0.805471 -0.592635 0.000000
vn -0.639473 -0.496745 0.586786
vn 0.056673 -0.083175 -0.994922
vn 0.696832 0.330176 -0.636717
vn 0.707573 0.361379 -0.607244
vn 0.063757 -0.053085 -0.996553
vn 0.885801 0.464065 0.000000
vn 0.696832 0.330175 0.636717
vn 0.748494 0.388316 0.537558
vn 0.877530 0.479521 0.000000
vn 0.056673 -0.083176 0.994922
vn 0.078070 -0.050197 0.995683
vn 0.241891 0.945706 0.217091
vn -0.000627 0.926351 0.376660
vn 0.000240 -0.017396 0.999849
vn 0.506536 0.008965 0.862172
vn -0.247906 0.943071 0.221719
vn -0.505516 -0.039183 0.861927
vn -0.241480 -0.949572 0.200001
vn 0.000605 -0.934240 0.356645
vn 0.247622 -0.947332 0.203090
vn 0.972700 -0.172153 -0.155618
vn 0.566052 -0.169230 -0.806813
vn 0.984854 -0.119328 0.125788
vn 0.012956 -0.170966 -0.985192
vn -0.539363 -0.207291 -0.816161
vn -0.957096 -0.242428 -0.158735
vn -0.974969 -0.192429 0.111386
vn -0.012924 0.872707 0.488074
vn 0.439532 0.792648 0.422518
vn -0.447126 0.797322 0.405408
vn -0.974088 -0.104813 0.200415
vn -0.247445 -0.967623 0.049760
vn 0.000041 -0.999472 0.032481
vn 0.253977 -0.965879 0.050727
vn 0.977431 -0.026398 0.209598
vn -0.819844 -0.572587 -0.000000
vn -0.729561 -0.514029 0.451127
vn -0.613609 -0.448583 -0.649814
vn -0.774943 -0.632031 -0.000000
vn -0.544489 -0.494171 -0.677736
vn -0.544489 -0.494171 0.677736
vn 0.026536 -0.043020 -0.998722
vn 0.666017 0.364971 -0.650552
vn 0.071344 -0.095132 -0.992905
vn 0.691409 0.281001 -0.665577
vn 0.866338 0.499458 0.000000
vn 0.760907 0.429342 0.486504
vn 0.902959 0.429727 0.000001
vn 0.691410 0.281001 0.665576
vn -0.111925 -0.116544 0.986859
vn 0.034035 -0.029666 0.998980
vn -0.003014 -0.051856 0.998650
vn -0.111925 -0.116544 0.986859
vn 0.143987 0.036743 0.988897
vn 0.143987 0.036743 0.988897
vn 0.071344 -0.095132 0.992905
vn 0.085544 0.949457 0.302017
vn 0.118196 0.992960 -0.007821
vn 0.045698 0.945106 -0.323554
vn 0.084735 0.949809 -0.301136
vn 0.043780 0.943548 0.328330
vn -0.008090 -0.220578 0.975336
vn -0.008090 -0.220578 0.975336
vn -0.008090 -0.220578 0.975336
vn -0.008090 -0.220578 0.975336
vn 0.972004 -0.033222 0.232602
vn 0.972004 -0.033222 0.232602
vn 0.972004 -0.033222 0.232602
vn 0.972004 -0.033222 0.232602
vn 0.948203 -0.045561 -0.314382
vn 0.948203 -0.045561 -0.314382
vn 0.948203 -0.045561 -0.314382
vn 0.948203 -0.045561 -0.314382
vn 0.050188 -0.222370 -0.973670
vn 0.050188 -0.222370 -0.973670
vn 0.050188 -0.222371 -0.973670
vn 0.050188 -0.222370 -0.973670
vn 0.000000 0.000000 0.000000
vn 0.000000 0.000000 0.000000
vn 0.000000 0.000000 0.000000
vn 0.000000 0.000000 0.000000
vn 0.000000 0.000000 0.000000
vn 0.000000 0.000000 0.000000
vn 0.000000 0.000000 0.000000
vn 0.000000 0.000000 0.000000
vn 0.000000 0.000000 0.000000
vn 0.000000 0.000000 0.000000
vn 0.000000 0.000000 0.000000
vn 0.000000 0.000000 0.000000
vn 0.000000 0.000000 0.000000
vn 0.000000 0.000000 0.000000
vn 0.000000 0.000000 0.000000
vn 0.000000 0.000000 0.000000
vn -0.008037 -0.000001 0.999968
vn -0.008037 -0.000001 0.999968
vn -0.008037 -0.000001 0.999968
vn -0.008037 -0.000001 0.999968
vn 0.975065 0.000000 0.221921
vn 0.975065 0.000000 0.221921
vn 0.975065 0.000000 0.221921
vn 0.975064 0.000000 0.221921
vn 0.953994 0.000001 -0.299825
vn 0.953994 0.000001 -0.299825
vn 0.953994 0.000001 -0.299825
vn 0.953994 0.000001 -0.299825
vn 0.049854 -0.000000 -0.998757
vn 0.049854 -0.000000 -0.998757
vn 0.049854 -0.000000 -0.998757
vn 0.049854 -0.000000 -0.998757
vn -0.013575 -0.068453 0.997562
vn -0.082638 0.426490 0.900709
vn -0.229899 0.337811 0.912705
vn -0.206721 0.352722 0.912608
vn -0.082638 0.426490 0.900709
vn 0.233559 -0.337715 -0.911811
vn 0.088488 -0.426017 -0.900377
vn 0.088488 -0.426017 -0.900377
vn 0.210738 -0.352544 -0.911758
vn 0.823756 0.477221 0.306083
vn 0.823756 0.477221 0.306083
vn -0.351592 0.253157 0.901274
vn -0.351592 0.253157 0.901274
vn -0.789181 -0.536726 0.298527
vn -0.789181 -0.536726 0.298527
vn 0.354408 -0.252836 -0.900260
vn 0.354408 -0.252836 -0.900260
s 1
g pCube1 pCube2
usemtl initialShadingGroup
f 11/16/1 91/98/2 138/55/3 94/102/4
f 91/98/2 1/1/5 92/100/6 138/55/3
f 138/55/3 92/100/6 8/13/7 93/101/8
f 94/102/4 138/55/3 93/101/8 10/15/9
f 95/103/10 2/3/11 96/104/12 139/56/13
f 139/56/13 96/104/12 3/4/14 97/106/15
f 13/19/16 98/107/17 140/57/18 101/111/19
f 98/107/17 7/11/20 99/108/21 140/57/18
f 140/57/18 99/108/21 4/6/22 100/110/23
f 101/111/19 140/57/18 100/110/23 12/18/24
f 12/18/24 100/110/23 141/58/25 103/114/26
f 100/110/23 4/6/22 102/112/27 141/58/25
f 141/58/25 102/112/27 1/2/5 91/99/2
f 103/114/26 141/58/25 91/99/2 11/17/1
f 26/32/28 104/115/29 142/59/30 107/118/31
f 104/115/29 25/31/32 105/116/33 142/59/30
f 142/59/30 105/116/33 27/33/34 106/117/35
f 107/118/31 142/59/30 106/117/35 28/34/36
f 15/21/37 97/106/15 143/60/38 110/122/39
f 97/106/15 3/4/14 108/119/40 143/60/38
f 143/60/38 108/119/40 5/8/41 109/121/42
f 110/122/39 143/60/38 109/121/42 14/20/43
f 46/52/44 111/123/45 144/61/46 114/126/47
f 111/123/45 45/51/48 112/124/49 144/61/46
f 144/61/46 112/124/49 47/53/50 113/125/51
f 114/126/47 144/61/46 113/125/51 48/54/52
f 16/22/53 115/127/54 145/62/55 95/103/10
f 115/127/54 9/14/56 116/128/57 145/62/55
f 145/62/55 116/128/57 6/10/58 117/129/59
f 95/103/10 145/62/55 117/129/59 2/3/11
f 14/20/43 109/121/42 146/63/60 119/132/61
f 109/121/42 5/8/41 118/130/62 146/63/60
f 146/63/60 118/130/62 7/11/20 98/107/17
f 119/132/61 146/63/60 98/107/17 13/19/16
f 8/13/7 120/133/63 147/64/64 122/135/65
f 120/133/63 7/12/20 118/131/62 147/64/64
f 147/64/64 118/131/62 5/9/41 121/134/66
f 122/135/65 147/64/64 121/134/66 6/10/58
f 10/15/9 93/101/8 148/65/67 123/136/68
f 93/101/8 8/13/7 122/135/65 148/65/67
f 148/65/67 122/135/65 6/10/58 116/128/57
f 123/136/68 148/65/67 116/128/57 9/14/56
f 1/1/5 102/113/27 149/66/69 126/139/70
f 102/113/27 4/7/22 124/137/71 149/66/69
f 149/66/69 124/137/71 17/23/72 125/138/73
f 126/139/70 149/66/69 125/138/73 18/24/74
f 4/7/22 99/109/21 150/67/75 124/137/71
f 99/109/21 7/12/20 127/140/76 150/67/75
f 150/67/75 127/140/76 19/25/77 128/141/78
f 124/137/71 150/67/75 128/141/78 17/23/72
f 7/12/20 120/133/63 151/68/79 127/140/76
f 120/133/63 8/13/7 129/142/80 151/68/79
f 151/68/79 129/142/80 20/26/81 130/143/82
f 127/140/76 151/68/79 130/143/82 19/25/77
f 8/13/7 92/100/6 152/69/83 129/142/80
f 92/100/6 1/1/5 126/139/70 152/69/83
f 152/69/83 126/139/70 18/24/74 131/144/84
f 129/142/80 152/69/83 131/144/84 20/26/81
f 18/24/74 125/138/73 153/70/85 134/147/86
f 125/138/73 17/23/72 132/145/87 153/70/85
f 153/70/85 132/145/87 21/27/88 133/146/89
f 134/147/86 153/70/85 133/146/89 22/28/90
f 17/23/72 128/141/78 154/71/91 132/145/87
f 128/141/78 19/25/77 135/148/92 154/71/91
f 154/71/91 135/148/92 23/29/93 136/149/94
f 132/145/87 154/71/91 136/149/94 21/27/88
f 19/25/77 130/143/82 155/72/95 135/148/92
f 130/143/82 20/26/81 137/150/96 155/72/95
f 155/72/95 137/150/96 24/30/97 49/151/98
f 135/148/92 155/72/95 49/151/98 23/29/93
f 20/26/81 131/144/84 156/73/99 137/150/96
f 131/144/84 18/24/74 134/147/86 156/73/99
f 156/73/99 134/147/86 22/28/90 50/152/100
f 137/150/96 156/73/99 50/152/100 24/30/97
f 22/28/90 133/146/89 157/74/101 53/155/102
f 133/146/89 21/27/88 51/153/103 157/74/101
f 157/74/101 51/153/103 40/46/104 52/154/105
f 53/155/102 157/74/101 52/154/105 37/43/106
f 21/27/88 136/149/94 158/75/107 51/153/103
f 136/149/94 23/29/93 54/156/108 158/75/107
f 158/75/107 54/156/108 39/45/109 55/157/110
f 51/153/103 158/75/107 55/157/110 40/46/104
f 23/29/93 49/151/98 159/76/111 54/156/108
f 49/151/98 24/30/97 56/158/112 159/76/111
f 159/76/111 56/158/112 38/44/113 57/159/114
f 54/156/108 159/76/111 57/159/114 39/45/109
f 24/30/97 50/152/100 160/77/115 56/158/112
f 50/152/100 22/28/90 53/155/102 160/77/115
f 160/77/115 53/155/102 37/43/106 58/160/116
f 56/158/112 160/77/115 58/160/116 38/44/113
f 6/10/58 121/134/66 161/78/117 61/163/118
f 121/134/66 5/9/41 59/161/119 161/78/117
f 161/78/117 59/161/119 29/35/120 60/162/121
f 61/163/118 161/78/117 60/162/121 30/36/122
f 5/9/41 108/120/40 162/79/123 59/161/119
f 108/120/40 3/5/14 62/164/124 162/79/123
f 162/79/123 62/164/124 31/37/125 63/165/126
f 59/161/119 162/79/123 63/165/126 29/35/120
f 3/5/14 96/105/12 163/80/127 62/164/124
f 96/105/12 2/3/11 64/166/128 163/80/127
f 163/80/127 64/166/128 32/38/129 65/167/130
f 62/164/124 163/80/127 65/167/130 31/37/125
f 2/3/11 117/129/59 164/81/131 64/166/128
f 117/129/59 6/10/58 61/163/118 164/81/131
f 164/81/131 61/163/118 30/36/122 66/168/132
f 64/166/128 164/81/131 66/168/132 32/38/129
f 30/36/122 60/162/121 165/82/133 69/171/134
f 60/162/121 29/35/120 67/169/135 165/82/133
f 165/82/133 67/169/135 33/39/136 68/170/137
f 69/171/134 165/82/133 68/170/137 34/40/138
f 29/35/120 63/165/126 166/83/139 67/169/135
f 63/165/126 31/37/125 70/172/140 166/83/139
f 166/83/139 70/172/140 35/41/141 71/173/142
f 67/169/135 166/83/139 71/173/142 33/39/136
f 31/37/125 65/167/130 167/84/143 70/172/140
f 65/167/130 32/38/129 72/174/144 167/84/143
f 167/84/143 72/174/144 36/42/145 73/175/146
f 70/172/140 167/84/143 73/175/146 35/41/141
f 32/38/129 66/168/132 168/85/147 72/174/144
f 66/168/132 30/36/122 69/171/134 168/85/147
f 168/85/147 69/171/134 34/40/138 74/176/148
f 72/174/144 168/85/147 74/176/148 36/42/145
f 42/48/149 75/177/150 169/86/151 78/180/152
f 75/177/150 41/47/153 76/178/154 169/86/151
f 169/86/151 76/178/154 43/49/155 77/179/156
f 78/180/152 169/86/151 77/179/156 44/50/157
f 39/45/109 57/159/114 170/87/158 80/182/159
f 57/159/114 38/44/113 79/181/160 170/87/158
f 170/87/158 79/181/160 28/34/36 106/117/35
f 80/182/159 170/87/158 106/117/35 27/33/34
f 40/46/104 55/157/110 171/88/161 81/183/162
f 55/157/110 39/45/109 80/182/159 171/88/161
f 171/88/161 80/182/159 27/33/34 105/116/33
f 81/183/162 171/88/161 105/116/33 25/31/32
f 37/43/106 52/154/105 172/89/163 82/184/164
f 52/154/105 40/46/104 81/183/162 172/89/163
f 172/89/163 81/183/162 25/31/32 104/115/29
f 82/184/164 172/89/163 104/115/29 26/32/28
f 38/44/113 58/160/116 173/90/165 84/186/166
f 58/160/116 37/43/106 83/185/167 173/90/165
f 173/90/165 83/185/167 41/47/153 75/177/150
f 84/186/166 173/90/165 75/177/150 42/48/149
f 37/43/106 82/184/164 174/91/168 83/185/167
f 82/184/164 26/32/28 85/187/169 174/91/168
f 174/91/168 85/187/169 43/49/155 76/178/154
f 83/185/167 174/91/168 76/178/154 41/47/153
f 26/32/28 107/118/31 175/92/170 85/187/169
f 107/118/31 28/34/36 86/188/171 175/92/170
f 175/92/170 86/188/171 44/50/157 77/179/156
f 85/187/169 175/92/170 77/179/156 43/49/155
f 28/34/36 79/181/160 176/93/172 86/188/171
f 79/181/160 38/44/113 84/186/166 176/93/172
f 176/93/172 84/186/166 42/48/149 78/180/152
f 86/188/171 176/93/172 78/180/152 44/50/157
f 34/40/138 68/170/137 206/251/173 207/252/174
f 68/170/137 33/39/136 205/250/175 206/251/173
f 177/94/176 87/189/177 45/51/48 111/123/45
f 88/190/178 177/94/176 111/123/45 46/52/44
f 33/39/136 71/173/142 204/249/179 205/250/175
f 71/173/142 35/41/141 203/248/180 204/249/179
f 178/95/181 89/191/182 47/53/50 112/124/49
f 87/189/177 178/95/181 112/124/49 45/51/48
f 35/41/141 73/175/146 202/247/183 203/248/180
f 73/175/146 36/42/145 201/246/184 202/247/183
f 179/96/185 90/192/186 48/54/52 113/125/51
f 89/191/182 179/96/185 113/125/51 47/53/50
s 10
f 210/254/187 209/255/188 211/256/189 212/257/190
f 209/255/188 213/258/191 214/259/192 211/256/189
s 1
f 180/97/193 88/190/178 46/52/44 114/126/47
f 90/192/186 180/97/193 114/126/47 48/54/52
f 184/196/194 95/103/10 139/56/13 182/194/195
f 183/195/196 185/197/197 97/106/15 15/21/37
f 16/22/53 95/103/10 184/196/194 181/193/198
f 97/106/15 185/197/197 182/194/195 139/56/13
s off
f 181/198/199 184/199/200 187/200/201 186/201/202
f 184/202/203 182/203/204 188/204/205 187/205/206
f 182/206/207 185/207/208 189/208/209 188/209/210
f 185/210/211 183/211/212 190/212/213 189/213/214
f 186/214/215 187/215/216 192/216/217 191/217/218
f 187/218/219 188/219/220 193/220/221 192/221/222
f 188/222/223 189/223/224 194/224/225 193/225/226
f 189/226/227 190/227/228 195/228/229 194/229/230
f 191/230/231 192/231/232 197/232/233 196/233/234
f 192/234/235 193/235/236 198/236/237 197/237/238
f 193/238/239 194/239/240 199/240/241 198/241/242
f 194/242/243 195/243/244 200/244/245 199/245/246
s 1
f 202/247/183 201/246/184 90/192/186 179/96/185
f 203/248/180 202/247/183 179/96/185 89/191/182
f 204/249/179 203/248/180 89/191/182 178/95/181
f 205/250/175 204/249/179 178/95/181 87/189/177
f 206/251/173 205/250/175 87/189/177 177/94/176
f 207/252/174 206/251/173 177/94/176 88/190/178
f 208/253/247 207/252/174 88/190/178 180/97/193
f 201/246/184 208/253/247 180/97/193 90/192/186
s 11
f 36/42/248 74/176/249 209/255/250 210/254/251
s 12
f 208/253/252 201/246/253 212/257/254 211/256/255
s 1
f 201/246/184 36/42/145 210/254/256 212/257/257
s 11
f 74/176/249 34/40/258 213/258/259 209/255/250
s 1
f 34/40/138 207/252/174 214/259/260 213/258/261
s 12
f 207/252/262 208/253/252 211/256/255 214/259/263
g default
v -0.073215 0.793016 0.108435
v -0.278150 1.634410 0.104426
v -0.278150 1.634410 -0.104426
v -0.073215 0.793016 -0.107563
v -0.293547 1.404886 -0.118463
v -0.293547 1.404886 0.119021
v -0.274558 0.965641 -0.120471
v -0.274558 0.965641 0.123819
v -0.000000 1.392561 0.148649
v -0.000000 0.979711 0.174805
v 0.000000 0.793016 0.112794
v 0.000000 0.793016 -0.107563
v 0.000000 0.979711 -0.143417
v 0.000000 1.392561 -0.143417
v 0.000000 1.637094 -0.107563
v -0.000000 1.637094 0.107563
v -0.091485 0.792908 -0.105546
v -0.091485 0.792908 0.105546
v -0.285183 0.917058 -0.105546
v -0.285183 0.917058 0.105546
v -0.103480 0.734152 -0.087236
v -0.103480 0.734151 0.087236
v -0.276872 0.830625 -0.087236
v -0.276872 0.830625 0.087236
v -0.142246 0.291621 -0.030603
v -0.124808 0.286968 0.062540
v -0.243562 0.291621 -0.030603
v -0.261540 0.286968 0.062540
v -0.319710 1.407075 -0.080620
v -0.319710 1.407075 0.080620
v -0.436554 1.480847 -0.080620
v -0.436554 1.480847 0.080620
v -0.586300 1.041400 -0.047589
v -0.586300 1.041400 0.047589
v -0.655294 1.084913 -0.047589
v -0.655293 1.084913 0.047589
v -0.112852 0.360693 0.064345
v -0.269219 0.369297 0.064345
v -0.261964 0.393114 -0.047886
v -0.120216 0.379671 -0.047886
v -0.141239 0.315901 0.188242
v -0.242303 0.315902 0.188242
v -0.142450 0.290417 0.187775
v -0.243596 0.290418 0.187775
v -0.691899 0.900797 -0.031561
v -0.691899 0.900797 0.031561
v -0.737659 0.929648 -0.031561
v -0.737659 0.929648 0.031561
v -0.305771 0.846704 0.000000
v -0.190176 0.782388 0.116315
v -0.112375 0.559724 -0.066592
v -0.096591 0.377430 0.000000
v -0.112375 0.559724 0.066592
v -0.268748 0.613496 -0.066592
v -0.191090 0.386393 -0.063848
v -0.268748 0.613496 0.066592
v -0.285589 0.395355 0.000000
v -0.190831 0.391933 0.085289
v -0.320522 1.463508 -0.095014
v -0.300236 1.394780 -0.000000
v -0.320522 1.463508 0.095014
v -0.319328 1.626359 -0.095014
v -0.378132 1.443961 -0.107493
v -0.319328 1.626359 0.095014
v -0.456028 1.493142 -0.000000
v -0.378132 1.443961 0.107493
v -0.448972 1.233111 -0.062536
v -0.574801 1.034148 -0.000000
v -0.448972 1.233111 0.062536
v -0.539618 1.290318 -0.062536
v -0.620797 1.063157 -0.063452
v -0.539618 1.290318 0.062536
v -0.666792 1.092165 -0.000000
v -0.620797 1.063157 0.063452
v -0.191612 0.320211 0.204918
v -0.124211 0.303009 0.204603
v -0.193241 0.285807 0.204288
v -0.260642 0.303009 0.204603
v -0.283368 0.304170 0.062776
v -0.260566 0.304363 -0.041441
v -0.123753 0.304363 -0.041441
v -0.101028 0.304169 0.062776
v -0.123176 0.320791 0.140912
v -0.259667 0.320791 0.140912
v -0.124865 0.286387 0.140281
v -0.261540 0.286388 0.140281
v -0.660339 0.932907 -0.042607
v -0.660339 0.932907 0.042607
v -0.722115 0.971855 -0.042607
v -0.722115 0.971855 0.042607
v -0.041212 0.793016 0.111051
v -0.161419 0.856277 0.146905
v -0.142553 0.979711 0.164342
v 0.000000 0.856277 0.164342
v -0.158654 1.626600 0.107563
v -0.277959 1.664241 0.000000
v -0.158654 1.626600 -0.107563
v -0.142553 0.979711 -0.143417
v -0.161419 0.856277 -0.143417
v -0.041212 0.793016 -0.107563
v 0.000000 0.856277 -0.143417
v -0.043814 0.771929 0.000000
v 0.000000 0.771929 0.000000
v -0.124789 0.287161 0.000000
v -0.193165 0.287161 -0.041231
v -0.261540 0.287161 0.000000
v -0.193500 0.281234 0.062461
v -0.278722 1.544919 -0.139234
v -0.159330 1.392561 -0.143417
v 0.000000 1.544914 -0.143417
v -0.692135 0.882744 -0.000000
v -0.723023 0.902217 -0.042607
v -0.753911 0.921692 -0.000000
v -0.723023 0.902217 0.042607
v -0.000000 1.544914 0.143417
v -0.159330 1.392561 0.146905
v -0.278722 1.544919 0.139234
v -0.279025 1.181316 -0.107563
v 0.000000 1.181316 -0.143417
v -0.318886 1.000798 0.000000
v -0.319345 1.365424 0.000000
v -0.279025 1.181316 0.111051
v 0.000000 1.181316 0.164342
v -0.086801 0.793016 -0.107563
v -0.059201 0.772216 0.000000
v -0.086801 0.793016 0.107563
v -0.285731 0.919539 -0.107563
v -0.188334 0.854983 -0.140728
v -0.285731 0.919539 0.107563
v -0.317466 0.937750 0.000000
v -0.188334 0.854983 0.140728
v -0.096781 0.792583 -0.099496
v -0.074582 0.718073 0.000000
v -0.096781 0.792583 0.099496
v -0.282291 0.909616 -0.099496
v -0.190176 0.782388 -0.116315
v -0.282291 0.909616 0.099496
v -0.091882 0.856277 0.157367
v -0.158542 1.657327 0.000000
v -0.091882 0.856277 -0.143417
v -0.024322 0.771929 0.000000
v -0.193500 0.281427 0.000000
v -0.158992 1.544914 -0.143417
v -0.733621 0.885496 -0.000000
v -0.158992 1.544914 0.143417
v -0.159443 1.181316 -0.143417
v -0.318886 1.181316 0.000000
v -0.159443 1.181316 0.157367
v -0.053646 0.771929 0.000000
v -0.186266 0.856277 -0.143417
v -0.318886 0.940626 0.000000
v -0.186266 0.856277 0.143417
v -0.065862 0.773077 0.000000
v -0.189536 0.851100 -0.132661
v -0.313209 0.929122 0.000000
v -0.189536 0.851100 0.132661
v -0.086313 0.550762 0.000000
v -0.190562 0.586610 -0.088790
v -0.294810 0.622458 0.000000
v -0.190562 0.586610 0.088790
v -0.320721 1.436366 0.000000
v -0.319925 1.544933 -0.126685
v -0.319129 1.653501 0.000000
v -0.319925 1.544933 0.126685
v -0.433865 1.223577 -0.000000
v -0.494295 1.261714 -0.083381
v -0.554726 1.299852 -0.000000
v -0.494295 1.261714 0.083381
v -0.192465 0.302816 0.225938
v -0.283368 0.304363 0.000000
v -0.192159 0.304363 -0.055254
v -0.100951 0.304363 0.000000
v -0.191125 0.326525 0.141017
v -0.101257 0.303589 0.140596
v -0.193500 0.280654 0.140176
v -0.283368 0.303590 0.140596
v -0.650043 0.926415 -0.000000
v -0.691227 0.952381 -0.056809
v -0.732411 0.978346 -0.000000
v -0.691227 0.952381 0.056809
v -0.000000 1.651455 0.057292
v -0.081985 1.667821 0.000000
v 0.000000 1.651319 -0.057768
v -0.066801 1.651301 0.057829
v -0.062010 1.652203 -0.054672
v -0.000000 1.690663 0.066177
v -0.066801 1.690663 0.066714
v -0.081985 1.690664 0.000000
v -0.062010 1.690664 -0.063557
v -0.000000 1.690663 -0.066653
v -0.000000 1.690663 0.066177
v -0.066801 1.690663 0.066714
v -0.081985 1.690664 0.000000
v -0.062010 1.690664 -0.063557
v -0.000000 1.690663 -0.066653
v -0.000000 1.723828 0.066177
v -0.066801 1.723828 0.066714
v -0.081985 1.723829 0.000000
v -0.062010 1.723829 -0.063557
v 0.000000 1.723828 -0.066653
v -0.687400 1.030590 0.045195
v -0.698321 1.037477 -0.000000
v -0.687400 1.030590 -0.045195
v -0.654638 1.009930 -0.060260
v -0.621875 0.989271 -0.045195
v -0.610954 0.982384 -0.000000
v -0.621875 0.989271 0.045195
v -0.654638 1.009930 0.060260
v -0.652440 1.013055 0.081352
v -0.674435 1.027178 0.085409
v -0.685672 0.959451 0.078685
v -0.706967 0.973120 0.082820
v -0.630455 0.998938 0.085258
v -0.664386 0.945788 0.082112
vt 0.625000 0.000000
vt 0.625000 1.000000
vt 0.625000 0.250000
vt 0.625000 0.500000
vt 0.875000 0.250000
vt 0.625000 0.750000
vt 0.875000 0.000000
vt 0.625000 0.583333
vt 0.875000 0.166667
vt 0.635000 0.166667
vt 0.625000 0.666667
vt 0.875000 0.083333
vt 0.635000 0.083333
vt 0.500000 0.166667
vt 0.500000 0.083333
vt 0.500000 0.000000
vt 0.500000 1.000000
vt 0.500000 0.770833
vt 0.500000 0.666667
vt 0.500000 0.583333
vt 0.500000 0.479167
vt 0.500000 0.270833
vt 0.843750 0.010417
vt 0.656250 0.010417
vt 0.843750 0.072917
vt 0.656250 0.072917
vt 0.843750 0.010417
vt 0.656250 0.010417
vt 0.843750 0.072917
vt 0.656250 0.072917
vt 0.819444 0.018519
vt 0.656250 0.010417
vt 0.819444 0.064815
vt 0.656250 0.072917
vt 0.843750 0.177083
vt 0.656250 0.177083
vt 0.843750 0.239583
vt 0.656250 0.239583
vt 0.843750 0.177083
vt 0.656250 0.177083
vt 0.843750 0.239583
vt 0.656250 0.239583
vt 0.645000 0.006667
vt 0.645000 0.076667
vt 0.843750 0.072917
vt 0.843750 0.010417
vt 0.625000 0.018519
vt 0.625000 0.064815
vt 0.625000 0.018519
vt 0.625000 0.064815
vt 0.819444 0.185185
vt 0.680556 0.185185
vt 0.819444 0.231481
vt 0.680556 0.231481
vt 0.562500 0.041667
vt 0.562500 0.375000
vt 0.562500 0.708333
vt 0.562500 0.875000
vt 0.750000 0.041667
vt 0.562500 0.541667
vt 0.750000 0.208333
vt 0.562500 0.208333
vt 0.562500 0.625000
vt 0.750000 0.125000
vt 0.562500 0.125000
vt 0.750000 0.000000
vt 0.875000 0.041667
vt 0.750000 0.083333
vt 0.625000 0.041667
vt 0.750000 0.000000
vt 0.875000 0.041667
vt 0.750000 0.083333
vt 0.625000 0.041667
vt 0.750000 0.000000
vt 0.875000 0.041667
vt 0.750000 0.083333
vt 0.625000 0.041667
vt 0.750000 0.166667
vt 0.875000 0.208333
vt 0.750000 0.250000
vt 0.625000 0.208333
vt 0.750000 0.166667
vt 0.875000 0.208333
vt 0.750000 0.250000
vt 0.625000 0.208333
vt 0.625000 0.041667
vt 0.750000 0.083333
vt 0.875000 0.041667
vt 0.750000 0.000000
vt 0.625000 0.041667
vt 0.625000 0.000000
vt 0.625000 0.041667
vt 0.625000 0.083333
vt 0.750000 0.166667
vt 0.875000 0.208333
vt 0.750000 0.250000
vt 0.625000 0.208333
vt 0.562500 0.000000
vt 0.562500 1.000000
vt 0.609375 0.041667
vt 0.562500 0.083333
vt 0.500000 0.041667
vt 0.562500 0.270833
vt 0.625000 0.375000
vt 0.750000 0.250000
vt 0.562500 0.479167
vt 0.562500 0.666667
vt 0.625000 0.708333
vt 0.875000 0.041667
vt 0.562500 0.770833
vt 0.500000 0.708333
vt 0.625000 0.875000
vt 0.750000 0.000000
vt 0.500000 0.875000
vt 0.750000 0.010417
vt 0.843750 0.041667
vt 0.750000 0.072917
vt 0.656250 0.041667
vt 0.625000 0.541667
vt 0.875000 0.208333
vt 0.562500 0.583333
vt 0.500000 0.541667
vt 0.750000 0.177083
vt 0.843750 0.208333
vt 0.750000 0.239583
vt 0.656250 0.208333
vt 0.500000 0.208333
vt 0.562500 0.166667
vt 0.609375 0.208333
vt 0.625000 0.625000
vt 0.875000 0.125000
vt 0.500000 0.625000
vt 0.750000 0.093750
vt 0.750000 0.156250
vt 0.640625 0.125000
vt 0.500000 0.125000
vt 0.843750 0.010417
vt 0.750000 0.000000
vt 0.656250 0.010417
vt 0.843750 0.072917
vt 0.875000 0.041667
vt 0.656250 0.072917
vt 0.750000 0.083333
vt 0.625000 0.041667
vt 0.843750 0.010417
vt 0.750000 0.000000
vt 0.656250 0.010417
vt 0.843750 0.072917
vt 0.875000 0.041667
vt 0.656250 0.072917
vt 0.750000 0.083333
vt 0.625000 0.041667
vt 0.843750 0.010417
vt 0.750000 0.000000
vt 0.656250 0.010417
vt 0.843750 0.072917
vt 0.875000 0.041667
vt 0.656250 0.072917
vt 0.750000 0.083333
vt 0.625000 0.041667
vt 0.843750 0.177083
vt 0.750000 0.166667
vt 0.656250 0.177083
vt 0.843750 0.239583
vt 0.875000 0.208333
vt 0.656250 0.239583
vt 0.750000 0.250000
vt 0.625000 0.208333
vt 0.843750 0.177083
vt 0.750000 0.166667
vt 0.656250 0.177083
vt 0.843750 0.239583
vt 0.875000 0.208333
vt 0.656250 0.239583
vt 0.750000 0.250000
vt 0.625000 0.208333
vt 0.625000 0.041667
vt 0.625000 0.010417
vt 0.625000 0.041667
vt 0.625000 0.072917
vt 0.656250 0.083333
vt 0.843750 0.072917
vt 0.843750 0.010417
vt 0.656250 0.000000
vt 0.625000 0.010417
vt 0.625000 0.072917
vt 0.625000 0.010417
vt 0.625000 0.072917
vt 0.843750 0.177083
vt 0.656250 0.177083
vt 0.843750 0.239583
vt 0.656250 0.239583
vt 0.500000 0.319517
vt 0.545702 0.375000
vt 0.500000 0.430944
vt 0.540067 0.318997
vt 0.538189 0.427946
vt 0.000000 0.000000
vt 1.000000 0.000000
vt 1.000000 1.000000
vt 0.000000 1.000000
vt 0.000000 0.000000
vt 1.000000 0.000000
vt 1.000000 1.000000
vt 0.000000 1.000000
vt 0.000000 0.000000
vt 1.000000 0.000000
vt 1.000000 1.000000
vt 0.000000 1.000000
vt 0.000000 0.000000
vt 1.000000 0.000000
vt 1.000000 1.000000
vt 0.000000 1.000000
vt 0.000000 0.000000
vt 1.000000 0.000000
vt 1.000000 1.000000
vt 0.000000 1.000000
vt 0.000000 0.000000
vt 1.000000 0.000000
vt 1.000000 1.000000
vt 0.000000 1.000000
vt 0.000000 0.000000
vt 1.000000 0.000000
vt 1.000000 1.000000
vt 0.000000 1.000000
vt 0.000000 0.000000
vt 1.000000 0.000000
vt 1.000000 1.000000
vt 0.000000 1.000000
vt 0.000000 0.000000
vt 1.000000 0.000000
vt 1.000000 1.000000
vt 0.000000 1.000000
vt 0.000000 0.000000
vt 1.000000 0.000000
vt 1.000000 1.000000
vt 0.000000 1.000000
vt 0.000000 0.000000
vt 1.000000 0.000000
vt 1.000000 1.000000
vt 0.000000 1.000000
vt 0.000000 0.000000
vt 1.000000 0.000000
vt 1.000000 1.000000
vt 0.000000 1.000000
vt 0.656250 0.239583
vt 0.750000 0.250000
vt 0.843750 0.239583
vt 0.875000 0.208333
vt 0.843750 0.177083
vt 0.750000 0.166667
vt 0.656250 0.177083
vt 0.625000 0.208333
vt 0.656250 0.239583
vt 0.625000 0.208333
vt 0.625000 0.208333
vt 0.656250 0.239583
vt 0.656250 0.177083
vt 0.656250 0.177083
vn -0.035790 -0.806397 0.590290
vn -0.047285 -0.813917 0.579053
vn -0.119891 -0.226614 0.966578
vn -0.070623 -0.221653 0.972565
vn -0.066050 -0.816548 0.573486
vn -0.223424 -0.203259 0.953293
vn -0.608493 -0.001806 0.793557
vn -0.176077 -0.003128 0.984371
vn -0.062929 0.000356 0.998018
vn -0.004192 0.685642 0.727927
vn -0.049704 0.758580 0.649681
vn -0.019654 0.999807 0.000000
vn -0.006515 0.999978 -0.001617
vn -0.049704 0.758580 -0.649681
vn -0.004222 0.686792 -0.726842
vn 0.000000 0.000000 -1.000000
vn -0.093210 0.009028 -0.995606
vn -0.027612 -0.111856 -0.993341
vn -0.000000 -0.126711 -0.991940
vn -0.561632 0.012437 -0.827294
vn -0.112102 -0.071124 -0.991148
vn 0.000000 -0.751806 -0.659385
vn 0.000000 -0.765546 -0.643382
vn -0.000000 -0.769795 -0.638291
vn -0.003541 -0.999994 -0.000014
vn -0.002554 -0.999997 0.000000
vn -0.004539 -0.999990 -0.000019
vn 0.240871 -0.970544 -0.005085
vn 0.248158 -0.965461 -0.079387
vn -0.000068 -0.998392 -0.056686
vn -0.000003 -0.999985 -0.005501
vn 0.227375 -0.913133 -0.338361
vn -0.001031 -0.880471 -0.474099
vn -0.233878 -0.909325 -0.344134
vn -0.255372 -0.963393 -0.081607
vn -0.247295 -0.968926 -0.005339
vn -0.024072 0.589905 -0.807114
vn -0.037977 0.127000 -0.991175
vn -0.004889 0.147990 -0.988977
vn -0.145306 0.092192 -0.985082
vn -0.539727 -0.066053 -0.839244
vn -0.085983 -0.020119 -0.996093
vn 0.000000 0.000000 -1.000000
vn 0.367144 -0.751754 0.547788
vn 0.428753 -0.903422 0.000000
vn -0.543743 -0.839252 -0.000000
vn -0.260714 -0.389126 0.883521
vn 0.367144 -0.751754 -0.547787
vn -0.260715 -0.389126 -0.883521
vn -0.853649 0.007805 -0.520790
vn -0.999999 0.000993 0.000001
vn -0.853648 0.007805 0.520791
vn -0.023299 0.586173 0.809851
vn -0.008317 0.165554 0.986166
vn -0.042985 0.140827 0.989101
vn -0.018205 0.047967 0.998683
vn -0.113928 0.016704 0.993349
vn -0.568766 -0.048688 0.821057
vn -0.151718 0.100113 0.983341
vn -0.111621 -0.003263 -0.993746
vn 0.000000 0.000000 -1.000000
vn -0.679523 -0.016750 -0.733463
vn -0.999931 0.011769 -0.000141
vn -0.999765 -0.021695 -0.000001
vn -0.706657 -0.004882 0.707539
vn -0.997215 -0.074576 -0.000025
vn -0.169537 0.033893 0.984941
vn -0.041922 0.051626 0.997786
vn -0.017481 -0.999847 0.000000
vn -0.085585 -0.816061 0.571594
vn -0.037928 -0.768491 -0.638735
vn -0.241184 -0.900015 -0.363046
vn -0.089259 -0.996008 0.000000
vn -0.241184 -0.900015 0.363047
vn -0.278977 -0.127669 -0.951773
vn -0.844723 0.011768 -0.535075
vn -0.715466 -0.578759 -0.391339
vn -0.458234 -0.706587 -0.539218
vn -0.999360 0.035765 -0.000000
vn -0.862439 -0.012731 0.506001
vn -0.715466 -0.578759 0.391340
vn -0.893842 -0.448383 0.000000
vn -0.331397 -0.217296 0.918128
vn -0.458233 -0.706588 0.539218
vn 0.951140 -0.308758 0.000000
vn 0.375522 -0.372788 0.848536
vn 0.375521 -0.372789 -0.848535
vn 0.592844 -0.150254 -0.791176
vn 0.994215 -0.107408 -0.000000
vn 0.592844 -0.150254 0.791176
vn -0.298898 -0.353353 -0.886455
vn -0.750502 -0.228518 -0.620101
vn -0.732683 -0.114875 -0.670805
vn -0.125017 -0.160328 -0.979115
vn -0.988831 -0.149041 0.000000
vn -0.750502 -0.228518 0.620102
vn -0.732683 -0.114875 0.670805
vn -0.997307 -0.073338 -0.000000
vn -0.298898 -0.353352 0.886455
vn -0.125017 -0.160328 0.979115
vn 0.997657 -0.067532 -0.010960
vn 0.671852 -0.067637 0.737591
vn 0.621386 -0.112770 -0.775346
vn 0.597625 -0.101365 -0.795342
vn 0.997973 -0.039075 -0.050221
vn 0.749598 0.125939 0.649802
vn -0.053837 -0.122118 -0.991054
vn -0.683278 -0.091232 -0.724436
vn -0.629701 -0.081624 -0.772537
vn -0.027215 -0.108650 -0.993707
vn -0.998764 -0.048861 -0.009130
vn -0.718607 -0.059863 0.692835
vn -0.755404 0.116132 0.644886
vn -0.998781 -0.022038 -0.044164
vn -0.046704 -0.076309 0.995990
vn -0.004108 0.241314 0.970439
vn -0.987838 -0.155486 0.000000
vn -0.547423 -0.290243 0.784912
vn -0.542821 -0.291141 -0.787770
vn 0.683533 -0.377637 -0.624638
vn 0.881331 -0.472500 0.000000
vn 0.683532 -0.377637 0.624639
vn -0.407793 0.105596 -0.906948
vn -0.608924 0.605225 -0.512752
vn -0.697757 0.419764 -0.580459
vn -0.126905 -0.038767 -0.991157
vn -0.690612 0.723226 0.000000
vn -0.608923 0.605225 0.512752
vn -0.697757 0.419764 0.580459
vn -0.834795 0.550562 0.000000
vn -0.408872 0.106214 0.906390
vn -0.126905 -0.038767 0.991157
vn 0.794571 -0.607171 0.000000
vn 0.589857 -0.491278 0.640870
vn 0.589857 -0.491278 -0.640870
vn 0.603592 -0.475452 -0.640018
vn 0.805471 -0.592635 0.000000
vn 0.639473 -0.496745 0.586786
vn -0.056673 -0.083175 -0.994922
vn -0.696832 0.330176 -0.636717
vn -0.707573 0.361379 -0.607244
vn -0.063757 -0.053085 -0.996553
vn -0.885801 0.464065 0.000000
vn -0.696832 0.330175 0.636717
vn -0.748494 0.388316 0.537558
vn -0.877530 0.479521 0.000000
vn -0.056673 -0.083176 0.994922
vn -0.078070 -0.050197 0.995683
vn -0.241891 0.945706 0.217091
vn 0.000627 0.926351 0.376660
vn -0.000240 -0.017396 0.999849
vn -0.506536 0.008965 0.862172
vn 0.247906 0.943071 0.221719
vn 0.505516 -0.039183 0.861927
vn 0.241480 -0.949572 0.200001
vn -0.000605 -0.934240 0.356645
vn -0.247622 -0.947332 0.203090
vn -0.972700 -0.172153 -0.155618
vn -0.566052 -0.169230 -0.806813
vn -0.984854 -0.119328 0.125788
vn -0.012956 -0.170966 -0.985192
vn 0.539363 -0.207291 -0.816161
vn 0.957096 -0.242428 -0.158735
vn 0.974969 -0.192429 0.111386
vn 0.012924 0.872707 0.488074
vn -0.439532 0.792648 0.422518
vn 0.447126 0.797322 0.405408
vn 0.974088 -0.104813 0.200415
vn 0.247445 -0.967623 0.049760
vn -0.000041 -0.999472 0.032481
vn -0.253977 -0.965879 0.050727
vn -0.977431 -0.026398 0.209598
vn 0.819844 -0.572587 -0.000000
vn 0.729561 -0.514029 0.451127
vn 0.613609 -0.448583 -0.649814
vn 0.774943 -0.632031 -0.000000
vn 0.544489 -0.494171 -0.677736
vn 0.544489 -0.494171 0.677736
vn -0.026536 -0.043020 -0.998722
vn -0.666017 0.364971 -0.650552
vn -0.071344 -0.095132 -0.992905
vn -0.691409 0.281001 -0.665577
vn -0.866338 0.499458 0.000000
vn -0.760907 0.429342 0.486504
vn -0.902959 0.429727 0.000001
vn -0.691410 0.281001 0.665576
vn 0.111925 -0.116544 0.986859
vn -0.034035 -0.029666 0.998980
vn 0.003014 -0.051856 0.998650
vn 0.111925 -0.116544 0.986859
vn -0.143987 0.036743 0.988897
vn -0.143987 0.036743 0.988897
vn -0.071344 -0.095132 0.992905
vn -0.085544 0.949457 0.302017
vn -0.118196 0.992960 -0.007821
vn -0.045698 0.945106 -0.323554
vn -0.084735 0.949809 -0.301136
vn -0.043780 0.943548 0.328330
vn 0.008090 -0.220578 0.975336
vn 0.008090 -0.220578 0.975336
vn 0.008090 -0.220578 0.975336
vn 0.008090 -0.220578 0.975336
vn -0.972004 -0.033222 0.232602
vn -0.972004 -0.033222 0.232602
vn -0.972004 -0.033222 0.232602
vn -0.972004 -0.033222 0.232602
vn -0.948203 -0.045561 -0.314382
vn -0.948203 -0.045561 -0.314382
vn -0.948203 -0.045561 -0.314382
vn -0.948203 -0.045561 -0.314382
vn -0.050188 -0.222370 -0.973670
vn -0.050188 -0.222370 -0.973670
vn -0.050188 -0.222371 -0.973670
vn -0.050188 -0.222370 -0.973670
vn 0.000000 0.000000 0.000000
vn 0.000000 0.000000 0.000000
vn 0.000000 0.000000 0.000000
vn 0.000000 0.000000 0.000000
vn 0.000000 0.000000 0.000000
vn 0.000000 0.000000 0.000000
vn 0.000000 0.000000 0.000000
vn 0.000000 0.000000 0.000000
vn 0.000000 0.000000 0.000000
vn 0.000000 0.000000 0.000000
vn 0.000000 0.000000 0.000000
vn 0.000000 0.000000 0.000000
vn 0.000000 0.000000 0.000000
vn 0.000000 0.000000 0.000000
vn 0.000000 0.000000 0.000000
vn 0.000000 0.000000 0.000000
vn 0.008037 -0.000001 0.999968
vn 0.008037 -0.000001 0.999968
vn 0.008037 -0.000001 0.999968
vn 0.008037 -0.000001 0.999968
vn -0.975065 0.000000 0.221921
vn -0.975065 0.000000 0.221921
vn -0.975065 0.000000 0.221921
vn -0.975064 0.000000 0.221921
vn -0.953994 0.000001 -0.299825
vn -0.953994 0.000001 -0.299825
vn -0.953994 0.000001 -0.299825
vn -0.953994 0.000001 -0.299825
vn -0.049854 -0.000000 -0.998757
vn -0.049854 -0.000000 -0.998757
vn -0.049854 -0.000000 -0.998757
vn -0.049854 -0.000000 -0.998757
vn 0.013575 -0.068453 0.997562
vn 0.082638 0.426490 0.900709
vn 0.229899 0.337811 0.912705
vn 0.206721 0.352722 0.912608
vn 0.082638 0.426490 0.900709
vn -0.233559 -0.337715 -0.911811
vn -0.088488 -0.426017 -0.900377
vn -0.088488 -0.426017 -0.900377
vn -0.210738 -0.352544 -0.911758
vn -0.823756 0.477221 0.306083
vn -0.823756 0.477221 0.306083
vn 0.351592 0.253157 0.901274
vn 0.351592 0.253157 0.901274
vn 0.789181 -0.536726 0.298527
vn 0.789181 -0.536726 0.298527
vn -0.354408 -0.252836 -0.900260
vn -0.354408 -0.252836 -0.900260
s 1
g pCube1 pCube2
usemtl initialShadingGroup
f 225/275/264 305/357/265 352/314/266 308/361/267
f 305/357/265 215/260/268 306/359/269 352/314/266
f 352/314/266 306/359/269 222/272/270 307/360/271
f 308/361/267 352/314/266 307/360/271 224/274/272
f 309/362/273 216/262/274 310/363/275 353/315/276
f 353/315/276 310/363/275 217/263/277 311/365/278
f 227/278/279 312/366/280 354/316/281 315/370/282
f 312/366/280 221/270/283 313/367/284 354/316/281
f 354/316/281 313/367/284 218/265/285 314/369/286
f 315/370/282 354/316/281 314/369/286 226/277/287
f 226/277/287 314/369/286 355/317/288 317/373/289
f 314/369/286 218/265/285 316/371/290 355/317/288
f 355/317/288 316/371/290 215/261/268 305/358/265
f 317/373/289 355/317/288 305/358/265 225/276/264
f 240/291/291 318/374/292 356/318/293 321/377/294
f 318/374/292 239/290/295 319/375/296 356/318/293
f 356/318/293 319/375/296 241/292/297 320/376/298
f 321/377/294 356/318/293 320/376/298 242/293/299
f 229/280/300 311/365/278 357/319/301 324/381/302
f 311/365/278 217/263/277 322/378/303 357/319/301
f 357/319/301 322/378/303 219/267/304 323/380/305
f 324/381/302 357/319/301 323/380/305 228/279/306
f 260/311/307 325/382/308 358/320/309 328/385/310
f 325/382/308 259/310/311 326/383/312 358/320/309
f 358/320/309 326/383/312 261/312/313 327/384/314
f 328/385/310 358/320/309 327/384/314 262/313/315
f 230/281/316 329/386/317 359/321/318 309/362/273
f 329/386/317 223/273/319 330/387/320 359/321/318
f 359/321/318 330/387/320 220/269/321 331/388/322
f 309/362/273 359/321/318 331/388/322 216/262/274
f 228/279/306 323/380/305 360/322/323 333/391/324
f 323/380/305 219/267/304 332/389/325 360/322/323
f 360/322/323 332/389/325 221/270/283 312/366/280
f 333/391/324 360/322/323 312/366/280 227/278/279
f 222/272/270 334/392/326 361/323/327 336/394/328
f 334/392/326 221/271/283 332/390/325 361/323/327
f 361/323/327 332/390/325 219/268/304 335/393/329
f 336/394/328 361/323/327 335/393/329 220/269/321
f 224/274/272 307/360/271 362/324/330 337/395/331
f 307/360/271 222/272/270 336/394/328 362/324/330
f 362/324/330 336/394/328 220/269/321 330/387/320
f 337/395/331 362/324/330 330/387/320 223/273/319
f 215/260/268 316/372/290 363/325/332 340/398/333
f 316/372/290 218/266/285 338/396/334 363/325/332
f 363/325/332 338/396/334 231/282/335 339/397/336
f 340/398/333 363/325/332 339/397/336 232/283/337
f 218/266/285 313/368/284 364/326/338 338/396/334
f 313/368/284 221/271/283 341/399/339 364/326/338
f 364/326/338 341/399/339 233/284/340 342/400/341
f 338/396/334 364/326/338 342/400/341 231/282/335
f 221/271/283 334/392/326 365/327/342 341/399/339
f 334/392/326 222/272/270 343/401/343 365/327/342
f 365/327/342 343/401/343 234/285/344 344/402/345
f 341/399/339 365/327/342 344/402/345 233/284/340
f 222/272/270 306/359/269 366/328/346 343/401/343
f 306/359/269 215/260/268 340/398/333 366/328/346
f 366/328/346 340/398/333 232/283/337 345/403/347
f 343/401/343 366/328/346 345/403/347 234/285/344
f 232/283/337 339/397/336 367/329/348 348/406/349
f 339/397/336 231/282/335 346/404/350 367/329/348
f 367/329/348 346/404/350 235/286/351 347/405/352
f 348/406/349 367/329/348 347/405/352 236/287/353
f 231/282/335 342/400/341 368/330/354 346/404/350
f 342/400/341 233/284/340 349/407/355 368/330/354
f 368/330/354 349/407/355 237/288/356 350/408/357
f 346/404/350 368/330/354 350/408/357 235/286/351
f 233/284/340 344/402/345 369/331/358 349/407/355
f 344/402/345 234/285/344 351/409/359 369/331/358
f 369/331/358 351/409/359 238/289/360 263/410/361
f 349/407/355 369/331/358 263/410/361 237/288/356
f 234/285/344 345/403/347 370/332/362 351/409/359
f 345/403/347 232/283/337 348/406/349 370/332/362
f 370/332/362 348/406/349 236/287/353 264/411/363
f 351/409/359 370/332/362 264/411/363 238/289/360
f 236/287/353 347/405/352 371/333/364 267/414/365
f 347/405/352 235/286/351 265/412/366 371/333/364
f 371/333/364 265/412/366 254/305/367 266/413/368
f 267/414/365 371/333/364 266/413/368 251/302/369
f 235/286/351 350/408/357 372/334/370 265/412/366
f 350/408/357 237/288/356 268/415/371 372/334/370
f 372/334/370 268/415/371 253/304/372 269/416/373
f 265/412/366 372/334/370 269/416/373 254/305/367
f 237/288/356 263/410/361 373/335/374 268/415/371
f 263/410/361 238/289/360 270/417/375 373/335/374
f 373/335/374 270/417/375 252/303/376 271/418/377
f 268/415/371 373/335/374 271/418/377 253/304/372
f 238/289/360 264/411/363 374/336/378 270/417/375
f 264/411/363 236/287/353 267/414/365 374/336/378
f 374/336/378 267/414/365 251/302/369 272/419/379
f 270/417/375 374/336/378 272/419/379 252/303/376
f 220/269/321 335/393/329 375/337/380 275/422/381
f 335/393/329 219/268/304 273/420/382 375/337/380
f 375/337/380 273/420/382 243/294/383 274/421/384
f 275/422/381 375/337/380 274/421/384 244/295/385
f 219/268/304 322/379/303 376/338/386 273/420/382
f 322/379/303 217/264/277 276/423/387 376/338/386
f 376/338/386 276/423/387 245/296/388 277/424/389
f 273/420/382 376/338/386 277/424/389 243/294/383
f 217/264/277 310/364/275 377/339/390 276/423/387
f 310/364/275 216/262/274 278/425/391 377/339/390
f 377/339/390 278/425/391 246/297/392 279/426/393
f 276/423/387 377/339/390 279/426/393 245/296/388
f 216/262/274 331/388/322 378/340/394 278/425/391
f 331/388/322 220/269/321 275/422/381 378/340/394
f 378/340/394 275/422/381 244/295/385 280/427/395
f 278/425/391 378/340/394 280/427/395 246/297/392
f 244/295/385 274/421/384 379/341/396 283/430/397
f 274/421/384 243/294/383 281/428/398 379/341/396
f 379/341/396 281/428/398 247/298/399 282/429/400
f 283/430/397 379/341/396 282/429/400 248/299/401
f 243/294/383 277/424/389 380/342/402 281/428/398
f 277/424/389 245/296/388 284/431/403 380/342/402
f 380/342/402 284/431/403 249/300/404 285/432/405
f 281/428/398 380/342/402 285/432/405 247/298/399
f 245/296/388 279/426/393 381/343/406 284/431/403
f 279/426/393 246/297/392 286/433/407 381/343/406
f 381/343/406 286/433/407 250/301/408 287/434/409
f 284/431/403 381/343/406 287/434/409 249/300/404
f 246/297/392 280/427/395 382/344/410 286/433/407
f 280/427/395 244/295/385 283/430/397 382/344/410
f 382/344/410 283/430/397 248/299/401 288/435/411
f 286/433/407 382/344/410 288/435/411 250/301/408
f 256/307/412 289/436/413 383/345/414 292/439/415
f 289/436/413 255/306/416 290/437/417 383/345/414
f 383/345/414 290/437/417 257/308/418 291/438/419
f 292/439/415 383/345/414 291/438/419 258/309/420
f 253/304/372 271/418/377 384/346/421 294/441/422
f 271/418/377 252/303/376 293/440/423 384/346/421
f 384/346/421 293/440/423 242/293/299 320/376/298
f 294/441/422 384/346/421 320/376/298 241/292/297
f 254/305/367 269/416/373 385/347/424 295/442/425
f 269/416/373 253/304/372 294/441/422 385/347/424
f 385/347/424 294/441/422 241/292/297 319/375/296
f 295/442/425 385/347/424 319/375/296 239/290/295
f 251/302/369 266/413/368 386/348/426 296/443/427
f 266/413/368 254/305/367 295/442/425 386/348/426
f 386/348/426 295/442/425 239/290/295 318/374/292
f 296/443/427 386/348/426 318/374/292 240/291/291
f 252/303/376 272/419/379 387/349/428 298/445/429
f 272/419/379 251/302/369 297/444/430 387/349/428
f 387/349/428 297/444/430 255/306/416 289/436/413
f 298/445/429 387/349/428 289/436/413 256/307/412
f 251/302/369 296/443/427 388/350/431 297/444/430
f 296/443/427 240/291/291 299/446/432 388/350/431
f 388/350/431 299/446/432 257/308/418 290/437/417
f 297/444/430 388/350/431 290/437/417 255/306/416
f 240/291/291 321/377/294 389/351/433 299/446/432
f 321/377/294 242/293/299 300/447/434 389/351/433
f 389/351/433 300/447/434 258/309/420 291/438/419
f 299/446/432 389/351/433 291/438/419 257/308/418
f 242/293/299 293/440/423 390/352/435 300/447/434
f 293/440/423 252/303/376 298/445/429 390/352/435
f 390/352/435 298/445/429 256/307/412 292/439/415
f 300/447/434 390/352/435 292/439/415 258/309/420
f 248/299/401 282/429/400 420/510/436 421/511/437
f 282/429/400 247/298/399 419/509/438 420/510/436
f 391/353/439 301/448/440 259/310/311 325/382/308
f 302/449/441 391/353/439 325/382/308 260/311/307
f 247/298/399 285/432/405 418/508/442 419/509/438
f 285/432/405 249/300/404 417/507/443 418/508/442
f 392/354/444 303/450/445 261/312/313 326/383/312
f 301/448/440 392/354/444 326/383/312 259/310/311
f 249/300/404 287/434/409 416/506/446 417/507/443
f 287/434/409 250/301/408 415/505/447 416/506/446
f 393/355/448 304/451/449 262/313/315 327/384/314
f 303/450/445 393/355/448 327/384/314 261/312/313
s 10
f 424/513/450 423/514/451 425/515/452 426/516/453
f 423/514/451 427/517/454 428/518/455 425/515/452
s 1
f 394/356/456 302/449/441 260/311/307 328/385/310
f 304/451/449 394/356/456 328/385/310 262/313/315
f 398/455/457 309/362/273 353/315/276 396/453/458
f 397/454/459 399/456/460 311/365/278 229/280/300
f 230/281/316 309/362/273 398/455/457 395/452/461
f 311/365/278 399/456/460 396/453/458 353/315/276
s off
f 395/457/462 398/458/463 401/459/464 400/460/465
f 398/461/466 396/462/467 402/463/468 401/464/469
f 396/465/470 399/466/471 403/467/472 402/468/473
f 399/469/474 397/470/475 404/471/476 403/472/477
f 400/473/478 401/474/479 406/475/480 405/476/481
f 401/477/482 402/478/483 407/479/484 406/480/485
f 402/481/486 403/482/487 408/483/488 407/484/489
f 403/485/490 404/486/491 409/487/492 408/488/493
f 405/489/494 406/490/495 411/491/496 410/492/497
f 406/493/498 407/494/499 412/495/500 411/496/501
f 407/497/502 408/498/503 413/499/504 412/500/505
f 408/501/506 409/502/507 414/503/508 413/504/509
s 1
f 416/506/446 415/505/447 304/451/449 393/355/448
f 417/507/443 416/506/446 393/355/448 303/450/445
f 418/508/442 417/507/443 303/450/445 392/354/444
f 419/509/438 418/508/442 392/354/444 301/448/440
f 420/510/436 419/509/438 301/448/440 391/353/439
f 421/511/437 420/510/436 391/353/439 302/449/441
f 422/512/510 421/511/437 302/449/441 394/356/456
f 415/505/447 422/512/510 394/356/456 304/451/449
s 11
f 250/301/511 288/435/512 423/514/513 424/513/514
s 12
f 422/512/515 415/505/516 426/516/517 425/515/518
s 1
f 415/505/447 250/301/408 424/513/519 426/516/520
s 11
f 288/435/512 248/299/521 427/517/522 423/514/513
s 1
f 248/299/401 421/511/437 428/518/523 427/517/524
s 12
f 421/511/525 422/512/515 425/515/518 428/518/526
g default
v -0.172312 1.821542 0.172312
v 0.172312 1.821542 0.172312
v -0.172312 2.166165 0.172311
v 0.172312 2.166165 0.172311
v -0.172312 2.166165 -0.172312
v 0.172312 2.166165 -0.172312
v -0.172312 1.821542 -0.172312
v 0.172312 1.821542 -0.172312
v -0.217641 2.211494 -0.000000
v 0.217641 1.993853 -0.217641
v 0.000000 1.776212 -0.217641
v -0.217641 1.993853 -0.217641
v 0.217641 1.776212 -0.000000
v -0.217641 1.776212 0.000000
v 0.000000 1.776212 0.217641
v 0.217641 1.993853 0.217641
v 0.000000 2.211494 0.217641
v -0.217641 1.993853 0.217641
v 0.217641 2.211494 0.000000
v 0.000000 2.211494 -0.217641
v 0.000000 1.993853 0.297237
v 0.000000 2.291091 -0.000000
v 0.000000 1.993853 -0.297237
v 0.000000 1.696616 0.000000
v 0.297237 1.993853 0.000000
v -0.297237 1.993853 -0.000000
v -0.110436 1.883417 0.258467
v 0.110436 1.883417 0.258467
v 0.110436 2.104289 0.258467
v -0.110436 2.104289 0.258467
v -0.110436 2.252321 0.110436
v 0.110436 2.252321 0.110436
v 0.110436 2.252321 -0.110436
v -0.110436 2.252321 -0.110436
v -0.110436 2.104289 -0.258467
v 0.110436 2.104289 -0.258467
v 0.110436 1.883417 -0.258467
v -0.110436 1.883417 -0.258467
v -0.110436 1.735386 -0.110436
v 0.110436 1.735386 -0.110436
v 0.110436 1.735386 0.110436
v -0.110436 1.735386 0.110436
v 0.258467 1.883417 0.110436
v 0.258467 1.883417 -0.110436
v 0.258467 2.104289 -0.110436
v 0.258467 2.104289 0.110436
v -0.258467 1.883417 -0.110436
v -0.258467 1.883417 0.110436
v -0.258467 2.104289 0.110436
v -0.258467 2.104289 -0.110436
v -0.000000 1.875193 0.277265
v 0.118660 1.993853 0.277265
v 0.000000 2.112513 0.277265
v -0.118660 1.993853 0.277265
v -0.000000 2.271118 0.118660
v 0.118660 2.271118 0.000000
v 0.000000 2.271118 -0.118660
v -0.118660 2.271118 -0.000000
v -0.000000 2.112513 -0.277265
v 0.118660 1.993853 -0.277265
v 0.000000 1.875193 -0.277265
v -0.118660 1.993853 -0.277265
v -0.000000 1.716588 -0.118660
v 0.118660 1.716588 -0.000000
v 0.000000 1.716588 0.118660
v -0.118660 1.716588 0.000000
v 0.277265 1.875193 0.000000
v 0.277265 1.993853 -0.118660
v 0.277265 2.112513 -0.000000
v 0.277265 1.993853 0.118660
v -0.277265 1.875193 -0.000000
v -0.277265 1.993853 0.118660
v -0.277265 2.112513 0.000000
v -0.277265 1.993853 -0.118660
v -0.102212 1.791191 0.202662
v 0.102212 1.791191 0.202662
v 0.202662 1.891641 0.202662
v 0.202662 2.096065 0.202662
v 0.102212 2.196515 0.202662
v -0.102212 2.196515 0.202662
v -0.202662 2.096065 0.202662
v -0.202662 1.891641 0.202662
v 0.202662 2.196515 0.102212
v 0.202662 2.196515 -0.102212
v 0.102212 2.196515 -0.202662
v -0.102212 2.196515 -0.202662
v -0.202662 2.196515 -0.102212
v -0.202662 2.196515 0.102212
v 0.202662 2.096065 -0.202662
v 0.202662 1.891641 -0.202662
v 0.102212 1.791191 -0.202662
v -0.102212 1.791191 -0.202662
v -0.202662 1.891641 -0.202662
v -0.202662 2.096065 -0.202662
v 0.202662 1.791191 -0.102212
v 0.202662 1.791191 0.102212
v -0.202662 1.791191 0.102212
v -0.202662 1.791191 -0.102212
vt 0.375000 0.000000
vt 0.375000 1.000000
vt 0.625000 0.000000
vt 0.625000 1.000000
vt 0.375000 0.250000
vt 0.625000 0.250000
vt 0.375000 0.500000
vt 0.125000 0.250000
vt 0.625000 0.500000
vt 0.875000 0.250000
vt 0.375000 0.750000
vt 0.125000 0.000000
vt 0.625000 0.750000
vt 0.875000 0.000000
vt 0.500000 0.125000
vt 0.500000 0.375000
vt 0.500000 0.625000
vt 0.500000 0.875000
vt 0.750000 0.125000
vt 0.250000 0.125000
vt 0.500000 0.000000
vt 0.500000 1.000000
vt 0.625000 0.125000
vt 0.500000 0.250000
vt 0.375000 0.125000
vt 0.625000 0.375000
vt 0.750000 0.250000
vt 0.500000 0.500000
vt 0.375000 0.375000
vt 0.250000 0.250000
vt 0.625000 0.625000
vt 0.875000 0.125000
vt 0.500000 0.750000
vt 0.375000 0.625000
vt 0.125000 0.125000
vt 0.625000 0.875000
vt 0.750000 0.000000
vt 0.375000 0.875000
vt 0.250000 0.000000
vt 0.437500 0.062500
vt 0.562500 0.062500
vt 0.562500 0.187500
vt 0.437500 0.187500
vt 0.437500 0.312500
vt 0.562500 0.312500
vt 0.562500 0.437500
vt 0.437500 0.437500
vt 0.437500 0.562500
vt 0.562500 0.562500
vt 0.562500 0.687500
vt 0.437500 0.687500
vt 0.437500 0.812500
vt 0.562500 0.812500
vt 0.562500 0.937500
vt 0.437500 0.937500
vt 0.687500 0.062500
vt 0.812500 0.062500
vt 0.812500 0.187500
vt 0.687500 0.187500
vt 0.187500 0.062500
vt 0.312500 0.062500
vt 0.312500 0.187500
vt 0.187500 0.187500
vt 0.500000 0.062500
vt 0.562500 0.125000
vt 0.500000 0.187500
vt 0.437500 0.125000
vt 0.500000 0.312500
vt 0.562500 0.375000
vt 0.500000 0.437500
vt 0.437500 0.375000
vt 0.500000 0.562500
vt 0.562500 0.625000
vt 0.500000 0.687500
vt 0.437500 0.625000
vt 0.500000 0.812500
vt 0.562500 0.875000
vt 0.500000 0.937500
vt 0.437500 0.875000
vt 0.750000 0.062500
vt 0.812500 0.125000
vt 0.750000 0.187500
vt 0.687500 0.125000
vt 0.250000 0.062500
vt 0.312500 0.125000
vt 0.250000 0.187500
vt 0.187500 0.125000
vt 0.437500 0.000000
vt 0.437500 1.000000
vt 0.562500 0.000000
vt 0.562500 1.000000
vt 0.625000 0.062500
vt 0.625000 0.187500
vt 0.562500 0.250000
vt 0.437500 0.250000
vt 0.375000 0.187500
vt 0.375000 0.062500
vt 0.625000 0.312500
vt 0.687500 0.250000
vt 0.625000 0.437500
vt 0.812500 0.250000
vt 0.562500 0.500000
vt 0.437500 0.500000
vt 0.375000 0.437500
vt 0.187500 0.250000
vt 0.375000 0.312500
vt 0.312500 0.250000
vt 0.625000 0.562500
vt 0.875000 0.187500
vt 0.625000 0.687500
vt 0.875000 0.062500
vt 0.562500 0.750000
vt 0.437500 0.750000
vt 0.375000 0.687500
vt 0.125000 0.062500
vt 0.375000 0.562500
vt 0.125000 0.187500
vt 0.625000 0.812500
vt 0.812500 0.000000
vt 0.625000 0.937500
vt 0.687500 0.000000
vt 0.375000 0.937500
vt 0.312500 0.000000
vt 0.375000 0.812500
vt 0.187500 0.000000
vn -0.577350 -0.577350 0.577350
vn -0.313220 -0.671526 0.671526
vn -0.329322 -0.329322 0.884926
vn -0.671526 -0.313220 0.671526
vn -0.000000 -0.707107 0.707107
vn 0.000000 -0.345160 0.938544
vn 0.000000 -0.000000 1.000000
vn -0.345160 -0.000000 0.938544
vn -0.707107 -0.000000 0.707107
vn 0.313220 -0.671526 0.671526
vn 0.329322 -0.329322 0.884926
vn 0.577350 -0.577350 0.577350
vn 0.671526 -0.313220 0.671526
vn 0.707107 0.000000 0.707107
vn 0.345160 0.000000 0.938544
vn 0.329322 0.329322 0.884926
vn 0.000000 0.345160 0.938544
vn 0.671526 0.313219 0.671526
vn 0.577350 0.577350 0.577350
vn 0.313220 0.671526 0.671526
vn 0.000000 0.707107 0.707107
vn -0.329322 0.329322 0.884926
vn -0.671526 0.313220 0.671526
vn -0.313220 0.671526 0.671526
vn -0.577350 0.577350 0.577350
vn -0.329322 0.884926 0.329322
vn -0.671526 0.671526 0.313220
vn -0.000000 0.938544 0.345160
vn -0.000000 1.000000 0.000000
vn -0.345160 0.938544 0.000000
vn -0.707107 0.707107 -0.000000
vn 0.329322 0.884926 0.329322
vn 0.671526 0.671526 0.313220
vn 0.707107 0.707107 -0.000000
vn 0.345160 0.938544 0.000000
vn 0.329322 0.884926 -0.329322
vn -0.000000 0.938544 -0.345160
vn 0.671526 0.671526 -0.313219
vn 0.577350 0.577350 -0.577350
vn 0.313220 0.671526 -0.671526
vn 0.000000 0.707107 -0.707107
vn -0.329322 0.884926 -0.329322
vn -0.671526 0.671526 -0.313219
vn -0.313220 0.671526 -0.671526
vn -0.577350 0.577350 -0.577350
vn -0.329322 0.329322 -0.884926
vn -0.671526 0.313220 -0.671526
vn 0.000000 0.345160 -0.938544
vn 0.000000 0.000000 -1.000000
vn -0.345160 0.000000 -0.938544
vn -0.707107 0.000000 -0.707107
vn 0.329322 0.329322 -0.884926
vn 0.671526 0.313220 -0.671526
vn 0.707107 -0.000000 -0.707107
vn 0.345160 0.000000 -0.938544
vn 0.329322 -0.329322 -0.884926
vn 0.000000 -0.345160 -0.938544
vn 0.671526 -0.313220 -0.671526
vn 0.577350 -0.577350 -0.577350
vn 0.313220 -0.671526 -0.671526
vn 0.000000 -0.707107 -0.707107
vn -0.329322 -0.329322 -0.884926
vn -0.671526 -0.313220 -0.671526
vn -0.313220 -0.671526 -0.671526
vn -0.577350 -0.577350 -0.577350
vn -0.329322 -0.884926 -0.329322
vn -0.671526 -0.671526 -0.313219
vn -0.000000 -0.938544 -0.345160
vn -0.000000 -1.000000 -0.000000
vn -0.345160 -0.938544 -0.000000
vn -0.707107 -0.707107 -0.000000
vn 0.329322 -0.884926 -0.329322
vn 0.671526 -0.671526 -0.313219
vn 0.707107 -0.707107 -0.000000
vn 0.345160 -0.938544 -0.000000
vn 0.329322 -0.884926 0.329322
vn 0.000000 -0.938544 0.345160
vn 0.671526 -0.671526 0.313219
vn -0.329322 -0.884926 0.329322
vn -0.671526 -0.671526 0.313219
vn 0.884926 -0.329322 0.329322
vn 0.938544 -0.345160 0.000000
vn 1.000000 -0.000000 -0.000000
vn 0.938544 0.000000 0.345160
vn 0.884926 -0.329322 -0.329322
vn 0.938544 -0.000000 -0.345160
vn 0.884926 0.329322 -0.329322
vn 0.938544 0.345160 -0.000000
vn 0.884926 0.329322 0.329322
vn -0.884926 -0.329322 -0.329322
vn -0.938544 -0.345160 -0.000000
vn -1.000000 -0.000000 -0.000000
vn -0.938544 0.000000 -0.345160
vn -0.884926 -0.329322 0.329322
vn -0.938544 -0.000000 0.345160
vn -0.884926 0.329322 0.329322
vn -0.938544 0.345160 0.000000
vn -0.884926 0.329322 -0.329322
s 1
g pCube3
usemtl initialShadingGroup
f 429/519/527 503/606/528 455/558/529 510/615/530
f 503/606/528 443/539/531 479/582/532 455/558/529
f 455/558/529 479/582/532 449/533/533 482/585/534
f 510/615/530 455/558/529 482/585/534 446/543/535
f 443/539/531 504/608/536 456/559/537 479/582/532
f 504/608/536 430/521/538 505/610/539 456/559/537
f 456/559/537 505/610/539 444/541/540 480/583/541
f 479/582/532 456/559/537 480/583/541 449/533/533
f 449/533/533 480/583/541 457/560/542 481/584/543
f 480/583/541 444/541/540 506/611/544 457/560/542
f 457/560/542 506/611/544 432/524/545 507/612/546
f 481/584/543 457/560/542 507/612/546 445/542/547
f 446/543/535 482/585/534 458/561/548 509/614/549
f 482/585/534 449/533/533 481/584/543 458/561/548
f 458/561/548 481/584/543 445/542/547 508/613/550
f 509/614/549 458/561/548 508/613/550 431/523/551
f 431/523/551 508/613/550 459/562/552 516/624/553
f 508/613/550 445/542/547 483/586/554 459/562/552
f 459/562/552 483/586/554 450/534/555 486/589/556
f 516/624/553 459/562/552 486/589/556 437/547/557
f 445/542/547 507/612/546 460/563/558 483/586/554
f 507/612/546 432/524/545 511/616/559 460/563/558
f 460/563/558 511/616/559 447/544/560 484/587/561
f 483/586/554 460/563/558 484/587/561 450/534/555
f 450/534/555 484/587/561 461/564/562 485/588/563
f 484/587/561 447/544/560 512/618/564 461/564/562
f 461/564/562 512/618/564 434/527/565 513/620/566
f 485/588/563 461/564/562 513/620/566 448/546/567
f 437/547/557 486/589/556 462/565/568 515/622/569
f 486/589/556 450/534/555 485/588/563 462/565/568
f 462/565/568 485/588/563 448/546/567 514/621/570
f 515/622/569 462/565/568 514/621/570 433/525/571
f 433/525/571 514/621/570 463/566/572 522/634/573
f 514/621/570 448/546/567 487/590/574 463/566/572
f 463/566/572 487/590/574 451/535/575 490/593/576
f 522/634/573 463/566/572 490/593/576 440/552/577
f 448/546/567 513/620/566 464/567/578 487/590/574
f 513/620/566 434/527/565 517/626/579 464/567/578
f 464/567/578 517/626/579 438/549/580 488/591/581
f 487/590/574 464/567/578 488/591/581 451/535/575
f 451/535/575 488/591/581 465/568/582 489/592/583
f 488/591/581 438/549/580 518/628/584 465/568/582
f 465/568/582 518/628/584 436/531/585 519/630/586
f 489/592/583 465/568/582 519/630/586 439/551/587
f 440/552/577 490/593/576 466/569/588 521/632/589
f 490/593/576 451/535/575 489/592/583 466/569/588
f 466/569/588 489/592/583 439/551/587 520/631/590
f 521/632/589 466/569/588 520/631/590 435/529/591
f 435/529/591 520/631/590 467/570/592 526/642/593
f 520/631/590 439/551/587 491/594/594 467/570/592
f 467/570/592 491/594/594 452/536/595 494/597/596
f 526/642/593 467/570/592 494/597/596 442/556/597
f 439/551/587 519/630/586 468/571/598 491/594/594
f 519/630/586 436/531/585 523/636/599 468/571/598
f 468/571/598 523/636/599 441/554/600 492/595/601
f 491/594/594 468/571/598 492/595/601 452/536/595
f 452/536/595 492/595/601 469/572/602 493/596/603
f 492/595/601 441/554/600 524/638/604 469/572/602
f 469/572/602 524/638/604 430/522/538 504/609/536
f 493/596/603 469/572/602 504/609/536 443/540/531
f 442/556/597 494/597/596 470/573/605 525/640/606
f 494/597/596 452/536/595 493/596/603 470/573/605
f 470/573/605 493/596/603 443/540/531 503/607/528
f 525/640/606 470/573/605 503/607/528 429/520/527
f 430/521/538 524/639/604 471/574/607 505/610/539
f 524/639/604 441/555/600 495/598/608 471/574/607
f 471/574/607 495/598/608 453/537/609 498/601/610
f 505/610/539 471/574/607 498/601/610 444/541/540
f 441/555/600 523/637/599 472/575/611 495/598/608
f 523/637/599 436/532/585 518/629/584 472/575/611
f 472/575/611 518/629/584 438/550/580 496/599/612
f 495/598/608 472/575/611 496/599/612 453/537/609
f 453/537/609 496/599/612 473/576/613 497/600/614
f 496/599/612 438/550/580 517/627/579 473/576/613
f 473/576/613 517/627/579 434/528/565 512/619/564
f 497/600/614 473/576/613 512/619/564 447/545/560
f 444/541/540 498/601/610 474/577/615 506/611/544
f 498/601/610 453/537/609 497/600/614 474/577/615
f 474/577/615 497/600/614 447/545/560 511/617/559
f 506/611/544 474/577/615 511/617/559 432/524/545
f 435/530/591 526/643/593 475/578/616 521/633/589
f 526/643/593 442/557/597 499/602/617 475/578/616
f 475/578/616 499/602/617 454/538/618 502/605/619
f 521/633/589 475/578/616 502/605/619 440/553/577
f 442/557/597 525/641/606 476/579/620 499/602/617
f 525/641/606 429/519/527 510/615/530 476/579/620
f 476/579/620 510/615/530 446/543/535 500/603/621
f 499/602/617 476/579/620 500/603/621 454/538/618
f 454/538/618 500/603/621 477/580/622 501/604/623
f 500/603/621 446/543/535 509/614/549 477/580/622
f 477/580/622 509/614/549 431/523/551 516/625/553
f 501/604/623 477/580/622 516/625/553 437/548/557
f 440/553/577 502/605/619 478/581/624 522/635/573
f 502/605/619 454/538/618 501/604/623 478/581/624
f 478/581/624 501/604/623 437/548/557 515/623/569
f 522/635/573 478/581/624 515/623/569 433/526/571
