%YAML 1.1
%TAG !u! tag:unity3d.com,2011:
--- !u!114 &11400000
MonoBehaviour:
  m_ObjectHideFlags: 0
  m_CorrespondingSourceObject: {fileID: 0}
  m_PrefabInstance: {fileID: 0}
  m_PrefabAsset: {fileID: 0}
  m_GameObject: {fileID: 0}
  m_Enabled: 1
  m_EditorHideFlags: 0
  m_Script: {fileID: 11500000, guid: 402eea899c2d88a4998cbc54a0abb5a1, type: 3}
  m_Name: Casino
  m_EditorClassIdentifier: 
  roomName: Casino
  faction: Crime
  outputs: Foot Traffic
  dislikedAttributes:
  - Security
  - Food
  likedAttributes:
  - Criminal
  profit: 0
  placementCost: 0
  location: {x: 0, y: 0}
  roomArt1: {fileID: 7175963774682155670, guid: 44369ce72061a8148b7eecdad1922d2d,
    type: 3}
  roomArt2: {fileID: 7175963774682155670, guid: 8e66638990e7340fb9bbb03d9a71d682,
    type: 3}
  roomArt3: {fileID: 7175963774682155670, guid: 9000d4424dde7b240b06b36f6f4b9dd2,
    type: 3}
  roomJPG: {fileID: 21300000, guid: 73d37d5c3fe388f47b7f7b03cb8fb7ed, type: 3}
