%YAML 1.1
%TAG !u! tag:unity3d.com,2011:
--- !u!114 &11400000
MonoBehaviour:
  m_ObjectHideFlags: 0
  m_CorrespondingSourceObject: {fileID: 0}
  m_PrefabInstance: {fileID: 0}
  m_PrefabAsset: {fileID: 0}
  m_GameObject: {fileID: 0}
  m_Enabled: 1
  m_EditorHideFlags: 0
  m_Script: {fileID: 11500000, guid: 402eea899c2d88a4998cbc54a0abb5a1, type: 3}
  m_Name: Rats
  m_EditorClassIdentifier: 
  roomName: Rats
  faction: Pirats
  outputs: None
  dislikedAttributes: []
  likedAttributes: []
  profit: 0
  placementCost: 0
  location: {x: 0, y: 0}
  roomArt1: {fileID: 3649932146530754886, guid: ec73fc2f68632234eaed8ec5cf79a09f,
    type: 3}
  roomArt2: {fileID: 3649932146530754886, guid: db9cd0647d151c841885bfcabf3a0a21,
    type: 3}
  roomArt3: {fileID: 3649932146530754886, guid: 138ac5b42be3269458425fc114d250ea,
    type: 3}
  roomJPG: {fileID: 21300000, guid: 88ff10f33bd3cb94298ce888126393e9, type: 3}
