%YAML 1.1
%TAG !u! tag:unity3d.com,2011:
--- !u!1045 &1
EditorBuildSettings:
  m_ObjectHideFlags: 0
  serializedVersion: 2
  m_Scenes:
  - enabled: 1
    path: Assets/Scenes/MainMenu.unity
    guid: 2e6452e8adc756540b0583810a995348
  - enabled: 1
    path: Assets/Scenes/NarrativeScenes/S1Cutscene.unity
    guid: 43c9ca94c5b6b4d5b84b1a09267c7934
  - enabled: 1
    path: Assets/Scenes/S1F1.unity
    guid: 6c11f3dadbf78134a8f3e66f3933d359
  - enabled: 1
    path: Assets/Scenes/S1F2.unity
    guid: f271ceedbe469cb4586511c1ea9c3dc7
  - enabled: 1
    path: Assets/Scenes/S1F3.unity
    guid: a5f7c19577f7d484ba005b3e6c9909d4
  - enabled: 1
    path: Assets/Scenes/NarrativeScenes/S2Cutscene.unity
    guid: 16884ef9673e145c5a46400a342494b6
  - enabled: 1
    path: Assets/Scenes/S2F1.unity
    guid: 86dc75a0b8835d04a898eff2d869c0e8
  - enabled: 1
    path: Assets/Scenes/S2F2.unity
    guid: f6a935b5591e5f84898afb359122d5b9
  - enabled: 1
    path: Assets/Scenes/S2F3.unity
    guid: a95a26e8ad7d5d04f9201c99b7f34864
  - enabled: 1
    path: Assets/Scenes/S3F1.unity
    guid: ad0d3ee34823f274399013b8318b0417
  - enabled: 1
    path: Assets/Scenes/S3F2.unity
    guid: a9997d5c417bd8946a41ace7fa732935
  - enabled: 1
    path: Assets/Scenes/S3F3.unity
    guid: d88faafcfea155343accf2114dedb7f1
  - enabled: 1
    path: Assets/Scenes/S4F1.unity
    guid: b3130c33869692d45b6e3a3a3c3d22e4
  - enabled: 0
    path: Assets/Scenes/NarrativeScenes/Old/S1F1Cutscene.unity
    guid: 0cc427d4cb5e14676a4788ca43e20d0a
  - enabled: 0
    path: Assets/Scenes/NarrativeScenes/Old/S1F2Cutscene.unity
    guid: 0bcb55271f48f4c09a4ffad24d5f131f
  - enabled: 0
    path: Assets/Scenes/NarrativeScenes/Old/S1F3Cutscene.unity
    guid: 37cfde3631db34b62909fd10cc499bfe
  - enabled: 0
    path: Assets/Scenes/Trailer.unity
    guid: 14d4aead8250df54a966f23d72bb53ac
  - enabled: 1
    path: Assets/Scenes/S4F2.unity
    guid: 6f228614c0c0bb948b4d31ec15bd899d
  - enabled: 1
    path: Assets/Scenes/S4F3.unity
    guid: 2cad4e2ea232bf345bb15bed6bafa41a
  - enabled: 1
    path: Assets/Scenes/S4F4.unity
    guid: 1b1799c3c207b8f48aaccfd22a570fff
  - enabled: 1
    path: Assets/Scenes/S5F1.unity
    guid: ede4b4d6aa5e1184e9092c3fa8d4b2d6
  - enabled: 1
    path: Assets/Scenes/S5F2.unity
    guid: 2cd8fe3e33d8b1549b87ffc91abc343a
  - enabled: 1
    path: Assets/Scenes/S5F3.unity
    guid: 14564d425ba83424f9f73322c8357226
  - enabled: 1
    path: Assets/Scenes/S5F4.unity
    guid: 93f1471f4e8a8a04eb80f93254da2fb6
  - enabled: 1
    path: Assets/Scenes/S5F5.unity
    guid: b59666f1605540e4f998c531fab21e68
  m_configObjects: {}
