# This file uses centimeters as units for non-parametric coordinates.

g default
v 8.917053 -0.038455 -2.068048
v 8.919920 -0.038455 -0.592449
v 8.917053 2.575430 -2.068048
v 8.919920 2.575430 -0.592449
v 9.917051 2.575430 -2.069987
v 9.919917 2.575430 -0.594388
v 9.917051 -0.038455 -2.069987
v 9.919917 -0.038455 -0.594388
v 8.919920 2.504429 -0.592449
v 8.917053 2.504429 -2.068048
v 9.917051 2.504429 -2.069987
v 9.919917 2.504429 -0.594388
v 8.919920 1.503616 -0.592449
v 8.917053 1.503616 -2.068048
v 9.917051 1.503616 -2.069987
v 9.919917 1.503616 -0.594388
v 8.919785 2.575430 -0.662140
v 9.919782 2.575430 -0.664080
v 9.919782 2.504429 -0.664080
v 9.919782 1.503616 -0.664080
v 9.919782 -0.038455 -0.664080
v 8.919785 -0.038455 -0.662140
v 8.919785 1.503616 -0.662140
v 8.919785 2.504429 -0.662140
v 8.917188 2.575430 -1.998358
v 9.917187 2.575430 -2.000296
v 9.917187 2.504429 -2.000296
v 9.917187 1.503616 -2.000296
v 9.917187 -0.038455 -2.000296
v 8.917188 -0.038455 -1.998358
v 8.917188 1.503616 -1.998358
v 8.917188 2.504429 -1.998358
v 8.917181 2.504429 -1.686488
v 8.917717 1.503616 -1.686487
v 8.917793 -0.038455 -1.686486
v 9.917791 -0.038455 -1.688425
v 9.917791 1.503616 -1.688425
v 9.917791 2.504429 -1.688425
v 9.917791 2.575430 -1.688425
v 8.917793 2.575430 -1.686486
v 8.910760 2.504429 -1.330259
v 8.913668 1.503616 -1.330254
v 8.918489 -0.038455 -1.330248
v 9.918487 -0.038455 -1.332188
v 9.918487 1.503616 -1.332188
v 9.918487 2.504429 -1.332188
v 9.918487 2.575430 -1.332188
v 8.915971 2.575430 -1.330251
v 8.918567 2.504429 -0.974012
v 8.919103 1.503616 -0.974011
v 8.919179 -0.038455 -0.974011
v 9.919177 -0.038455 -0.975951
v 9.919177 1.503616 -0.975951
v 9.919177 2.504429 -0.975951
v 9.919177 2.575430 -0.975951
v 8.919179 2.575430 -0.974011
v 8.919785 1.749743 -0.662140
v 8.919920 1.749743 -0.592449
v 9.919917 1.749743 -0.594388
v 9.919782 1.749743 -0.664080
v 9.919177 1.749743 -0.975951
v 9.918487 1.749743 -1.332188
v 9.917791 1.749743 -1.688425
v 9.917187 1.749743 -2.000296
v 9.917051 1.749743 -2.069987
v 8.917053 1.749743 -2.068048
v 8.917188 1.749743 -1.998358
v 8.919785 2.021652 -0.662140
v 8.919920 2.021652 -0.592449
v 9.919917 2.021652 -0.594388
v 9.919782 2.021652 -0.664080
v 9.919177 2.021652 -0.975951
v 9.918487 2.021652 -1.332188
v 9.917791 2.021652 -1.688425
v 9.917187 2.021652 -2.000296
v 9.917051 2.021652 -2.069987
v 8.917053 2.021652 -2.068048
v 8.917188 2.021652 -1.998358
v 8.919785 2.293562 -0.662140
v 8.919920 2.293562 -0.592449
v 9.919917 2.293562 -0.594388
v 9.919782 2.293562 -0.664080
v 9.919177 2.293562 -0.975951
v 9.918487 2.293562 -1.332188
v 9.917791 2.293562 -1.688425
v 9.917187 2.293562 -2.000296
v 9.917051 2.293562 -2.069987
v 8.917053 2.293562 -2.068048
v 8.917188 2.293562 -1.998358
v 8.944112 2.504429 -0.974060
v 8.933533 2.293562 -0.974075
v 8.945330 2.293562 -0.662190
v 8.945330 2.504429 -0.662190
v 8.942738 2.293562 -1.998406
v 8.942738 2.504429 -1.998406
v 8.932151 2.293562 -1.686551
v 8.942727 2.504429 -1.686536
v 8.911307 2.293562 -1.330341
v 8.936245 2.504429 -1.330308
v 8.932151 1.749743 -1.686551
v 8.943257 1.503616 -1.686535
v 8.939214 1.503616 -1.330304
v 8.911307 1.749743 -1.330341
v 8.933533 1.749743 -0.974075
v 8.944642 1.503616 -0.974061
v 8.945330 1.749743 -0.662190
v 8.945330 1.503616 -0.662190
v 8.942738 1.749743 -1.998406
v 8.942738 1.503616 -1.998406
v 8.921337 2.021652 -1.686565
v 8.891406 2.021652 -1.330367
v 8.922719 2.021652 -0.974089
v 8.945330 2.021652 -0.662190
v 8.942738 2.021652 -1.998406
v 8.915753 2.575430 -1.998355
v 8.893789 2.566332 -1.998312
v 8.884691 2.544368 -1.998293
v 8.884621 2.544368 -2.036922
v 8.893676 2.566332 -2.058905
v 8.915619 2.575430 -2.068045
v 8.884621 2.504429 -2.036922
v 8.893676 2.504429 -2.058905
v 8.915619 2.504429 -2.068045
v 8.884631 2.535465 -2.029329
v 8.893768 2.513519 -2.007401
v 8.915726 2.504429 -1.998354
v 8.915753 2.293562 -1.998355
v 8.893776 2.293562 -2.007410
v 8.884636 2.293562 -2.029357
v 8.884621 2.293562 -2.036922
v 8.893676 2.293562 -2.058905
v 8.915619 2.293562 -2.068045
v 8.887342 2.293562 -0.631015
v 8.896399 2.293562 -0.652997
v 8.918350 2.293562 -0.662137
v 8.918322 2.504429 -0.662138
v 8.896391 2.513519 -0.653004
v 8.887343 2.535465 -0.631042
v 8.918485 2.293562 -0.592446
v 8.896498 2.293562 -0.601501
v 8.887361 2.293562 -0.623448
v 8.887361 2.504429 -0.623448
v 8.896498 2.504429 -0.601501
v 8.918485 2.504429 -0.592446
v 8.887361 2.544368 -0.623448
v 8.896498 2.566332 -0.601501
v 8.918485 2.575430 -0.592446
v 8.887288 2.544368 -0.662077
v 8.896386 2.566332 -0.662095
v 8.918350 2.575430 -0.662137
v 8.917313 2.504429 -0.974340
v 8.895346 2.513578 -0.974065
v 8.886372 2.535612 -0.973956
v 8.886441 2.544488 -0.973948
v 8.895660 2.566382 -0.973966
v 8.917625 2.575430 -0.974007
v 8.884990 2.535612 -1.686416
v 8.893968 2.513578 -1.686342
v 8.915929 2.504429 -1.686154
v 8.916239 2.575430 -1.686483
v 8.894279 2.566382 -1.686442
v 8.885059 2.544488 -1.686424
v 8.880822 2.536583 -1.330200
v 8.888790 2.513991 -1.330216
v 8.913615 2.575430 -1.330247
v 8.891650 2.566790 -1.330207
v 8.881461 2.545499 -1.330192
v 8.918350 1.749743 -0.662137
v 8.896399 1.749743 -0.652997
v 8.887342 1.749743 -0.631015
v 8.887342 1.503616 -0.631015
v 8.896399 1.503616 -0.652997
v 8.918350 1.503616 -0.662137
v 8.887361 1.749743 -0.623448
v 8.896498 1.749743 -0.601501
v 8.918485 1.749743 -0.592446
v 8.896498 1.503616 -0.601501
v 8.887361 1.503616 -0.623448
v 8.918485 1.503616 -0.592446
v 8.893776 1.503616 -2.007410
v 8.884636 1.503616 -2.029357
v 8.915753 1.503616 -1.998355
v 8.884636 1.749743 -2.029357
v 8.893776 1.749743 -2.007410
v 8.915753 1.749743 -1.998355
v 8.893676 1.503616 -2.058905
v 8.915619 1.503616 -2.068045
v 8.884621 1.503616 -2.036922
v 8.915619 1.749743 -2.068045
v 8.893676 1.749743 -2.058905
v 8.884621 1.749743 -2.036922
v 8.918350 2.021652 -0.662137
v 8.896399 2.021652 -0.652997
v 8.887342 2.021652 -0.631015
v 8.887361 2.021652 -0.623448
v 8.896498 2.021652 -0.601501
v 8.918485 2.021652 -0.592446
v 8.884636 2.021652 -2.029357
v 8.893776 2.021652 -2.007410
v 8.915753 2.021652 -1.998355
v 8.915619 2.021652 -2.068045
v 8.893676 2.021652 -2.058905
v 8.884621 2.021652 -2.036922
v 8.916882 1.069194 -1.330251
v 8.919154 1.069194 -0.974010
v 8.919785 1.069194 -0.662140
v 8.919920 1.069194 -0.592449
v 9.919917 1.069194 -0.594388
v 9.919782 1.069194 -0.664080
v 9.919177 1.069194 -0.975951
v 9.918487 1.069194 -1.332188
v 9.917791 1.069194 -1.688425
v 9.917187 1.069194 -2.000296
v 9.917051 1.069194 -2.069987
v 8.917053 1.069194 -2.068048
v 8.917188 1.069194 -1.998358
v 8.917769 1.069194 -1.686486
v 8.915275 1.155619 -1.330253
v 8.919129 1.155619 -0.974011
v 8.919785 1.155619 -0.662140
v 8.919920 1.155619 -0.592449
v 9.919917 1.155619 -0.594388
v 9.919782 1.155619 -0.664080
v 9.919177 1.155619 -0.975951
v 9.918487 1.155619 -1.332188
v 9.917791 1.155619 -1.688425
v 9.917187 1.155619 -2.000296
v 9.917051 1.155619 -2.069987
v 8.917053 1.155619 -2.068048
v 8.917188 1.155619 -1.998358
v 8.917743 1.155619 -1.686487
v 8.919785 1.112406 -0.662140
v 8.919920 1.112406 -0.592449
v 9.919917 1.112406 -0.594388
v 9.919782 1.112406 -0.664080
v 9.919177 1.112406 -0.975951
v 9.918487 1.112406 -1.332188
v 9.917791 1.112406 -1.688425
v 9.917187 1.112406 -2.000296
v 9.917051 1.112406 -2.069987
v 8.917053 1.112406 -2.068048
v 8.917188 1.112406 -1.998358
v 8.917755 1.112406 -1.686487
v 8.916079 1.112406 -1.330251
v 8.919141 1.112406 -0.974011
v 8.912229 1.112404 -0.973974
v 8.899204 1.094995 -0.973946
v 8.899200 1.129808 -0.973946
v 8.912873 1.112404 -0.662104
v 8.899846 1.129810 -0.662076
v 8.899846 1.094996 -0.662076
v 8.895718 1.135528 -0.973951
v 8.894795 1.138788 -0.973955
v 8.895687 1.142057 -0.973961
v 8.898138 1.144397 -0.973968
v 8.896369 1.135528 -0.662081
v 8.898793 1.144396 -0.662097
v 8.896342 1.142056 -0.662090
v 8.895448 1.138788 -0.662084
v 8.895733 1.089278 -0.973950
v 8.898161 1.080412 -0.973967
v 8.895709 1.082750 -0.973960
v 8.894815 1.086017 -0.973954
v 8.896370 1.089278 -0.662081
v 8.895448 1.086017 -0.662084
v 8.896343 1.082749 -0.662090
v 8.898794 1.080410 -0.662097
vt 0.302983 0.471747
vt 0.316645 0.470800
vt 0.319395 0.507606
vt 0.302951 0.508989
vt 0.307491 0.625397
vt 0.320207 0.628388
vt 0.961882 0.338914
vt 0.977173 0.338633
vt 0.027371 0.534997
vt 0.962564 0.207757
vt 0.962686 0.165098
vt 0.024284 0.497996
vt 0.013170 0.371899
vt 0.961159 0.018820
vt 0.314562 0.343868
vt 0.300766 0.344150
vt 0.585889 0.476879
vt 0.659039 0.165202
vt 0.658866 0.207492
vt 0.585302 0.515133
vt 0.976995 0.330051
vt 0.305278 0.617823
vt 0.961955 0.330235
vt 0.574322 0.623839
vt 0.659428 0.329862
vt 0.659709 0.338544
vt 0.571719 0.631298
vt 0.034851 0.619967
vt 0.301506 0.594920
vt 0.961952 0.304417
vt 0.579459 0.601174
vt 0.659000 0.304058
vt 0.558877 0.633739
vt 0.674544 0.338081
vt 0.674418 0.329439
vt 0.674044 0.303780
vt 0.674046 0.165381
vt 0.673919 0.207669
vt 0.579913 0.346888
vt 0.673531 0.020758
vt 0.658539 0.021102
vt 0.593797 0.347869
vt 0.569720 0.514133
vt 0.572010 0.477275
vt 0.502356 0.638250
vt 0.502596 0.914671
vt 0.741199 0.328933
vt 0.741269 0.303350
vt 0.741394 0.165339
vt 0.741282 0.207558
vt 0.517538 0.344171
vt 0.740679 0.020108
vt 0.509675 0.500946
vt 0.514386 0.468052
vt 0.499999 0.611895
vt 0.901428 0.893937
vt 0.993163 0.893588
vt 0.550119 0.610374
vt 0.599452 0.928554
vt 0.327646 0.587427
vt 0.691365 0.893937
vt 0.691055 0.929210
vt 0.377484 0.466332
vt 0.379643 0.501763
vt 0.894128 0.019855
vt 0.376162 0.342610
vt 0.895202 0.207827
vt 0.895239 0.165393
vt 0.894551 0.329982
vt 0.894800 0.304258
vt 0.365712 0.911835
vt 0.376295 0.635751
vt 0.796377 0.893977
vt 0.796400 0.930476
vt 0.445683 0.464662
vt 0.445833 0.500678
vt 0.817504 0.020046
vt 0.446720 0.342304
vt 0.818255 0.207685
vt 0.818283 0.165364
vt 0.817669 0.329393
vt 0.818004 0.303752
vt 0.434188 0.914991
vt 0.439249 0.637699
vt 0.691372 0.802976
vt 0.691044 0.761868
vt 0.445935 0.507608
vt 0.796377 0.803002
vt 0.901422 0.802976
vt 0.508687 0.507345
vt 0.559630 0.540774
vt 0.564513 0.518120
vt 0.658734 0.237542
vt 0.586895 0.542346
vt 0.673784 0.237597
vt 0.741212 0.237418
vt 0.818169 0.237612
vt 0.895048 0.237853
vt 0.962295 0.237902
vt 0.029430 0.561253
vt 0.298934 0.535810
vt 0.599655 0.803328
vt 0.324322 0.511886
vt 0.691686 0.848459
vt 0.796359 0.848485
vt 0.901088 0.848459
vt 0.556494 0.566810
vt 0.658763 0.270790
vt 0.584186 0.571870
vt 0.673815 0.270692
vt 0.741220 0.270389
vt 0.818115 0.270682
vt 0.894921 0.271049
vt 0.962070 0.271157
vt 0.031904 0.590626
vt 0.299073 0.565326
vt 0.599749 0.848459
vt 0.559075 0.594316
vt 0.553696 0.615370
vt 0.500536 0.618605
vt 0.325950 0.610419
vt 0.321578 0.589326
vt 0.379039 0.615509
vt 0.439418 0.617505
vt 0.565809 0.541361
vt 0.320208 0.534943
vt 0.562842 0.567996
vt 0.320219 0.562235
vt 0.322405 0.619207
vt 0.321724 0.622378
vt 0.311977 0.620898
vt 0.315770 0.618333
vt 0.320314 0.628032
vt 0.307730 0.625077
vt 0.325747 0.610701
vt 0.321476 0.614973
vt 0.316089 0.591114
vt 0.321265 0.589469
vt 0.317034 0.617647
vt 0.312178 0.592210
vt 0.559402 0.594454
vt 0.564596 0.596499
vt 0.558066 0.620149
vt 0.553932 0.615636
vt 0.568549 0.597854
vt 0.562418 0.623041
vt 0.569744 0.598223
vt 0.573808 0.599473
vt 0.568732 0.621291
vt 0.564480 0.620030
vt 0.579123 0.601089
vt 0.573997 0.623707
vt 0.575854 0.542363
vt 0.571596 0.542001
vt 0.573338 0.517998
vt 0.576551 0.519625
vt 0.566138 0.541317
vt 0.569889 0.514452
vt 0.586571 0.542333
vt 0.581377 0.542431
vt 0.581023 0.519523
vt 0.585090 0.515445
vt 0.577115 0.542386
vt 0.577554 0.519921
vt 0.311245 0.513517
vt 0.314878 0.512686
vt 0.314606 0.535411
vt 0.310280 0.535824
vt 0.319192 0.507973
vt 0.319901 0.534819
vt 0.303145 0.509256
vt 0.306824 0.512161
vt 0.304717 0.535957
vt 0.299257 0.535852
vt 0.310193 0.513340
vt 0.309011 0.535851
vt 0.315154 0.614557
vt 0.311010 0.592522
vt 0.556992 0.624376
vt 0.563683 0.623791
vt 0.501486 0.628853
vt 0.501385 0.627973
vt 0.377762 0.625174
vt 0.377622 0.626080
vt 0.439351 0.626677
vt 0.439344 0.627610
vt 0.574269 0.570132
vt 0.573032 0.569910
vt 0.310160 0.563746
vt 0.308932 0.563913
vt 0.305598 0.617697
vt 0.301830 0.594840
vt 0.571487 0.630968
vt 0.558777 0.633376
vt 0.500546 0.618930
vt 0.502301 0.637848
vt 0.379016 0.615847
vt 0.376369 0.635339
vt 0.439258 0.637069
vt 0.563196 0.568065
vt 0.583844 0.571829
vt 0.319867 0.562273
vt 0.299410 0.565303
vt 0.377160 0.629405
vt 0.310924 0.615562
vt 0.307014 0.593541
vt 0.378210 0.621883
vt 0.501083 0.624778
vt 0.567404 0.626562
vt 0.557561 0.627600
vt 0.501795 0.632084
vt 0.439377 0.623516
vt 0.439314 0.631113
vt 0.568798 0.569124
vt 0.578446 0.570877
vt 0.314347 0.563104
vt 0.304783 0.564529
vt 0.445804 0.455906
vt 0.515435 0.457275
vt 0.573349 0.464644
vt 0.586572 0.467277
vt 0.659250 0.154684
vt 0.674309 0.154928
vt 0.741655 0.154853
vt 0.818500 0.154853
vt 0.895431 0.154861
vt 0.962859 0.154474
vt 0.023512 0.488793
vt 0.302770 0.462539
vt 0.316275 0.461583
vt 0.377107 0.457482
vt 0.445767 0.460272
vt 0.514513 0.462628
vt 0.568343 0.472744
vt 0.518942 0.464893
vt 0.518362 0.464257
vt 0.569014 0.472128
vt 0.573270 0.470974
vt 0.586236 0.472082
vt 0.659121 0.159917
vt 0.674149 0.160150
vt 0.741511 0.160096
vt 0.818378 0.160108
vt 0.895324 0.160127
vt 0.962742 0.159789
vt 0.023899 0.493395
vt 0.302882 0.467143
vt 0.316457 0.466191
vt 0.377289 0.461910
vt 0.518662 0.465808
vt 0.568512 0.473848
vt 0.568862 0.467468
vt 0.519123 0.460227
vt 0.569228 0.469240
vt 0.518553 0.461704
vt 0.519226 0.461217
vt 0.568640 0.468535
vt 0.515989 0.462761
vt 0.571728 0.470860
vt 0.519022 0.465443
vt 0.568195 0.473344
vt 0.519093 0.465166
vt 0.568159 0.473017
vt 0.519425 0.460994
vt 0.568471 0.468238
vt 0.519417 0.460699
vt 0.568519 0.467918
vt 0.977802 0.159921
vt 0.977872 0.154567
vt 0.862949 0.515856
vt 0.863595 0.511267
vt 0.977770 0.165240
vt 0.862307 0.520446
vt 0.308594 0.064588
vt 0.976213 0.018447
vt 0.590244 0.068126
vt 0.881302 0.393270
vt 0.326562 0.561346
vt 0.599653 0.893588
vt 0.993067 0.848459
vt 0.553173 0.591891
vt 0.326188 0.534483
vt 0.993161 0.803328
vt 0.380298 0.508670
vt 0.599424 0.762514
vt 0.993391 0.762514
vt 0.901771 0.761868
vt 0.796403 0.760554
vt 0.901760 0.929210
vt 0.439452 0.610584
vt 0.379891 0.608553
vt 0.329351 0.605647
vt 0.993363 0.928555
vt 0.976943 0.304444
vt 0.977072 0.271353
vt 0.843494 0.642699
vt 0.848636 0.613659
vt 0.977307 0.238200
vt 0.853315 0.584340
vt 0.977577 0.208084
vt 0.857121 0.557717
vt 0.741017 0.337564
vt 0.561852 0.913219
vt 0.517767 0.066583
vt 0.577098 0.067864
vt 0.817339 0.338027
vt 0.449473 0.065462
vt 0.894285 0.338627
vt 0.381117 0.064859
vt 0.321738 0.064631
vt 0.306061 0.908489
vt 0.837866 0.672363
vt 0.574984 0.912895
vt 0.839295 0.664941
vt 0.037468 0.642559
vt 0.292886 0.907580
vt 0.038398 0.650095
vn -0.999998 0.000000 0.001940
vn -0.999999 -0.000040 0.001779
vn -0.999999 -0.000030 0.001774
vn -0.999998 0.000000 0.001940
vn -0.000000 1.000000 0.000000
vn -0.000000 1.000000 0.000000
vn -0.000000 1.000000 0.000000
vn -0.000000 1.000000 0.000000
vn 0.999998 0.000000 -0.001940
vn 0.999998 0.000000 -0.001940
vn 0.999998 0.000000 -0.001940
vn 0.999998 0.000000 -0.001940
vn 0.000000 -1.000000 -0.000000
vn 0.000000 -1.000000 -0.000000
vn 0.000000 -1.000000 -0.000000
vn 0.000000 -1.000000 -0.000000
vn 0.001939 0.000000 0.999998
vn 0.001939 0.000000 0.999998
vn 0.001939 0.000000 0.999998
vn 0.001940 0.000000 0.999998
vn -0.001939 0.000000 -0.999998
vn -0.001939 0.000000 -0.999998
vn -0.001939 0.000000 -0.999998
vn -0.001939 0.000000 -0.999998
vn -0.001939 0.000000 -0.999998
vn -0.001939 0.000000 -0.999998
vn -0.001939 0.000000 -0.999998
vn -0.001939 0.000000 -0.999998
vn 0.999998 0.000000 -0.001940
vn 0.999998 0.000000 -0.001940
vn 0.999998 0.000000 -0.001940
vn 0.999998 0.000000 -0.001940
vn 0.001940 0.000000 0.999998
vn 0.001939 0.000000 0.999998
vn 0.001939 0.000000 0.999998
vn 0.001940 0.000000 0.999998
vn -0.001939 0.000000 -0.999998
vn -0.001939 0.000000 -0.999998
vn 0.999998 0.000000 -0.001940
vn 0.999998 0.000000 -0.001940
vn 0.001940 0.000000 0.999998
vn 0.001939 0.000000 0.999998
vn -0.000000 1.000000 0.000000
vn -0.000000 1.000000 0.000000
vn 0.000000 1.000000 -0.000000
vn 0.000000 1.000000 -0.000000
vn 0.999998 0.000000 -0.001940
vn 0.999998 0.000000 -0.001940
vn 0.999998 0.000000 -0.001940
vn 0.999998 0.000000 -0.001940
vn 0.999998 0.000000 -0.001940
vn 0.999998 0.000000 -0.001940
vn 0.999998 0.000000 -0.001940
vn 0.999998 0.000000 -0.001940
vn 0.999998 0.000000 -0.001940
vn 0.999998 0.000000 -0.001940
vn 0.000000 -1.000000 0.000000
vn 0.000000 -1.000000 0.000000
vn 0.000000 -1.000000 0.000000
vn 0.000000 -1.000000 0.000000
vn -0.999998 -0.000030 0.002108
vn -0.999998 -0.000030 0.002105
vn -0.999998 0.000000 0.001940
vn -0.999998 0.000000 0.001940
vn -0.000000 1.000000 0.000000
vn -0.000000 1.000000 0.000000
vn 0.999998 0.000000 -0.001938
vn 0.999998 0.000000 -0.001938
vn 0.999998 0.000000 -0.001938
vn 0.999998 0.000000 -0.001938
vn 0.999998 0.000000 -0.001938
vn 0.000000 -1.000000 0.000000
vn 0.000000 -1.000000 0.000000
vn -0.999968 -0.001268 0.007952
vn -0.999966 -0.001776 0.008061
vn -0.997887 0.056448 0.032175
vn -0.997599 0.046844 0.051008
vn -0.998949 0.022132 0.040140
vn -0.999468 0.025071 0.020855
vn -0.999541 0.025067 -0.016985
vn -0.999097 0.022134 -0.036276
vn -0.997788 0.046854 -0.047154
vn -0.998003 0.056463 -0.028314
vn -0.999991 -0.001692 -0.003867
vn -0.999991 -0.001268 -0.004066
vn 0.000000 -1.000000 0.000000
vn 0.000000 -1.000000 0.000000
vn 0.999998 0.000000 -0.001947
vn 0.999998 0.000000 -0.001947
vn 0.999998 -0.000000 -0.001947
vn 0.999998 -0.000000 -0.001947
vn 0.999998 0.000000 -0.001947
vn -0.000000 1.000000 0.000000
vn -0.000000 1.000000 0.000000
vn -0.997667 0.068247 0.001940
vn -0.996471 0.083918 0.001951
vn -0.999993 -0.003130 0.001945
vn -0.999995 -0.002346 0.001945
vn 0.000000 -1.000000 0.000000
vn 0.000000 -1.000000 0.000000
vn 0.999998 0.000000 -0.001945
vn 0.999998 0.000000 -0.001945
vn 0.999998 -0.000000 -0.001945
vn 0.999998 -0.000000 -0.001945
vn 0.999998 0.000000 -0.001945
vn -0.000000 1.000000 0.000000
vn -0.000000 1.000000 0.000000
vn -0.997949 -0.045706 -0.044821
vn -0.998270 -0.052686 -0.026110
vn -0.996872 -0.079011 0.001950
vn -0.997751 -0.066999 0.001939
vn -0.997769 -0.045696 0.048678
vn -0.998162 -0.052673 0.029975
vn -0.999038 -0.021138 0.038426
vn -0.999545 -0.022558 0.020007
vn 0.001939 0.000000 0.999998
vn 0.001940 0.000000 0.999998
vn 0.999998 0.000000 -0.001940
vn 0.999998 0.000000 -0.001940
vn 0.999998 0.000000 -0.001938
vn 0.999998 0.000000 -0.001945
vn 0.999998 0.000000 -0.001947
vn 0.999998 0.000000 -0.001940
vn 0.999998 0.000000 -0.001940
vn -0.001939 0.000000 -0.999998
vn -0.001939 0.000000 -0.999998
vn -0.999179 -0.021141 -0.034561
vn -0.999615 -0.022554 -0.016136
vn -0.998082 0.000000 -0.061898
vn -0.999998 0.000000 0.001921
vn -0.997836 0.000000 0.065746
vn -0.998482 -0.000000 0.055077
vn 0.001939 0.000000 0.999998
vn 0.001940 0.000000 0.999998
vn 0.999998 0.000000 -0.001940
vn 0.999998 0.000000 -0.001940
vn 0.999998 0.000000 -0.001938
vn 0.999998 0.000000 -0.001945
vn 0.999998 0.000000 -0.001947
vn 0.999998 0.000000 -0.001940
vn 0.999998 0.000000 -0.001940
vn -0.001939 0.000000 -0.999998
vn -0.001939 0.000000 -0.999998
vn -0.998687 0.000000 -0.051221
vn -0.001937 -0.000000 -0.999998
vn -0.001933 -0.000000 -0.999998
vn -0.001926 0.000000 -0.999998
vn -0.001926 0.000000 -0.999998
vn -0.000001 -1.000000 0.000000
vn -0.000001 -1.000000 0.000000
vn -0.000000 -1.000000 0.000000
vn -0.000000 -1.000000 0.000000
vn 0.001917 -0.000000 0.999998
vn 0.001908 -0.000000 0.999998
vn 0.001898 0.000000 0.999998
vn 0.001898 0.000000 0.999998
vn -0.000001 -1.000000 0.000000
vn -0.000002 -1.000000 0.000000
vn -0.000003 -1.000000 0.000000
vn -0.000002 -1.000000 0.000000
vn -0.196638 -0.980476 0.000381
vn -0.000000 -1.000000 0.000000
vn -0.000000 1.000000 0.000000
vn -0.000001 1.000000 0.000000
vn -0.000001 1.000000 0.000000
vn -0.000000 1.000000 0.000000
vn -0.000001 1.000000 0.000000
vn -0.000001 1.000000 0.000000
vn -0.000000 1.000000 0.000000
vn -0.000000 1.000000 0.000000
vn -0.001940 0.000000 -0.999998
vn -0.001940 0.000000 -0.999998
vn -0.001926 0.000000 -0.999998
vn -0.001926 0.000000 -0.999998
vn 0.001901 0.000000 0.999998
vn 0.001901 0.000000 0.999998
vn 0.001898 0.000000 0.999998
vn 0.001898 0.000000 0.999998
vn -0.000000 1.000000 0.000000
vn -0.000000 1.000000 0.000000
vn -0.001940 0.000000 -0.999998
vn -0.001926 0.000000 -0.999998
vn 0.001901 0.000000 0.999998
vn 0.001898 0.000000 0.999998
vn -0.970694 0.240315 0.001209
vn -0.922906 0.385023 0.001237
vn -0.923893 0.382647 0.001703
vn -0.966606 0.196441 -0.164568
vn -0.381980 0.924170 0.000558
vn -0.360796 0.932645 0.000527
vn -0.356857 0.934159 0.000676
vn -0.382726 0.923862 0.000725
vn -0.362537 -0.000048 0.931969
vn -0.380957 -0.000051 0.924592
vn -0.380949 -0.000022 0.924596
vn -0.360712 -0.000021 0.932677
vn -0.923113 -0.000056 0.384528
vn -0.970028 -0.160333 0.182592
vn -0.954930 -0.000021 0.296831
vn -0.923125 -0.000026 0.384499
vn -0.364235 -0.000020 -0.931307
vn -0.384416 -0.000021 -0.923160
vn -0.384432 -0.000048 -0.923153
vn -0.366064 -0.000046 -0.930590
vn -0.924609 -0.000019 -0.380917
vn -0.956101 -0.000015 -0.293039
vn -0.970746 -0.160239 -0.178815
vn -0.924615 -0.000042 -0.380903
vn -0.955789 0.000000 0.294053
vn -0.923178 0.000000 0.384371
vn -0.923178 -0.000000 0.384372
vn -0.964890 0.000002 0.262654
vn -0.380839 0.000000 0.924641
vn -0.360498 0.000000 0.932760
vn -0.360181 0.000000 0.932882
vn -0.380839 0.000000 0.924641
vn -0.956268 0.000000 -0.292490
vn -0.924604 0.000000 -0.380929
vn -0.924604 0.000000 -0.380930
vn -0.956268 0.000000 -0.292490
vn -0.384403 0.000000 -0.923165
vn -0.364134 0.000000 -0.931347
vn -0.364134 0.000000 -0.931347
vn -0.384403 0.000000 -0.923165
vn -0.360498 0.000000 0.932760
vn -0.380839 0.000000 0.924641
vn -0.380839 0.000000 0.924641
vn -0.360498 0.000000 0.932760
vn -0.923179 0.000000 0.384371
vn -0.955093 0.000000 0.296307
vn -0.955092 0.000000 0.296308
vn -0.923179 0.000000 0.384371
vn -0.955098 0.000000 0.296289
vn -0.923135 0.000000 0.384475
vn -0.923135 0.000000 0.384475
vn -0.955098 0.000000 0.296289
vn -0.380943 0.000000 0.924598
vn -0.360618 0.000000 0.932714
vn -0.360617 0.000000 0.932714
vn -0.380943 0.000000 0.924599
vn -0.364258 0.000000 -0.931298
vn -0.384526 0.000000 -0.923114
vn -0.384525 0.000000 -0.923114
vn -0.364257 0.000000 -0.931298
vn -0.924625 0.000000 -0.380878
vn -0.956243 0.000000 -0.292574
vn -0.956243 0.000000 -0.292574
vn -0.924625 0.000000 -0.380878
vn -0.965892 -0.000001 -0.258945
vn -0.956920 -0.000001 -0.290350
vn -0.970668 0.240412 0.002555
vn -0.965984 0.196447 0.168179
vn -0.954149 0.299220 0.008219
vn -0.963913 -0.266054 0.009309
vn -0.963910 -0.266169 -0.005571
vn -0.954179 0.299203 -0.004512
vn -0.967951 -0.251131 0.001872
vn -0.949877 0.312619 0.001845
vn -0.955093 0.000000 0.296307
vn -0.956269 0.000000 -0.292490
vn -0.955098 0.000000 0.296290
vn -0.956243 0.000000 -0.292574
vn -0.363941 0.000000 -0.931422
vn -0.360772 0.000000 -0.932654
vn -0.364257 0.000000 -0.931298
vn -0.357001 0.000000 0.934104
vn -0.360761 0.932658 0.000871
vn -0.356798 0.934181 0.000679
vn -0.367092 -0.930184 0.001109
vn -0.374234 -0.927326 0.003932
vn -0.353057 0.935598 0.002771
vn -0.374327 -0.927294 -0.002481
vn -0.367196 -0.930144 0.000315
vn -0.353092 0.935588 -0.001399
vn -0.347244 0.937774 0.000674
vn -0.364134 0.000000 -0.931347
vn -0.360498 0.000000 0.932760
vn -0.360617 0.000000 0.932714
vn -0.364257 0.000000 -0.931298
vn -0.000000 -1.000000 0.000000
vn -0.000000 -1.000000 0.000000
vn -0.000000 -1.000000 0.000000
vn -0.000000 -1.000000 0.000000
vn -0.000000 -1.000000 0.000000
vn -0.000000 -1.000000 0.000000
vn -0.000000 -1.000000 0.000000
vn -0.000000 -1.000000 0.000000
vn 0.000000 -1.000000 0.000000
vn 0.000000 -1.000000 0.000000
vn 0.000000 -1.000000 0.000000
vn 0.000000 -1.000000 0.000000
vn 0.000000 -1.000000 0.000000
vn 0.000000 -1.000000 0.000000
vn 0.000000 -1.000000 0.000000
vn 0.000000 -1.000000 0.000000
vn -0.377410 0.926045 -0.001512
vn -0.917179 0.398453 -0.004117
vn -0.924625 0.000000 -0.380878
vn -0.924626 0.000000 -0.380877
vn -0.384526 0.000000 -0.923114
vn -0.384526 0.000000 -0.923114
vn -0.924625 0.000000 -0.380877
vn -0.384525 0.000000 -0.923114
vn -0.924795 -0.380464 0.000897
vn -0.930072 -0.367335 -0.005551
vn -0.383572 -0.923511 0.000329
vn -0.387969 -0.921669 -0.002592
vn -0.383460 -0.923557 0.001159
vn -0.387871 -0.921704 0.004096
vn -0.924848 -0.380327 0.002691
vn -0.930084 -0.367232 0.009157
vn -0.923179 -0.000001 0.384370
vn -0.380839 0.000000 0.924641
vn -0.923888 0.382660 0.001730
vn -0.922909 0.385011 0.002336
vn -0.382656 0.923890 0.000728
vn -0.381941 0.924186 0.000922
vn -0.917164 0.398436 0.007682
vn -0.377369 0.926058 0.002979
vn -0.934870 -0.354984 0.001811
vn -0.391788 -0.920055 0.000760
vn -0.373537 0.927615 0.000725
vn -0.912113 0.409936 0.001770
vn -0.384403 0.000000 -0.923166
vn -0.924605 0.000000 -0.380928
vn -0.923179 0.000000 0.384371
vn -0.380839 0.000000 0.924641
vn -0.923135 0.000000 0.384475
vn -0.380943 0.000000 0.924599
vn -0.384525 0.000000 -0.923114
vn -0.924625 0.000000 -0.380878
vn -0.999998 -0.001064 0.001945
vn -0.999998 -0.000737 0.001945
vn -0.999995 -0.000398 0.003142
vn -0.999995 -0.000582 0.003231
vn -0.999998 -0.000009 0.001974
vn -0.999998 -0.000009 0.001975
vn -0.999998 0.000000 0.001940
vn -0.999998 0.000000 0.001940
vn 0.001939 0.000000 0.999998
vn 0.001939 0.000000 0.999998
vn 0.001939 0.000000 0.999998
vn 0.001939 0.000000 0.999998
vn 0.999998 0.000000 -0.001940
vn 0.999998 0.000000 -0.001940
vn 0.999998 0.000000 -0.001940
vn 0.999998 0.000000 -0.001940
vn 0.999998 0.000000 -0.001938
vn 0.999998 0.000000 -0.001938
vn 0.999998 0.000000 -0.001945
vn 0.999998 0.000000 -0.001945
vn 0.999998 0.000000 -0.001947
vn 0.999998 0.000000 -0.001947
vn 0.999998 0.000000 -0.001940
vn 0.999998 0.000000 -0.001940
vn 0.999998 0.000000 -0.001940
vn 0.999998 0.000000 -0.001940
vn -0.001939 0.000000 -0.999998
vn -0.001939 0.000000 -0.999998
vn -0.001939 0.000000 -0.999998
vn -0.001939 0.000000 -0.999998
vn -0.999998 0.000000 0.001940
vn -0.999998 -0.000009 0.001907
vn -0.999998 -0.000014 0.001905
vn -0.999998 0.000000 0.001940
vn -1.000000 -0.000575 0.000677
vn -1.000000 -0.000398 0.000744
vn -0.999954 -0.009445 0.001945
vn -0.999918 -0.009445 0.008595
vn -0.897858 -0.440280 0.001871
vn -0.898019 -0.439953 0.001871
vn -0.996321 -0.085671 0.002060
vn -0.996338 -0.085480 0.002060
vn -0.999998 0.000000 0.001940
vn -0.999998 0.000000 0.001940
vn 0.001939 0.000000 0.999998
vn 0.001939 0.000000 0.999998
vn 0.999998 0.000000 -0.001940
vn 0.999998 0.000000 -0.001940
vn 0.999998 0.000000 -0.001938
vn 0.999998 0.000000 -0.001945
vn 0.999998 0.000000 -0.001947
vn 0.999998 0.000000 -0.001940
vn 0.999998 0.000000 -0.001940
vn -0.001939 0.000000 -0.999998
vn -0.001939 0.000000 -0.999998
vn -0.999998 0.000000 0.001940
vn -0.999998 -0.000122 0.001840
vn -0.999986 -0.005106 -0.001661
vn -0.471489 0.881872 0.000992
vn -0.471489 0.881871 0.000992
vn -0.500765 0.865583 0.001054
vn -0.500771 0.865579 0.001054
vn -0.471285 -0.881980 0.000953
vn -0.471285 -0.881980 0.000953
vn -0.500565 -0.865698 0.001012
vn -0.500554 -0.865704 0.001012
vn -0.996358 0.085239 0.002055
vn -0.996342 0.085427 0.002055
vn -0.898313 0.439352 0.001837
vn -0.898160 0.439666 0.001836
vn -0.002819 -0.000014 -0.999996
vn -0.002786 0.000557 -0.999996
vn -0.002783 -0.000584 -0.999996
vn 0.002811 0.000001 0.999996
vn 0.002777 0.000574 0.999996
vn 0.002776 -0.000571 0.999996
vn -0.690425 0.723402 0.001451
vn -0.690425 0.723402 0.001451
vn -0.964635 0.263581 0.002023
vn -0.964635 0.263581 0.002023
vn -0.964635 0.263581 0.002023
vn -0.964635 0.263581 0.002023
vn -0.962281 -0.272049 0.002012
vn -0.962281 -0.272049 0.002012
vn -0.962440 0.271488 0.001960
vn -0.962440 0.271488 0.001960
vn -0.964515 -0.264022 0.001959
vn -0.964515 -0.264022 0.001959
vn -0.964515 -0.264022 0.001959
vn -0.964515 -0.264022 0.001959
vn -0.690200 -0.723618 0.001399
vn -0.690200 -0.723618 0.001399
vn -0.002855 -0.000654 -0.999996
vn -0.002857 -0.000015 -0.999996
vn -0.002855 -0.000654 -0.999996
vn -0.002855 -0.000654 -0.999996
vn -0.002855 -0.000654 -0.999996
vn -0.002855 -0.000654 -0.999996
vn 0.002850 0.000643 0.999996
vn 0.002849 0.000002 0.999996
vn 0.002850 0.000643 0.999996
vn 0.002850 0.000643 0.999996
vn 0.002850 0.000643 0.999996
vn 0.002850 0.000643 0.999996
vn -0.002858 0.000624 -0.999996
vn -0.002858 0.000624 -0.999996
vn -0.002858 0.000624 -0.999996
vn -0.002858 0.000624 -0.999996
vn -0.002858 0.000624 -0.999996
vn 0.002849 -0.000640 0.999996
vn 0.002849 -0.000640 0.999996
vn 0.002849 -0.000640 0.999996
vn 0.002849 -0.000640 0.999996
vn 0.002849 -0.000640 0.999996
s 1
g ATM
f 229/1/1 230/2/2 31/3/3 14/4/4
s 2
f 3/5/5 25/6/6 26/311/7 5/316/8
s 3
f 15/300/9 28/10/10 227/11/11 228/272/12
s 4
f 7/274/13 29/310/14 30/15/15 1/16/16
s 5
f 221/17/17 222/273/18 16/301/19 13/20/20
s 6
f 228/12/21 229/1/22 14/4/23 15/9/24
f 11/315/25 10/22/26 3/5/27 5/317/28
s 3
f 5/8/29 26/7/30 27/23/31 11/21/32
s 5
f 9/24/33 12/314/34 6/312/35 4/27/36
s 6
f 87/28/37 88/29/38 10/22/26 11/315/25
s 3
f 11/21/32 27/23/31 86/30/39 87/294/40
s 5
f 80/31/41 81/296/42 12/314/34 9/24/33
s 2
f 17/33/43 4/27/44 6/313/45 18/303/46
s 3
f 19/35/47 18/34/48 6/26/49 12/25/50
f 82/36/51 19/35/47 12/25/50 81/32/52
f 223/37/53 20/38/54 16/19/55 222/18/56
s 4
f 22/39/57 21/305/58 8/276/59 2/42/60
s 1
f 23/43/61 220/44/62 221/17/63 13/20/64
s 2
f 56/45/65 17/33/43 18/303/46 55/46/66
s 3
f 54/47/67 55/302/68 18/34/48 19/35/47
f 83/48/69 54/47/67 19/35/47 82/36/51
f 224/49/70 53/50/71 20/38/54 223/37/53
s 4
f 51/51/72 52/304/73 21/305/58 22/39/57
s 1
f 50/53/74 219/54/75 220/44/62 23/43/61
s 15
f 90/289/76 91/56/77 92/57/78 93/293/79
f 95/59/80 94/279/81 96/61/82 97/62/83
s 1
f 31/3/3 230/2/2 231/63/84 34/64/85
s 4
f 30/15/15 29/310/14 36/309/86 35/66/87
s 3
f 227/11/11 28/10/10 37/67/88 226/68/89
f 86/30/39 27/23/31 38/69/90 85/70/91
f 27/23/31 26/7/30 39/308/92 38/69/90
s 2
f 25/6/6 40/72/93 39/71/94 26/311/7
s 15
f 97/62/83 96/61/82 98/73/95 99/74/96
s 1
f 34/64/85 231/63/84 218/75/97 42/76/98
s 4
f 35/66/87 36/309/86 44/307/99 43/78/100
s 3
f 226/68/89 37/67/88 45/79/101 225/80/102
f 85/70/91 38/69/90 46/81/103 84/82/104
f 38/69/90 39/308/92 47/306/105 46/81/103
s 2
f 40/72/93 48/84/106 47/83/107 39/71/94
s 15
f 99/74/96 98/73/95 91/56/77 90/289/76
s 1
f 42/76/98 218/75/97 219/54/75 50/53/74
s 4
f 43/78/100 44/307/99 52/304/73 51/51/72
s 3
f 225/80/102 45/79/101 53/50/71 224/49/70
f 84/82/104 46/81/103 54/47/67 83/48/69
f 46/81/103 47/306/105 55/302/68 54/47/67
s 2
f 48/84/106 56/45/65 55/46/66 47/83/107
s 15
f 100/85/108 101/86/109 102/288/110 103/88/111
f 104/89/112 103/88/111 102/288/110 105/287/113
f 106/283/114 104/89/112 105/287/113 107/286/115
s 5
f 13/20/20 16/301/19 59/299/116 58/94/117
s 3
f 20/38/54 60/95/118 59/93/119 16/19/55
f 53/50/71 61/96/120 60/95/118 20/38/54
f 45/79/101 62/97/121 61/96/120 53/50/71
f 37/67/88 63/98/122 62/97/121 45/79/101
f 28/10/10 64/99/123 63/98/122 37/67/88
f 65/298/124 64/99/123 28/10/10 15/300/9
s 6
f 15/9/24 14/4/23 66/101/125 65/100/126
s 15
f 100/85/108 108/102/127 109/285/128 101/86/109
f 110/104/129 100/85/108 103/88/111 111/105/130
f 112/106/131 111/105/130 103/88/111 104/89/112
f 113/280/132 112/106/131 104/89/112 106/283/114
s 5
f 58/94/117 59/299/116 70/297/133 69/109/134
s 3
f 60/95/118 71/110/135 70/108/136 59/93/119
f 61/96/120 72/111/137 71/110/135 60/95/118
f 62/97/121 73/112/138 72/111/137 61/96/120
f 63/98/122 74/113/139 73/112/138 62/97/121
f 64/99/123 75/114/140 74/113/139 63/98/122
f 76/295/141 75/114/140 64/99/123 65/298/124
s 6
f 65/100/126 66/101/125 77/116/142 76/115/143
s 15
f 110/104/129 114/117/144 108/102/127 100/85/108
f 96/61/82 110/104/129 111/105/130 98/73/95
f 91/56/77 98/73/95 111/105/130 112/106/131
f 92/57/78 91/56/77 112/106/131 113/280/132
s 5
f 69/109/134 70/297/133 81/296/42 80/31/41
s 3
f 71/110/135 82/36/51 81/32/52 70/108/136
f 72/111/137 83/48/69 82/36/51 71/110/135
f 73/112/138 84/82/104 83/48/69 72/111/137
f 74/113/139 85/70/91 84/82/104 73/112/138
f 75/114/140 86/30/39 85/70/91 74/113/139
f 87/294/40 86/30/39 75/114/140 76/295/141
s 6
f 76/115/143 77/116/142 88/29/38 87/28/37
s 15
f 96/61/82 94/279/81 114/117/144 110/104/129
s 18
f 79/118/145 24/119/146 93/58/147 92/281/148
s 19
f 24/119/149 49/120/150 90/55/151 93/58/152
s 20
f 32/121/153 89/122/154 94/60/155 95/292/156
s 19
f 33/123/157 32/121/158 95/292/159 97/291/160
f 41/124/161 33/123/157 97/291/160 99/290/162
f 49/120/150 41/124/161 99/290/162 90/55/151
s 22
f 34/64/163 42/76/164 102/87/165 101/284/166
f 42/76/164 50/53/167 105/90/168 102/87/165
f 50/53/167 23/43/169 107/92/170 105/90/168
s 18
f 23/43/171 57/125/172 106/91/173 107/92/174
s 20
f 67/126/175 31/3/176 109/103/177 108/282/178
s 22
f 31/3/179 34/64/163 101/284/166 109/103/180
s 18
f 57/125/172 68/127/181 113/107/182 106/91/173
s 20
f 78/128/183 67/126/175 108/282/178 114/278/184
s 18
f 68/127/181 79/118/145 92/281/148 113/107/182
s 20
f 89/122/154 78/128/183 114/278/184 94/60/155
s 25
f 117/129/185 116/130/186 119/131/187 118/132/188
s 2
f 116/130/189 115/133/190 120/134/191 119/131/192
s 20
f 126/135/193 125/136/194 128/137/195 127/138/196
s 25
f 125/136/197 124/139/198 129/140/199 128/137/200
s 18
f 135/141/201 134/142/202 137/143/203 136/144/204
s 25
f 134/142/205 133/145/206 138/146/207 137/143/208
f 141/147/209 140/148/210 143/149/211 142/150/212
s 5
f 140/148/213 139/151/214 144/152/215 143/149/216
s 25
f 170/153/217 169/154/218 172/155/219 171/156/220
s 18
f 169/154/221 168/157/222 173/158/223 172/155/224
s 5
f 176/159/225 175/160/226 177/161/227 179/162/228
s 25
f 175/160/229 174/163/230 178/164/231 177/161/232
f 181/165/233 180/166/234 184/167/235 183/168/236
s 20
f 180/166/237 182/169/238 185/170/239 184/167/240
s 6
f 187/171/241 186/172/242 190/173/243 189/174/244
s 25
f 186/172/245 188/175/246 191/176/247 190/173/248
f 121/177/249 124/139/198 117/129/185 118/132/188
f 130/178/250 129/140/199 124/139/198 121/177/249
f 138/146/207 133/145/206 141/147/209 142/150/212
f 148/179/251 138/146/207 142/150/212 145/180/252
f 154/181/253 153/182/254 138/146/207 148/179/251
f 117/129/185 124/139/198 157/183/255 162/184/256
f 162/184/256 157/183/255 163/185/257 167/186/258
f 167/186/258 163/185/257 153/182/254 154/181/253
f 174/163/230 170/153/217 171/156/220 178/164/231
f 191/176/247 188/175/246 181/165/233 183/168/236
f 195/187/259 194/188/260 170/153/217 174/163/230
f 191/176/247 183/168/236 198/189/261 203/190/262
f 141/147/209 133/145/206 194/188/260 195/187/259
f 203/190/262 198/189/261 129/140/199 130/178/250
s 2
f 25/6/6 3/5/5 120/134/191 115/133/190
s 6
f 3/5/27 10/22/26 123/191/263 120/134/264
s 20
f 89/122/154 32/121/153 126/135/193 127/138/196
s 6
f 10/22/26 88/29/38 132/192/265 123/191/263
s 18
f 24/119/146 79/118/145 135/141/201 136/144/204
s 5
f 80/31/41 9/24/33 144/152/215 139/151/214
f 9/24/33 4/27/36 147/193/266 144/152/215
s 2
f 4/27/44 17/33/43 150/194/267 147/193/268
s 19
f 49/120/150 24/119/149 136/144/269 151/195/270
s 2
f 17/33/43 56/45/65 156/196/271 150/194/267
s 19
f 32/121/158 33/123/157 159/197/272 126/135/273
s 2
f 40/72/93 25/6/6 115/133/190 160/198/274
s 19
f 33/123/157 41/124/161 159/197/272
s 2
f 48/84/106 40/72/93 160/198/274 165/199/275
s 19
f 41/124/161 49/120/150 151/195/270
s 2
f 56/45/65 48/84/106 165/199/275 156/196/271
s 18
f 57/125/172 23/43/171 173/158/223 168/157/222
s 5
f 13/20/20 58/94/117 176/159/225 179/162/228
s 20
f 31/3/176 67/126/175 185/170/239 182/169/238
s 6
f 66/101/125 14/4/23 187/171/241 189/174/244
s 18
f 68/127/181 57/125/172 168/157/222 192/200/276
s 5
f 58/94/117 69/109/134 197/201/277 176/159/225
s 20
f 67/126/175 78/128/183 200/202/278 185/170/239
s 6
f 77/116/142 66/101/125 189/174/244 201/203/279
s 18
f 79/118/145 68/127/181 192/200/276 135/141/201
s 5
f 69/109/134 80/31/41 139/151/214 197/201/277
s 20
f 78/128/183 89/122/154 127/138/196 200/202/278
s 6
f 88/29/38 77/116/142 201/203/279 132/192/265
s off
f 177/161/280 178/164/281 171/156/282 172/155/283 173/158/284 23/43/285 13/20/286 179/162/287
f 186/172/288 187/171/289 14/4/290 31/3/291 182/169/292 180/166/293 181/165/294 188/175/295
s 2
f 115/133/190 116/130/189 161/204/296 160/198/274
s 25
f 116/130/186 117/129/185 162/184/256 161/204/297
f 118/132/188 119/131/298 122/205/299 121/177/249
s 6
f 119/131/300 120/134/264 123/191/263 122/205/301
s 25
f 121/177/249 122/205/299 131/206/302 130/178/250
s 6
f 122/205/301 123/191/263 132/192/265 131/206/303
s 25
f 124/139/198 125/136/304 158/207/305 157/183/255
s 19
f 125/136/306 126/135/273 159/197/272 158/207/307
f 136/144/269 137/143/308 152/208/309 151/195/270
s 25
f 137/143/310 138/146/207 153/182/254 152/208/311
f 142/150/212 143/149/211 146/209/312 145/180/252
s 5
f 143/149/216 144/152/215 147/193/266 146/209/313
s 25
f 145/180/252 146/209/314 149/210/315 148/179/251
s 2
f 146/209/316 147/193/268 150/194/267 149/210/317
s 25
f 148/179/251 149/210/315 155/211/318 154/181/253
s 2
f 149/210/317 150/194/267 156/196/271 155/211/319
s 25
f 157/183/255 158/207/305 164/212/320 163/185/257
s 19
f 158/207/307 159/197/272 41/124/161 164/212/321
s 2
f 160/198/274 161/204/296 166/213/322 165/199/275
s 25
f 161/204/297 162/184/256 167/186/258 166/213/323
s 19
f 151/195/270 152/208/309 164/212/321 41/124/161
s 25
f 152/208/311 153/182/254 163/185/257 164/212/320
f 154/181/253 155/211/318 166/213/323 167/186/258
s 2
f 155/211/319 156/196/271 165/199/275 166/213/322
s 18
f 168/157/222 169/154/221 193/214/324 192/200/276
s 25
f 169/154/218 170/153/217 194/188/260 193/214/325
f 174/163/230 175/160/229 196/215/326 195/187/259
s 5
f 175/160/226 176/159/225 197/201/277 196/215/327
s 25
f 183/168/236 184/167/235 199/216/328 198/189/261
s 20
f 184/167/240 185/170/239 200/202/278 199/216/329
s 6
f 189/174/244 190/173/243 202/217/330 201/203/279
s 25
f 190/173/248 191/176/247 203/190/262 202/217/331
f 133/145/206 134/142/205 193/214/325 194/188/260
s 18
f 134/142/202 135/141/201 192/200/276 193/214/324
s 5
f 139/151/214 140/148/213 196/215/327 197/201/277
s 25
f 140/148/210 141/147/209 195/187/259 196/215/326
s 20
f 127/138/196 128/137/195 199/216/329 200/202/278
s 25
f 128/137/200 129/140/199 198/189/261 199/216/328
f 130/178/250 131/206/302 202/217/331 203/190/262
s 6
f 131/206/303 132/192/265 201/203/279 202/217/330
s 1
f 204/218/332 43/78/333 51/51/334 205/219/335
f 206/220/336 205/219/335 51/51/334 22/39/337
f 207/221/338 206/220/336 22/39/337 2/42/339
s 5
f 2/42/340 8/277/341 208/271/342 207/221/343
s 3
f 21/40/344 209/223/345 208/222/346 8/41/347
f 52/52/348 210/224/349 209/223/345 21/40/344
f 44/77/350 211/225/351 210/224/349 52/52/348
f 36/65/352 212/226/353 211/225/351 44/77/350
f 29/14/354 213/227/355 212/226/353 36/65/352
f 214/269/356 213/227/355 29/14/354 7/275/357
s 6
f 7/13/358 1/16/359 215/229/360 214/228/361
s 1
f 1/16/362 30/15/363 216/230/364 215/229/365
f 217/231/366 216/230/364 30/15/363 35/66/367
f 204/218/332 217/231/366 35/66/367 43/78/333
f 218/75/97 244/232/368 245/233/369 219/54/75
s 44
f 256/234/370 252/235/371 248/236/372 250/237/373
s 1
f 221/17/63 220/44/62 232/238/374 233/239/375
s 5
f 233/239/376 234/270/377 222/273/18 221/17/17
s 3
f 235/241/378 223/37/53 222/18/56 234/240/379
f 236/242/380 224/49/70 223/37/53 235/241/378
f 237/243/381 225/80/102 224/49/70 236/242/380
f 238/244/382 226/68/89 225/80/102 237/243/381
f 239/245/383 227/11/11 226/68/89 238/244/382
f 228/272/12 227/11/11 239/245/383 240/268/384
s 6
f 240/246/385 241/247/386 229/1/22 228/12/21
s 1
f 241/247/387 242/248/388 230/2/2 229/1/1
f 231/63/84 230/2/2 242/248/388 243/249/389
f 218/75/97 231/63/84 243/249/389 244/232/368
s 45
f 220/44/390 219/54/391 255/250/392 257/251/393
s 46
f 205/219/394 206/220/395 267/252/396 261/253/397
s 44
f 251/254/398 247/255/399 260/256/400 264/257/401
s 1
f 233/239/375 232/238/374 206/220/336 207/221/338
s 5
f 207/221/343 208/271/342 234/270/377 233/239/376
s 3
f 209/223/345 235/241/378 234/240/379 208/222/346
f 210/224/349 236/242/380 235/241/378 209/223/345
f 211/225/351 237/243/381 236/242/380 210/224/349
f 212/226/353 238/244/382 237/243/381 211/225/351
f 213/227/355 239/245/383 238/244/382 212/226/353
f 240/268/384 239/245/383 213/227/355 214/269/356
s 6
f 214/228/361 215/229/360 241/247/386 240/246/385
s 1
f 215/229/365 216/230/364 242/248/388 241/247/387
f 243/249/389 242/248/388 216/230/364 217/231/366
f 244/232/368 243/249/389 217/231/366 204/218/332
f 245/233/369 244/232/368 204/218/332 205/219/335
s 44
f 248/236/372 247/255/399 251/254/398 250/237/373
s 47
f 246/258/402 247/255/403 248/236/404
s 48
f 249/259/405 250/237/406 251/254/407
s 45
f 255/250/392 254/260/408 258/261/409 257/251/393
s off
f 254/260/410 253/262/411 259/263/412 258/261/413
s 44
f 253/262/414 252/235/371 256/234/370 259/263/415
f 260/256/400 263/264/416 265/265/417 264/257/401
s off
f 263/264/418 262/266/419 266/267/420 265/265/421
s 46
f 262/266/422 261/253/397 267/252/396 266/267/423
s 47
f 219/54/424 245/233/425 246/258/402 248/236/404 252/235/426 253/262/427 254/260/428 255/250/429
s 48
f 256/234/430 250/237/406 249/259/405 232/238/431 220/44/432 257/251/433 258/261/434 259/263/435
s 47
f 260/256/436 247/255/403 246/258/402 245/233/425 205/219/437 261/253/438 262/266/439 263/264/440
s 48
f 206/220/441 232/238/431 249/259/405 251/254/407 264/257/442 265/265/443 266/267/444 267/252/445
