# This file uses centimeters as units for non-parametric coordinates.

mtllib Desk_Chair V2.mtl
g default
v 6.573851 0.799432 0.500000
v 7.573851 0.799432 0.500000
v 6.573851 0.909638 -0.500000
v 7.573851 0.909638 -0.500000
v 6.573851 0.799432 -0.500000
v 7.573851 0.799432 -0.500000
v 6.573851 0.909638 -0.389090
v 6.573851 0.799432 -0.389090
v 7.573851 0.799432 -0.389090
v 7.573851 0.909638 -0.389090
v 7.573851 1.873636 -0.500000
v 6.573851 1.873636 -0.500000
v 6.573851 0.909638 0.055455
v 6.573851 0.799432 0.055455
v 7.573851 0.799432 0.055455
v 7.573851 0.909638 0.055455
v 7.232482 0.799432 0.500000
v 7.232482 0.799432 -0.389090
v 7.232482 0.799432 -0.500000
v 7.232482 0.909638 -0.500000
v 7.232482 1.873636 -0.500000
v 6.684204 0.909638 0.055455
v 6.684204 0.909638 -0.389090
v 6.915220 1.873636 -0.500000
v 6.915220 0.909638 -0.500000
v 6.915220 0.799432 -0.500000
v 6.915220 0.799432 -0.389090
v 6.915220 0.799432 0.055455
v 6.915220 0.799432 0.500000
v 7.232482 0.799432 0.055455
v 7.463499 0.909638 -0.389090
v 7.463499 0.909638 0.055455
v 6.573851 0.909638 -0.124707
v 6.684204 0.909638 -0.124707
v 7.463499 0.909638 -0.124707
v 7.573851 0.909638 -0.124707
v 7.573851 0.799432 -0.124707
v 7.232482 0.799432 -0.124707
v 6.915220 0.799432 -0.124707
v 6.573851 0.799432 -0.124707
v 6.573851 0.799432 0.235618
v 6.915220 0.799432 0.235618
v 7.232482 0.799432 0.235618
v 7.573851 0.799432 0.235618
v 7.573851 0.909638 0.235618
v 7.463499 0.909638 0.235618
v 6.684204 0.909638 0.235618
v 6.573851 0.909638 0.235618
v 7.232482 0.197918 -0.124707
v 7.360432 -0.002586 -0.225294
v 7.232482 0.197918 0.055455
v 7.360432 -0.002586 0.100185
v 6.915220 0.197918 -0.124707
v 6.787271 -0.002586 -0.225294
v 6.915220 0.197918 0.055455
v 6.787271 -0.002586 0.100185
v 6.915220 0.197918 0.235618
v 6.787271 -0.002586 0.425664
v 7.232482 0.197918 0.235618
v 7.360432 -0.002586 0.425664
v 6.684204 1.241336 0.055455
v 6.573851 1.241336 0.055455
v 6.684204 1.241336 -0.124707
v 6.573851 1.241336 -0.124707
v 6.684204 1.241336 0.235618
v 6.573851 1.241336 0.235618
v 7.463499 1.241336 -0.124707
v 7.573851 1.241336 -0.124707
v 7.463499 1.241336 0.055455
v 7.573851 1.241336 0.055455
v 7.463499 1.241336 0.235618
v 7.573851 1.241336 0.235618
v 7.463499 1.179391 0.235618
v 7.463499 1.179391 0.055455
v 7.463499 1.179391 -0.124707
v 7.573851 1.179391 -0.124707
v 7.573851 1.179391 0.055455
v 7.573851 1.179391 0.235618
v 6.573851 1.188912 0.235618
v 6.573851 1.188912 0.055455
v 6.573851 1.188912 -0.124707
v 6.684204 1.188912 -0.124707
v 6.684204 1.188912 0.055455
v 6.684204 1.188912 0.235618
v 7.463499 1.179391 -0.267747
v 7.573851 1.179391 -0.267747
v 7.463499 1.241336 -0.267747
v 7.573851 1.241336 -0.267747
v 7.573851 1.179391 0.378657
v 7.463499 1.179391 0.378657
v 7.573851 1.241336 0.378657
v 7.463499 1.241336 0.378657
v 6.573851 1.188912 -0.267747
v 6.684204 1.188912 -0.267747
v 6.573851 1.241336 -0.267747
v 6.684204 1.241336 -0.267747
v 6.684204 1.188912 0.378657
v 6.573851 1.188912 0.378657
v 6.684204 1.241336 0.378657
v 6.573851 1.241336 0.378657
v 6.573851 0.909638 0.445308
v 6.573851 0.854946 0.500000
v 6.748322 0.879050 0.500000
v 6.684204 0.909638 0.428960
v 7.573851 1.873636 -0.443781
v 7.573851 1.818945 -0.389090
v 7.232482 1.873636 -0.444539
v 7.399380 0.879050 0.500000
v 7.463499 0.909638 0.428960
v 7.245404 1.819714 -0.389090
v 6.902298 1.819714 -0.389090
v 6.915220 1.873636 -0.444539
v 6.573851 1.818945 -0.389090
v 6.573851 1.873636 -0.443781
v 7.573851 0.909638 0.445308
v 7.573851 0.854946 0.500000
vt 0.109988 0.001992
vt 0.121322 0.001992
vt 0.121322 0.104177
vt 0.109988 0.104177
vt 0.148338 0.001992
vt 0.148338 0.104177
vt 0.121322 0.947297
vt 0.115733 0.998008
vt 0.109988 0.998008
vt 0.166747 0.001992
vt 0.166747 0.104177
vt 0.185157 0.001992
vt 0.185157 0.104177
vt 0.166747 0.363123
vt 0.148338 0.363123
vt 0.206584 0.104177
vt 0.212173 0.001992
vt 0.212173 0.053466
vt 0.185157 0.363123
vt 0.166747 0.411731
vt 0.148338 0.411731
vt 0.185157 0.411731
vt 0.133721 0.411731
vt 0.133721 0.363123
vt 0.199774 0.363123
vt 0.199774 0.411731
vt 0.310605 0.104177
vt 0.310605 0.001992
vt 0.321938 0.001992
vt 0.321938 0.104177
vt 0.283589 0.104177
vt 0.283589 0.001992
vt 0.321938 0.998008
vt 0.316193 0.998008
vt 0.310605 0.947297
vt 0.265179 0.104177
vt 0.265179 0.001992
vt 0.246769 0.104177
vt 0.246769 0.001992
vt 0.283589 0.354295
vt 0.265179 0.354295
vt 0.225342 0.104177
vt 0.219754 0.053466
vt 0.219754 0.001992
vt 0.246769 0.354295
vt 0.283589 0.411731
vt 0.265179 0.411731
vt 0.246769 0.411731
vt 0.298205 0.354295
vt 0.298205 0.411731
vt 0.232153 0.411731
vt 0.232153 0.354295
vt 0.495523 0.745633
vt 0.477113 0.745633
vt 0.477113 0.187902
vt 0.495523 0.187902
vt 0.458704 0.745633
vt 0.458704 0.187902
vt 0.472543 0.001992
vt 0.505802 0.001992
vt 0.439284 0.001992
vt 0.541149 0.745633
vt 0.522739 0.745633
vt 0.522739 0.187902
vt 0.541149 0.187902
vt 0.512461 0.001992
vt 0.545719 0.001992
vt 0.559559 0.745633
vt 0.559559 0.187902
vt 0.578978 0.001992
vt 0.750382 0.001992
vt 0.768791 0.001992
vt 0.768791 0.260938
vt 0.750382 0.260938
vt 0.768791 0.309547
vt 0.750382 0.309547
vt 0.731972 0.001992
vt 0.731972 0.260938
vt 0.783408 0.260938
vt 0.783408 0.309547
vt 0.731972 0.309547
vt 0.717355 0.309547
vt 0.717355 0.260938
vt 0.805149 0.001992
vt 0.823558 0.001992
vt 0.823558 0.252110
vt 0.805149 0.252110
vt 0.841968 0.001992
vt 0.841968 0.252110
vt 0.823558 0.309547
vt 0.805149 0.309547
vt 0.841968 0.309547
vt 0.790532 0.309547
vt 0.790532 0.252110
vt 0.856585 0.252110
vt 0.856585 0.309547
vt 0.901915 0.388462
vt 0.936798 0.388462
vt 0.936798 0.415478
vt 0.901915 0.415478
vt 0.901915 0.370052
vt 0.936798 0.370052
vt 0.869496 0.415478
vt 0.869496 0.388462
vt 0.901915 0.351642
vt 0.936798 0.351642
vt 0.834613 0.388462
vt 0.834613 0.415478
vt 0.901915 0.324627
vt 0.936798 0.324627
vt 0.834613 0.370052
vt 0.869496 0.370052
vt 0.901915 0.313293
vt 0.936798 0.313293
vt 0.869496 0.351642
vt 0.869496 0.324627
vt 0.834613 0.351642
vt 0.869496 0.313293
vt 0.834613 0.324627
vt 0.834613 0.313293
vt 0.828854 0.324570
vt 0.801838 0.324570
vt 0.801838 0.313293
vt 0.828854 0.313293
vt 0.801838 0.404202
vt 0.828854 0.404202
vt 0.783429 0.404202
vt 0.783429 0.324570
vt 0.801838 0.415478
vt 0.828854 0.415478
vt 0.765019 0.404202
vt 0.765019 0.324570
vt 0.745262 0.404202
vt 0.745262 0.324570
vt 0.743592 0.415478
vt 0.765019 0.415478
vt 0.743592 0.313293
vt 0.765019 0.313293
vt 0.542782 0.782406
vt 0.554058 0.782406
vt 0.554058 0.800816
vt 0.542782 0.800816
vt 0.542782 0.763996
vt 0.554058 0.763996
vt 0.554058 0.815432
vt 0.542782 0.815432
vt 0.542782 0.749380
vt 0.554058 0.749380
vt 0.537023 0.800816
vt 0.525746 0.800816
vt 0.525746 0.782406
vt 0.537023 0.782406
vt 0.537023 0.815432
vt 0.525746 0.815432
vt 0.525746 0.763996
vt 0.537023 0.763996
vt 0.525746 0.749380
vt 0.537023 0.749380
vt 0.559817 0.782639
vt 0.559817 0.749380
vt 0.618385 0.749380
vt 0.618385 0.782639
vt 0.618385 0.815898
vt 0.559817 0.815898
vt 0.451846 0.763996
vt 0.440570 0.763996
vt 0.440570 0.749380
vt 0.451846 0.749380
vt 0.423534 0.899570
vt 0.434811 0.899570
vt 0.434811 0.914186
vt 0.423534 0.914186
vt 0.417775 0.914186
vt 0.406499 0.914186
vt 0.406499 0.899570
vt 0.417775 0.899570
vt 0.389464 0.899570
vt 0.400740 0.899570
vt 0.400740 0.914186
vt 0.389464 0.914186
vt 0.624222 0.784262
vt 0.624144 0.749380
vt 0.629889 0.749380
vt 0.629889 0.784262
vt 0.629889 0.816682
vt 0.624222 0.816682
vt 0.624144 0.851564
vt 0.629889 0.851564
vt 0.069172 0.895823
vt 0.104054 0.895823
vt 0.104054 0.998008
vt 0.069172 0.998008
vt 0.069172 0.001992
vt 0.104054 0.001992
vt 0.036753 0.998008
vt 0.036753 0.895823
vt 0.036753 0.001992
vt 0.001870 0.895823
vt 0.001870 0.998008
vt 0.001870 0.001992
vt 0.598712 0.001992
vt 0.631131 0.001992
vt 0.631131 0.559723
vt 0.598712 0.559723
vt 0.644206 0.745633
vt 0.585637 0.745633
vt 0.696990 0.745633
vt 0.664571 0.745633
vt 0.664571 0.187902
vt 0.696990 0.187902
vt 0.651496 0.001992
vt 0.710065 0.001992
vt 0.874985 0.260938
vt 0.863709 0.260938
vt 0.863709 0.001992
vt 0.874985 0.001992
vt 0.882003 0.001992
vt 0.893279 0.001992
vt 0.893279 0.260938
vt 0.882003 0.260938
vt 0.911574 0.252110
vt 0.900297 0.252110
vt 0.900297 0.001992
vt 0.911574 0.001992
vt 0.918591 0.001992
vt 0.929868 0.001992
vt 0.929868 0.252110
vt 0.918591 0.252110
vt 0.519987 0.806816
vt 0.508711 0.806816
vt 0.508711 0.749380
vt 0.519987 0.749380
vt 0.491676 0.749380
vt 0.502952 0.749380
vt 0.502952 0.806816
vt 0.491676 0.806816
vt 0.485917 0.797988
vt 0.474640 0.797988
vt 0.474640 0.749380
vt 0.485917 0.749380
vt 0.457605 0.749380
vt 0.468881 0.749380
vt 0.468881 0.797988
vt 0.457605 0.797988
vt 0.726556 0.851564
vt 0.720004 0.823203
vt 0.737833 0.800854
vt 0.737833 0.851564
vt 0.646924 0.851564
vt 0.653476 0.823203
vt 0.702950 0.749380
vt 0.737833 0.749380
vt 0.635648 0.851564
vt 0.635648 0.800854
vt 0.670531 0.749380
vt 0.635648 0.749380
vt 0.398141 0.845825
vt 0.396821 0.895823
vt 0.364401 0.895823
vt 0.363081 0.845825
vt 0.431703 0.845112
vt 0.431703 0.895823
vt 0.329519 0.895823
vt 0.329519 0.845112
vt 0.340795 0.001992
vt 0.420427 0.001992
vt 0.431703 0.001992
vt 0.329519 0.001992
vn 0.000000 0.000000 -1.000000
vn 0.000000 0.000000 -1.000000
vn 0.000000 0.000000 -1.000000
vn 0.000000 0.000000 -1.000000
vn 0.000000 -1.000000 0.000000
vn 0.000000 -1.000000 0.000000
vn 0.000000 -1.000000 0.000000
vn 0.000000 -1.000000 0.000000
vn -1.000000 0.000000 0.000000
vn -1.000000 0.000000 0.000000
vn -1.000000 0.000000 0.000000
vn -1.000000 0.000000 0.000000
vn 0.000000 -1.000000 0.000000
vn 0.000000 -1.000000 0.000000
vn 0.000000 -1.000000 0.000000
vn 0.000000 -1.000000 0.000000
vn 1.000000 0.000000 0.000000
vn 1.000000 0.000000 0.000000
vn 1.000000 0.000000 0.000000
vn 1.000000 0.000000 0.000000
vn 0.000000 0.000000 -1.000000
vn 0.000000 0.000000 -1.000000
vn -1.000000 0.000000 0.000000
vn -1.000000 0.000000 0.000000
vn 0.000000 -1.000000 0.000000
vn 0.000000 -1.000000 0.000000
vn 1.000000 0.000000 0.000000
vn 1.000000 0.000000 0.000000
vn 0.000000 1.000000 0.000000
vn 0.000000 1.000000 0.000000
vn 0.000000 1.000000 0.000000
vn 0.000000 1.000000 0.000000
vn 0.000000 -1.000000 0.000000
vn 0.000000 -1.000000 0.000000
vn 0.000000 -1.000000 0.000000
vn 0.000000 -1.000000 0.000000
vn 0.000000 -1.000000 0.000000
vn 0.000000 -1.000000 0.000000
vn 0.000000 -1.000000 0.000000
vn 0.000000 -1.000000 0.000000
vn 0.000000 -1.000000 0.000000
vn 0.000000 -1.000000 0.000000
vn 0.000000 0.000000 -1.000000
vn 0.000000 0.000000 -1.000000
vn 0.000000 0.000000 -1.000000
vn 0.000000 0.000000 -1.000000
vn 0.000000 0.000000 -1.000000
vn 0.000000 0.000000 -1.000000
vn 0.000000 1.000000 0.000000
vn 0.000000 1.000000 0.000000
vn 0.000000 1.000000 0.000000
vn 0.000000 1.000000 0.000000
vn 0.000000 1.000000 0.000000
vn 0.000000 1.000000 0.000000
vn 0.000000 1.000000 0.000000
vn 0.000000 1.000000 0.000000
vn 0.000000 1.000000 0.000000
vn 0.000000 1.000000 0.000000
vn 0.000000 1.000000 0.000000
vn 0.000000 1.000000 0.000000
vn 0.000000 1.000000 0.000000
vn 0.000000 1.000000 0.000000
vn 1.000000 0.000000 0.000000
vn 1.000000 0.000000 0.000000
vn 0.000000 -1.000000 0.000000
vn 0.000000 -1.000000 0.000000
vn 0.000000 -1.000000 0.000000
vn 0.000000 -1.000000 0.000000
vn 0.000000 -1.000000 0.000000
vn 0.000000 -1.000000 0.000000
vn 0.000000 -1.000000 0.000000
vn 0.000000 -1.000000 0.000000
vn -1.000000 0.000000 0.000000
vn -1.000000 0.000000 0.000000
vn 0.000000 -1.000000 0.000000
vn 0.000000 -1.000000 0.000000
vn 1.000000 0.000000 0.000000
vn 1.000000 0.000000 0.000000
vn 0.000000 1.000000 0.000000
vn 0.000000 1.000000 0.000000
vn 0.000000 1.000000 0.000000
vn 0.000000 1.000000 0.000000
vn 0.000000 1.000000 0.000000
vn 0.000000 1.000000 0.000000
vn -1.000000 0.000000 0.000000
vn -1.000000 0.000000 0.000000
vn 1.000000 0.000000 0.000000
vn 1.000000 0.000000 0.000000
vn 0.979941 0.199290 0.000000
vn 0.979011 0.203806 0.000000
vn 0.842983 0.537940 0.000000
vn 0.842983 0.537940 0.000000
vn -1.000000 0.000000 0.000000
vn -1.000000 0.000000 0.000000
vn -0.979011 0.203806 0.000000
vn -0.979941 0.199290 0.000000
vn -0.842983 0.537940 0.000000
vn -0.842983 0.537940 0.000000
vn 0.000000 -0.000000 -1.000000
vn 0.000000 -0.000000 -1.000000
vn 0.000000 0.162483 -0.986711
vn 0.000000 0.162483 -0.986711
vn 0.000000 0.448407 -0.893829
vn 0.000000 0.448407 -0.893829
vn 0.000000 0.000000 1.000000
vn 0.000000 0.000000 1.000000
vn 0.000000 0.297048 0.954862
vn 0.000000 0.297048 0.954862
vn 0.000000 0.687925 0.725782
vn 0.000000 0.687925 0.725782
vn -1.000000 0.000000 0.000000
vn -0.978191 0.207708 0.000000
vn -0.842983 0.537940 0.000000
vn 1.000000 0.000000 0.000000
vn 0.978191 0.207708 0.000000
vn 0.842983 0.537940 0.000000
vn 1.000000 0.000000 0.000000
vn 1.000000 0.000000 0.000000
vn 1.000000 0.000000 0.000000
vn 1.000000 0.000000 0.000000
vn 0.000000 0.000000 -1.000000
vn 0.000000 0.000000 -1.000000
vn 0.000000 0.000000 -1.000000
vn 0.000000 0.000000 -1.000000
vn -1.000000 0.000000 0.000000
vn -1.000000 0.000000 0.000000
vn 0.000000 0.000000 1.000000
vn 0.000000 0.000000 1.000000
vn 0.000000 0.000000 1.000000
vn 0.000000 0.000000 1.000000
vn 1.000000 0.000000 0.000000
vn 1.000000 0.000000 0.000000
vn -1.000000 0.000000 0.000000
vn 0.000000 0.000000 -1.000000
vn 0.000000 0.000000 -1.000000
vn 0.000000 0.000000 -1.000000
vn 0.000000 0.000000 -1.000000
vn -1.000000 0.000000 0.000000
vn -1.000000 0.000000 0.000000
vn -1.000000 0.000000 0.000000
vn -1.000000 0.000000 0.000000
vn 1.000000 0.000000 0.000000
vn 1.000000 0.000000 0.000000
vn -1.000000 0.000000 0.000000
vn -1.000000 0.000000 0.000000
vn 0.000000 0.000000 1.000000
vn 0.000000 0.000000 1.000000
vn 0.000000 0.000000 1.000000
vn 0.000000 0.000000 1.000000
vn 1.000000 0.000000 0.000000
vn -1.000000 0.000000 0.000000
vn -1.000000 0.000000 0.000000
vn -1.000000 0.000000 0.000000
vn 0.000000 0.000000 -1.000000
vn 0.000000 0.000000 -1.000000
vn 0.000000 0.000000 -1.000000
vn 0.000000 0.000000 -1.000000
vn 1.000000 0.000000 0.000000
vn 1.000000 0.000000 0.000000
vn 1.000000 0.000000 0.000000
vn 0.000000 0.000000 1.000000
vn 0.000000 0.000000 1.000000
vn 0.000000 0.000000 1.000000
vn 0.000000 0.000000 1.000000
vn -1.000000 0.000000 0.000000
vn -1.000000 0.000000 0.000000
vn -1.000000 0.000000 0.000000
vn 0.000000 0.000000 -1.000000
vn 0.000000 0.000000 -1.000000
vn 0.000000 0.000000 -1.000000
vn 0.000000 0.000000 -1.000000
vn 1.000000 0.000000 0.000000
vn 1.000000 0.000000 0.000000
vn 1.000000 0.000000 0.000000
vn 0.000000 0.000000 1.000000
vn 0.000000 0.000000 1.000000
vn 0.000000 0.000000 1.000000
vn 0.000000 0.000000 1.000000
vn 0.000000 -1.000000 0.000000
vn 0.000000 -1.000000 0.000000
vn 0.000000 -1.000000 0.000000
vn 0.000000 -1.000000 0.000000
vn -1.000000 0.000000 0.000000
vn -1.000000 0.000000 0.000000
vn 0.000000 1.000000 0.000000
vn 0.000000 1.000000 0.000000
vn 1.000000 0.000000 0.000000
vn 1.000000 0.000000 0.000000
vn 0.000000 -1.000000 0.000000
vn 0.000000 -1.000000 0.000000
vn 0.000000 -1.000000 0.000000
vn 0.000000 -1.000000 0.000000
vn 1.000000 0.000000 0.000000
vn 1.000000 0.000000 0.000000
vn 0.000000 1.000000 0.000000
vn 0.000000 1.000000 0.000000
vn -1.000000 0.000000 0.000000
vn -1.000000 0.000000 0.000000
vn 0.000000 -1.000000 0.000000
vn 0.000000 -1.000000 0.000000
vn 0.000000 -1.000000 0.000000
vn 0.000000 -1.000000 0.000000
vn -1.000000 0.000000 0.000000
vn -1.000000 0.000000 0.000000
vn 0.000000 1.000000 0.000000
vn 0.000000 1.000000 0.000000
vn 1.000000 0.000000 0.000000
vn 1.000000 0.000000 0.000000
vn 0.000000 -1.000000 0.000000
vn 0.000000 -1.000000 0.000000
vn 0.000000 -1.000000 0.000000
vn 0.000000 -1.000000 0.000000
vn 1.000000 0.000000 0.000000
vn 1.000000 0.000000 0.000000
vn 0.000000 1.000000 0.000000
vn 0.000000 1.000000 0.000000
vn -1.000000 0.000000 0.000000
vn -1.000000 0.000000 0.000000
vn 0.001981 0.993605 0.112897
vn 0.005494 0.674693 0.738078
vn 0.005539 0.124762 0.992171
vn 0.013694 0.976256 0.216186
vn 0.000001 0.049335 0.998782
vn 0.000007 0.897988 0.440019
vn -0.000007 0.897988 0.440019
vn -0.000001 0.049335 0.998782
vn 0.000000 0.000000 1.000000
vn 0.000000 0.000000 1.000000
vn 0.000000 1.000000 0.000000
vn 0.000014 0.899657 0.436597
vn 0.000000 1.000000 0.000000
vn 0.000000 1.000000 0.000000
vn -0.000000 0.000000 1.000000
vn -0.000000 0.000000 1.000000
vn 0.000003 0.082347 0.996604
vn -0.013694 0.976256 0.216186
vn -0.001981 0.993605 0.112897
vn 0.000000 1.000000 0.000000
vn 0.000000 0.000000 1.000000
vn 0.000000 0.000000 1.000000
vn -0.005494 0.674693 0.738078
vn -0.005539 0.124762 0.992171
vn -0.000014 0.899657 0.436596
vn 0.000000 1.000000 0.000000
vn 0.000000 1.000000 0.000000
vn 0.000000 0.000000 1.000000
vn 0.000000 0.000000 1.000000
vn -0.000003 0.082347 0.996604
vn -1.000000 0.000000 0.000000
vn -1.000000 0.000000 0.000000
vn -1.000000 0.000000 0.000000
vn 1.000000 0.000000 0.000000
vn 1.000000 0.000000 0.000000
vn 1.000000 0.000000 0.000000
vn -1.000000 0.000000 0.000000
vn -1.000000 0.000000 0.000000
vn -1.000000 0.000000 0.000000
vn 1.000000 0.000000 0.000000
vn 1.000000 0.000000 0.000000
vn 1.000000 0.000000 0.000000
s 1
g pCube1
usemtl initialShadingGroup
f 20/189/1 4/190/2 6/191/3 19/192/4
s 2
f 43/97/5 44/98/6 2/99/7 17/100/8
s 3
f 5/1/9 8/2/10 7/3/11 3/4/12
s 2
f 19/113/13 6/114/14 9/110/15 18/109/16
s 5
f 10/27/17 9/28/18 6/29/19 4/30/20
s 1
f 4/190/2 20/189/1 21/193/21 11/194/22
s 3
f 8/2/10 40/5/23 33/6/24 7/3/11
s 2
f 18/109/16 9/110/15 37/106/25 38/105/26
s 5
f 36/31/27 37/32/28 9/28/18 10/27/17
s 6
f 31/121/29 35/122/30 36/123/31 10/124/32
s 2
f 41/107/33 42/104/34 29/103/35 1/108/36
f 8/119/37 27/116/38 39/115/39 40/117/40
f 5/120/41 26/118/42 27/116/38 8/119/37
s 1
f 3/198/43 25/196/44 26/195/45 5/199/46
f 24/197/47 25/196/44 3/198/43 12/200/48
s 6
f 33/129/49 34/125/50 23/126/51 7/130/52
f 34/125/50 35/122/30 31/121/29 23/126/51
s 1
f 21/193/21 20/189/1 25/196/44 24/197/47
f 26/195/45 25/196/44 20/189/1 19/192/4
s 2
f 27/116/38 26/118/42 19/113/13 18/109/16
f 39/115/39 27/116/38 18/109/16 38/105/26
f 29/103/35 42/104/34 43/97/5 17/100/8
s 10
f 62/139/53 61/140/54 63/141/55 64/142/56
s 6
f 22/127/57 32/128/58 35/122/30 34/125/50
s 11
f 68/149/59 67/150/60 69/151/61 70/152/62
s 5
f 16/36/63 15/37/64 37/32/28 36/31/27
s 2
f 38/105/26 37/106/25 15/102/65 30/101/66
s 12
f 56/159/67 54/160/68 50/161/69 52/162/70
s 2
f 40/117/40 39/115/39 28/112/71 14/111/72
s 3
f 33/6/24 40/5/23 14/10/73 13/11/74
s 2
f 14/111/72 28/112/71 42/104/34 41/107/33
s 12
f 60/163/75 58/164/76 56/159/67 52/162/70
s 2
f 30/101/66 15/102/65 44/98/6 43/97/5
s 5
f 45/38/77 44/39/78 15/37/64 16/36/63
s 11
f 69/151/61 71/155/79 72/156/80 70/152/62
s 6
f 22/127/57 47/131/81 46/132/82 32/128/58
s 10
f 66/143/83 65/144/84 61/140/54 62/139/53
s 3
f 14/10/73 41/12/85 48/13/86 13/11/74
s 13
f 38/53/87 30/54/88 51/55/89 49/56/90
f 49/56/90 51/55/89 52/59/91 50/60/92
s 14
f 28/62/93 39/63/94 53/64/95 55/65/96
f 55/65/96 53/64/95 54/66/97 56/67/98
s 15
f 39/201/99 38/202/100 49/203/101 53/204/102
f 53/204/102 49/203/101 50/205/103 54/206/104
s 16
f 43/207/105 42/208/106 57/209/107 59/210/108
f 59/210/108 57/209/107 58/211/109 60/212/110
s 14
f 42/68/111 28/62/93 55/65/96 57/69/112
f 57/69/112 55/65/96 56/67/98 58/70/113
s 13
f 30/54/88 43/57/114 59/58/115 51/55/89
f 51/55/89 59/58/115 60/61/116 52/59/91
s 17
f 22/71/117 34/72/118 82/73/119 83/74/120
s off
f 34/213/121 33/214/122 81/215/123 82/216/124
s 3
f 33/6/24 13/11/74 80/14/125 81/15/126
s off
f 48/217/127 47/218/128 84/219/129 79/220/130
s 17
f 47/77/131 22/71/117 83/74/120 84/78/132
s 3
f 13/11/74 48/13/86 79/19/133 80/14/125
s off
f 36/221/134 35/222/135 75/223/136 76/224/137
s 18
f 35/84/138 32/85/139 74/86/140 75/87/141
s 5
f 16/36/63 36/31/27 76/40/142 77/41/143
s 18
f 32/85/139 46/88/144 73/89/145 74/86/140
s off
f 46/225/146 45/226/147 78/227/148 73/228/149
s 5
f 45/38/77 16/36/63 77/41/143 78/45/150
s 18
f 74/86/140 73/89/145 71/92/151 69/90/152
f 75/87/141 74/86/140 69/90/152 67/91/153
s off
f 86/229/154 85/230/155 87/231/156 88/232/157
s 5
f 77/41/143 76/40/142 68/46/158 70/47/159
f 78/45/150 77/41/143 70/47/159 72/48/160
s off
f 90/233/161 89/234/162 91/235/163 92/236/164
s 3
f 80/14/125 79/19/133 66/22/165 62/20/166
f 81/15/126 80/14/125 62/20/166 64/21/167
s off
f 94/237/168 93/238/169 95/239/170 96/240/171
s 17
f 83/74/120 82/73/119 63/75/172 61/76/173
f 84/78/132 83/74/120 61/76/173 65/81/174
s off
f 98/241/175 97/242/176 99/243/177 100/244/178
f 76/165/179 75/166/180 85/167/181 86/168/182
s 18
f 75/87/141 67/91/153 87/93/183 85/94/184
s 11
f 67/150/60 68/149/59 88/153/185 87/154/186
s 5
f 68/46/158 76/40/142 86/49/187 88/50/188
s off
f 73/169/189 78/170/190 89/171/191 90/172/192
s 5
f 78/45/150 72/48/160 91/51/193 89/52/194
s 11
f 72/156/80 71/155/79 92/157/195 91/158/196
s 18
f 71/92/151 73/89/145 90/95/197 92/96/198
s off
f 82/173/199 81/174/200 93/175/201 94/176/202
s 3
f 81/15/126 64/21/167 95/23/203 93/24/204
s 10
f 64/142/56 63/141/55 96/145/205 95/146/206
s 17
f 63/75/172 82/73/119 94/79/207 96/80/208
s off
f 79/177/209 84/178/210 97/179/211 98/180/212
s 17
f 84/78/132 65/81/174 99/82/213 97/83/214
s 10
f 65/144/84 66/143/83 100/147/215 99/148/216
s 3
f 66/22/165 79/19/133 98/25/217 100/26/218
s 6
f 109/245/219 108/246/220 116/247/221 115/248/222
s 20
f 110/257/223 107/258/224 112/259/225 111/260/226
s 6
f 17/251/227 2/252/228 116/247/221 108/246/220
f 46/132/82 109/134/219 115/137/222 45/138/229
s 20
f 107/181/224 105/182/230 11/183/231 21/184/232
f 31/266/233 10/267/234 106/261/235 110/257/223
s 6
f 101/135/236 104/133/237 47/131/81 48/136/238
f 1/256/239 29/255/240 103/250/241 102/254/242
s 20
f 114/187/243 112/186/225 24/185/244 12/188/245
f 7/268/246 23/265/247 111/260/226 113/264/248
f 111/260/226 23/265/247 31/266/233 110/257/223
f 24/185/244 112/186/225 107/181/224 21/184/232
s 6
f 103/250/241 29/255/240 17/251/227 108/246/220
f 47/131/81 104/133/237 109/134/219 46/132/82
s 3
f 101/16/249 48/13/86 41/12/85 1/17/250 102/18/251
s 5
f 10/27/17 4/30/20 11/33/252 105/34/253 106/35/254
s 3
f 113/7/255 114/8/256 12/9/257 3/4/12 7/3/11
s 5
f 115/42/258 116/43/259 2/44/260 44/39/78 45/38/77
s 6
f 101/253/236 102/254/242 103/250/241 104/249/237
s 20
f 106/261/235 105/262/230 107/258/224 110/257/223
s 6
f 104/249/237 103/250/241 108/246/220 109/245/219
s 20
f 111/260/226 112/259/225 114/263/243 113/264/248
