# This file uses centimeters as units for non-parametric coordinates.

mtllib Door V2.mtl
g default
v -0.107371 0.009330 0.216949
v 1.565314 0.009330 -0.294610
v -0.107371 3.000015 0.216949
v 1.565314 3.000015 -0.294610
v -0.128906 3.000015 0.146536
v 1.543780 3.000015 -0.365023
v -0.128906 0.009330 0.146536
v 1.543780 0.009330 -0.365023
v -0.107371 2.887675 0.216949
v -0.128906 2.887675 0.146536
v 1.543780 2.887675 -0.365023
v 1.565314 2.887675 -0.294610
v -0.107371 0.119723 0.216949
v -0.128906 0.119723 0.146536
v 1.543780 0.119723 -0.365023
v 1.565314 0.119723 -0.294610
v 1.397518 3.000015 -0.243292
v 1.375984 3.000015 -0.313706
v 1.375984 2.887675 -0.313706
v 1.375984 0.119723 -0.313706
v 1.375984 0.009330 -0.313706
v 1.397518 0.009330 -0.243292
v 1.397518 0.119723 -0.243292
v 1.397518 2.887675 -0.243292
v 0.099016 3.000015 0.153829
v 0.077481 3.000015 0.083416
v 0.077481 2.887675 0.083416
v 0.077481 0.119723 0.083416
v 0.077481 0.009330 0.083416
v 0.099016 0.009330 0.153829
v 0.099016 0.119723 0.153829
v 0.099016 2.887675 0.153829
v 0.099016 1.306436 0.153829
v -0.107371 1.306436 0.216949
v -0.128906 1.306436 0.146536
v 0.077481 1.306436 0.083416
v 1.375984 1.306436 -0.313706
v 1.543780 1.306436 -0.365023
v 1.565314 1.306436 -0.294610
v 1.397518 1.306436 -0.243292
v 0.099016 1.166772 0.153829
v -0.107371 1.166772 0.216949
v -0.128906 1.166772 0.146536
v 0.077481 1.166772 0.083416
v 1.375984 1.166772 -0.313706
v 1.543780 1.166772 -0.365023
v 1.565314 1.166772 -0.294610
v 1.397518 1.166772 -0.243292
v -0.100558 0.009330 0.239226
v 0.105829 0.009330 0.176106
v 0.105829 0.119723 0.176106
v -0.100558 0.119723 0.239226
v 0.105829 2.887675 0.176106
v -0.100558 2.887675 0.239226
v 0.105829 3.000015 0.176106
v -0.100558 3.000015 0.239226
v 0.105829 1.166772 0.176106
v -0.100558 1.166772 0.239226
v 1.404331 0.009330 -0.221016
v 1.404331 0.119723 -0.221016
v 1.572127 0.009330 -0.272333
v 1.572127 0.119723 -0.272333
v 1.404331 1.166772 -0.221016
v 1.572127 1.166772 -0.272333
v 1.404331 2.887675 -0.221016
v 1.404331 3.000015 -0.221016
v 1.572127 2.887675 -0.272333
v 1.572127 3.000015 -0.272333
v 0.105829 1.306436 0.176106
v -0.100558 1.306436 0.239226
v 1.404331 1.306436 -0.221016
v 1.572127 1.306436 -0.272333
v -0.135719 0.119723 0.124259
v 0.070668 0.119723 0.061139
v 0.070668 0.009330 0.061139
v -0.135719 0.009330 0.124259
v -0.135719 3.000015 0.124259
v 0.070668 3.000015 0.061139
v 0.070668 2.887675 0.061139
v -0.135719 2.887675 0.124259
v -0.135719 1.166772 0.124259
v 0.070668 1.166772 0.061139
v 1.369171 3.000015 -0.335982
v 1.369171 2.887675 -0.335982
v 1.536967 3.000015 -0.387300
v 1.536967 2.887675 -0.387300
v 1.369171 1.166772 -0.335982
v 1.369171 0.119723 -0.335982
v 1.536967 1.166772 -0.387300
v 1.536967 0.119723 -0.387300
v 1.369171 0.009330 -0.335982
v 1.536967 0.009330 -0.387300
v 0.070668 1.306436 0.061139
v -0.135719 1.306436 0.124259
v 1.369171 1.306436 -0.335982
v 1.536967 1.306436 -0.387300
vt 0.375000 0.000000
vt 0.625000 0.000000
vt 0.375000 0.250000
vt 0.625000 0.250000
vt 0.375000 0.500000
vt 0.625000 0.500000
vt 0.375000 0.750000
vt 0.625000 0.750000
vt 0.375000 1.000000
vt 0.625000 1.000000
vt 0.875000 0.000000
vt 0.875000 0.250000
vt 0.125000 0.000000
vt 0.125000 0.250000
vt 0.375000 0.240609
vt 0.125000 0.240609
vt 0.375000 0.509391
vt 0.625000 0.509391
vt 0.875000 0.240609
vt 0.625000 0.240609
vt 0.375000 0.009228
vt 0.125000 0.009228
vt 0.375000 0.740772
vt 0.625000 0.740772
vt 0.875000 0.009228
vt 0.625000 0.009228
vt 0.599921 0.250000
vt 0.599921 0.500000
vt 0.599921 0.509391
vt 0.599921 0.740772
vt 0.599921 0.750000
vt 0.599921 0.000000
vt 0.599921 1.000000
vt 0.599921 0.009228
vt 0.599921 0.240609
vt 0.405847 0.250000
vt 0.405847 0.500000
vt 0.405847 0.509391
vt 0.405847 0.740772
vt 0.405847 0.750000
vt 0.405847 0.000000
vt 0.405847 1.000000
vt 0.405847 0.009228
vt 0.405847 0.240609
vt 0.405847 0.108429
vt 0.375000 0.108429
vt 0.125000 0.108429
vt 0.375000 0.641571
vt 0.405847 0.641571
vt 0.599921 0.641571
vt 0.625000 0.641571
vt 0.875000 0.108429
vt 0.625000 0.108429
vt 0.599921 0.108429
vt 0.405847 0.096754
vt 0.375000 0.096754
vt 0.125000 0.096754
vt 0.375000 0.653246
vt 0.405847 0.653246
vt 0.599921 0.653246
vt 0.625000 0.653246
vt 0.875000 0.096754
vt 0.625000 0.096754
vt 0.599921 0.096754
vt 0.375000 0.000000
vt 0.405847 0.000000
vt 0.375000 0.009228
vt 0.405847 0.750000
vt 0.375000 0.750000
vt 0.375000 0.740772
vt 0.375000 0.500000
vt 0.405847 0.500000
vt 0.375000 0.509391
vt 0.405847 0.250000
vt 0.375000 0.250000
vt 0.375000 0.240609
vt 0.405847 0.653246
vt 0.405847 0.740772
vt 0.375000 0.653246
vt 0.405847 0.009228
vt 0.405847 0.096754
vt 0.375000 0.096754
vt 0.599921 0.500000
vt 0.625000 0.500000
vt 0.625000 0.509391
vt 0.599921 0.740772
vt 0.599921 0.653246
vt 0.625000 0.653246
vt 0.625000 0.740772
vt 0.625000 0.750000
vt 0.599921 0.750000
vt 0.599921 0.000000
vt 0.625000 0.000000
vt 0.625000 0.009228
vt 0.599921 0.096754
vt 0.599921 0.009228
vt 0.625000 0.096754
vt 0.625000 0.240609
vt 0.625000 0.250000
vt 0.599921 0.250000
vt 0.599921 0.509391
vt 0.405847 0.509391
vt 0.405847 0.240609
vt 0.599921 0.240609
vt 0.405847 0.108429
vt 0.375000 0.108429
vt 0.405847 0.641571
vt 0.375000 0.641571
vt 0.599921 0.641571
vt 0.625000 0.641571
vt 0.599921 0.108429
vt 0.625000 0.108429
vn 0.292459 0.000000 0.956278
vn 0.292459 0.000000 0.956278
vn 0.292459 0.000000 0.956278
vn 0.292459 0.000000 0.956278
vn 0.000000 1.000000 0.000000
vn 0.000000 1.000000 0.000000
vn 0.000000 1.000000 0.000000
vn 0.000000 1.000000 0.000000
vn -0.292459 0.000000 -0.956278
vn -0.292459 0.000000 -0.956278
vn -0.292459 0.000000 -0.956278
vn -0.292459 0.000000 -0.956278
vn 0.000000 -1.000000 0.000000
vn -0.000000 -1.000000 -0.000000
vn 0.000000 -1.000000 0.000000
vn 0.000000 -1.000000 0.000000
vn 0.956278 0.000000 -0.292459
vn 0.956277 0.000000 -0.292461
vn 0.956277 0.000000 -0.292461
vn 0.956278 0.000000 -0.292459
vn -0.956278 0.000000 0.292459
vn -0.956278 0.000000 0.292459
vn -0.956278 0.000000 0.292459
vn -0.956278 0.000000 0.292459
vn -0.956278 0.000000 0.292459
vn -0.956278 0.000000 0.292459
vn -0.956278 0.000000 0.292459
vn -0.956278 0.000000 0.292459
vn -0.292459 0.000000 -0.956278
vn -0.292459 0.000000 -0.956278
vn -0.292459 0.000000 -0.956278
vn -0.292459 0.000000 -0.956278
vn 0.956278 0.000000 -0.292459
vn 0.956277 0.000000 -0.292461
vn 0.956277 0.000000 -0.292461
vn 0.956278 0.000000 -0.292459
vn 0.292459 0.000000 0.956278
vn 0.292459 0.000000 0.956278
vn 0.292459 0.000000 0.956278
vn 0.292459 0.000000 0.956278
vn -0.956278 0.000000 0.292459
vn -0.956278 0.000000 0.292459
vn -0.292459 0.000000 -0.956278
vn -0.292459 0.000000 -0.956278
vn 0.956277 0.000000 -0.292461
vn 0.956278 0.000000 -0.292459
vn 0.292459 0.000000 0.956278
vn 0.292459 0.000000 0.956278
vn 0.000000 1.000000 0.000000
vn 0.000000 1.000000 0.000000
vn -0.000000 1.000000 -0.000000
vn -0.000000 1.000000 -0.000000
vn -0.292459 0.000000 -0.956278
vn -0.292459 0.000000 -0.956278
vn -0.292459 0.000000 -0.956278
vn -0.292459 -0.000000 -0.956278
vn -0.292459 0.000000 -0.956278
vn -0.292459 0.000000 -0.956278
vn -0.292459 0.000000 -0.956278
vn -0.292459 0.000000 -0.956278
vn -0.292459 0.000000 -0.956278
vn -0.292459 0.000000 -0.956278
vn 0.000000 -1.000000 0.000000
vn -0.000000 -1.000000 -0.000000
vn -0.000000 -1.000000 -0.000000
vn 0.000000 -1.000000 0.000000
vn 0.292459 0.000000 0.956278
vn 0.292459 0.000000 0.956278
vn 0.292459 0.000000 0.956278
vn 0.292459 0.000000 0.956278
vn 0.292459 0.000000 0.956278
vn 0.292459 0.000000 0.956278
vn 0.292459 0.000000 0.956278
vn 0.292459 0.000000 0.956278
vn 0.292459 0.000000 0.956278
vn 0.292459 0.000000 0.956278
vn -0.292459 0.000000 -0.956278
vn -0.292459 0.000000 -0.956278
vn -0.292459 0.000000 -0.956278
vn -0.292459 0.000000 -0.956278
vn 0.292459 0.000000 0.956278
vn 0.292459 0.000000 0.956278
vn 0.292459 0.000000 0.956278
vn 0.292459 0.000000 0.956278
vn 0.292459 -0.000000 0.956278
vn 0.292459 -0.000000 0.956278
vn -0.956278 0.000000 0.292459
vn -0.956278 0.000000 0.292459
vn -0.292459 0.000000 -0.956278
vn -0.292459 0.000000 -0.956278
vn -0.292459 0.000000 -0.956278
vn -0.292459 0.000000 -0.956278
vn -0.292459 0.000000 -0.956278
vn -0.292459 0.000000 -0.956278
vn -0.292459 -0.000000 -0.956278
vn -0.292459 -0.000000 -0.956278
vn 0.956278 0.000000 -0.292459
vn 0.956277 0.000000 -0.292461
vn 0.292459 0.000000 0.956278
vn 0.292459 0.000000 0.956278
vn 0.292459 0.000000 0.956278
vn 0.292459 0.000000 0.956278
vn 0.292459 0.000000 0.956278
vn 0.292459 0.000000 0.956278
vn 0.000000 -1.000000 0.000000
vn 0.000000 -1.000000 0.000000
vn -0.956278 0.000000 0.292459
vn -0.956278 0.000000 0.292459
vn 0.000000 1.000000 0.000000
vn 0.000000 1.000000 0.000000
vn -0.956278 0.000000 0.292459
vn -0.956278 0.000000 0.292459
vn 0.956278 0.000000 -0.292459
vn 0.956278 0.000000 -0.292459
vn 0.956278 0.000000 -0.292459
vn 0.956278 0.000000 -0.292459
vn -0.956278 0.000000 0.292459
vn 0.000000 -1.000000 0.000000
vn 0.000000 -1.000000 0.000000
vn 0.956278 0.000000 -0.292459
vn 0.956278 0.000000 -0.292459
vn -0.956278 0.000000 0.292459
vn -0.956278 0.000000 0.292459
vn -0.956278 0.000000 0.292459
vn -0.956278 0.000000 0.292459
vn 0.956278 0.000000 -0.292459
vn 0.956278 0.000000 -0.292459
vn 0.956278 0.000000 -0.292459
vn 0.000000 1.000000 0.000000
vn 0.000000 1.000000 0.000000
vn 0.000000 1.000000 0.000000
vn 0.000000 1.000000 0.000000
vn 0.000000 1.000000 0.000000
vn 0.000000 1.000000 0.000000
vn 0.000000 -1.000000 0.000000
vn 0.000000 -1.000000 0.000000
vn 0.000000 -1.000000 0.000000
vn 0.000000 -1.000000 0.000000
vn 0.956278 0.000000 -0.292459
vn 0.956278 0.000000 -0.292459
vn 0.956278 0.000000 -0.292459
vn 0.956278 0.000000 -0.292459
vn -0.956278 0.000000 0.292459
vn -0.956278 0.000000 0.292459
vn -0.956278 0.000000 0.292459
vn -0.956278 0.000000 0.292459
vn -0.956278 0.000000 0.292459
vn 0.956278 0.000000 -0.292459
vn 0.000000 1.000000 0.000000
vn 0.000000 1.000000 0.000000
vn 0.000000 1.000000 0.000000
vn 0.000000 1.000000 0.000000
vn 0.000000 -1.000000 0.000000
vn 0.000000 -1.000000 0.000000
vn 0.000000 -1.000000 0.000000
vn 0.000000 -1.000000 0.000000
vn 0.000000 -1.000000 0.000000
vn -0.000000 -1.000000 -0.000000
vn -0.956278 0.000000 0.292459
vn -0.956278 0.000000 0.292459
vn 0.000000 1.000000 0.000000
vn 0.000000 1.000000 0.000000
vn -0.956278 0.000000 0.292459
vn -0.956278 0.000000 0.292459
vn 0.956278 0.000000 -0.292459
vn 0.956278 0.000000 -0.292459
vn 0.956278 0.000000 -0.292459
vn 0.956278 0.000000 -0.292459
vn -0.956278 0.000000 0.292459
vn -0.000000 1.000000 -0.000000
vn -0.000000 1.000000 -0.000000
vn 0.956275 0.000000 -0.292468
vn 0.956275 0.000000 -0.292468
vn -0.956277 0.000000 0.292463
vn -0.956277 0.000000 0.292463
vn -0.956277 0.000000 0.292463
vn -0.956277 0.000000 0.292463
vn 0.956275 0.000000 -0.292468
vn 0.956275 0.000000 -0.292468
vn 0.956275 0.000000 -0.292468
vn -0.000000 -1.000000 -0.000000
vn -0.000000 -1.000000 -0.000000
vn 0.000000 -1.000000 0.000000
vn 0.000000 -1.000000 0.000000
vn 0.000000 -1.000000 0.000000
vn 0.000000 -1.000000 0.000000
vn 0.000000 1.000000 0.000000
vn 0.000000 1.000000 0.000000
vn 0.000000 1.000000 0.000000
vn 0.000000 1.000000 0.000000
vn 0.956278 0.000000 -0.292459
vn 0.956278 0.000000 -0.292459
vn 0.956278 0.000000 -0.292459
vn 0.956278 0.000000 -0.292459
vn -0.956278 0.000000 0.292459
vn -0.956277 0.000000 0.292463
vn -0.956277 0.000000 0.292463
vn -0.956277 0.000000 0.292463
vn -0.956277 0.000000 0.292463
vn 0.956275 0.000000 -0.292468
vn -0.000000 -1.000000 -0.000000
vn -0.000000 -1.000000 -0.000000
vn -0.000000 -1.000000 -0.000000
vn -0.000000 -1.000000 -0.000000
vn 0.000000 1.000000 0.000000
vn 0.000000 1.000000 0.000000
vn 0.000000 1.000000 0.000000
vn 0.000000 1.000000 0.000000
s 1
g pCube1
usemtl initialShadingGroup
f 49/65/1 50/66/2 51/80/3 52/67/4
s 2
f 3/3/5 25/36/6 26/37/7 5/5/8
s 3
f 73/70/9 74/78/10 75/68/11 76/69/12
s 4
f 7/7/13 29/40/14 30/42/15 1/9/16
s 5
f 2/2/17 8/11/18 15/25/19 16/26/20
s 6
f 7/13/21 1/1/22 13/21/23 14/22/24
f 10/16/25 9/15/26 3/3/27 5/14/28
s 3
f 77/71/29 78/72/30 79/102/31 80/73/32
s 5
f 12/20/33 11/19/34 6/12/35 4/4/36
s 1
f 54/76/37 53/103/38 55/74/39 56/75/40
s 6
f 14/22/24 13/21/23 42/56/41 43/57/42
s 3
f 81/79/43 82/77/44 74/78/10 73/70/9
s 5
f 16/26/20 15/25/19 46/62/45 47/63/46
s 1
f 52/67/4 51/80/3 57/81/47 58/82/48
s 2
f 17/27/49 4/4/50 6/6/51 18/28/52
s 3
f 84/101/53 83/83/54 85/84/55 86/85/56
f 88/86/57 87/87/58 89/88/59 90/89/60
f 91/91/61 88/86/57 90/89/60 92/90/62
s 4
f 22/33/63 21/31/64 8/8/65 2/10/66
s 1
f 60/96/67 59/92/68 61/93/69 62/94/70
f 63/95/71 60/96/67 62/94/70 64/97/72
f 66/100/73 65/104/74 67/98/75 68/99/76
s 2
f 25/36/6 17/27/49 18/28/52 26/37/7
s 3
f 79/102/31 78/72/30 83/83/54 84/101/53
s off
f 28/39/77 44/59/78 45/60/79 20/30/80
s 3
f 75/68/11 74/78/10 88/86/57 91/91/61
s 4
f 30/42/15 29/40/14 21/31/64 22/33/63
s 1
f 51/80/3 50/66/2 59/92/68 60/96/67
s off
f 48/64/81 41/55/82 31/43/83 23/34/84
s 1
f 55/74/39 53/103/38 65/104/74 66/100/73
f 70/106/85 69/105/86 53/103/38 54/76/37
s 6
f 35/47/87 34/46/88 9/15/26 10/16/25
s 3
f 80/73/32 79/102/31 93/107/89 94/108/90
s off
f 37/50/91 36/49/92 27/38/93 19/29/94
s 3
f 96/110/95 95/109/96 84/101/53 86/85/56
s 5
f 39/53/97 38/52/98 11/19/34 12/20/33
s 1
f 65/104/74 71/111/99 72/112/100 67/98/75
s off
f 32/44/101 33/45/102 40/54/103 24/35/104
s 1
f 58/82/48 57/81/47 69/105/86 70/106/85
s 6
f 43/57/42 42/56/41 34/46/88 35/47/87
s 3
f 94/108/90 93/107/89 82/77/44 81/79/43
f 87/87/58 82/77/44 93/107/89 95/109/96
f 89/88/59 87/87/58 95/109/96 96/110/95
s 5
f 47/63/46 46/62/45 38/52/98 39/53/97
s 1
f 71/111/99 63/95/71 64/97/72 72/112/100
f 71/111/99 69/105/86 57/81/47 63/95/71
s 4
f 1/1/16 30/41/15 50/66/105 49/65/106
s 6
f 13/21/23 1/1/22 49/65/107 52/67/108
s 2
f 25/40/6 3/7/5 56/69/109 55/68/110
s 6
f 3/7/27 9/23/26 54/70/111 56/69/112
s off
f 31/5/113 41/37/114 57/72/115 51/71/116
s 6
f 42/17/41 13/5/23 52/71/108 58/73/117
s 4
f 22/36/63 2/3/66 61/75/118 59/74/119
s 5
f 2/3/17 16/15/20 62/76/120 61/75/121
s off
f 48/59/122 23/39/123 60/78/124 63/77/125
s 5
f 16/23/20 47/58/46 64/79/126 62/70/120
f 12/43/33 4/55/36 68/81/127 67/80/128
s 2
f 4/56/50 17/21/49 66/67/129 68/82/130
s 4
f 30/28/15 22/6/63 59/84/119 50/83/105
s off
f 23/6/131 31/18/132 51/85/133 60/84/134
f 32/30/135 24/60/136 65/87/137 53/86/138
s 2
f 17/61/49 25/24/6 55/89/110 66/88/129
s off
f 33/24/139 32/8/140 53/90/141 69/89/142
s 6
f 9/8/26 34/31/88 70/91/143 54/90/111
s off
f 24/32/144 40/2/145 71/93/146 65/92/147
s 5
f 39/2/97 12/26/33 67/94/128 72/93/148
s 6
f 34/64/88 42/34/41 58/96/117 70/95/143
s 5
f 47/26/46 39/63/97 72/97/148 64/94/126
s off
f 40/20/149 33/4/150 69/99/151 71/98/152
f 41/4/153 48/27/154 63/100/155 57/99/156
s 4
f 29/37/14 7/28/13 76/83/157 75/72/158
s 6
f 7/29/21 14/38/24 73/102/159 76/101/160
s 2
f 5/39/8 26/30/7 78/86/161 77/78/162
s 6
f 10/31/25 5/40/28 77/68/163 80/91/164
s off
f 44/41/165 28/32/166 74/92/167 82/66/168
s 6
f 14/34/24 43/43/42 81/80/169 73/96/159
s 2
f 18/44/52 6/35/51 85/104/170 83/103/171
s 5
f 6/27/35 11/36/34 86/74/172 85/100/173
s off
f 20/45/174 45/44/175 87/103/176 88/105/177
s 5
f 46/15/45 15/46/19 90/106/178 89/76/179
f 15/38/19 8/49/18 92/107/180 90/102/178
s 4
f 8/48/65 21/17/64 91/73/181 92/108/182
s 2
f 26/50/7 18/29/52 83/101/171 78/109/161
s off
f 19/18/183 27/51/184 79/110/185 84/85/186
f 28/35/187 20/54/188 88/111/189 74/104/190
s 4
f 21/53/64 29/20/14 75/98/158 91/112/181
s off
f 27/46/191 36/56/192 93/82/193 79/106/194
s 6
f 35/58/87 10/48/25 80/108/164 94/79/195
s off
f 37/60/196 19/59/197 84/77/198 95/87/199
s 5
f 11/49/34 38/50/98 96/109/200 86/107/172
s 6
f 43/51/42 35/61/87 94/88/195 81/110/169
s off
f 45/63/201 44/53/202 82/112/203 87/97/204
f 36/54/205 37/45/206 95/105/207 93/111/208
s 5
f 38/55/98 46/64/45 89/95/179 96/81/200
