# This file uses centimeters as units for non-parametric coordinates.

mtllib DryerV2.mtl
g default
v -0.847918 0.214425 0.547149
v -0.781408 0.099226 0.547149
v -0.599698 0.023959 0.547149
v -0.599698 0.058387 0.664378
v -0.599698 0.099226 0.712936
v -0.599698 0.214425 0.773619
v -0.599698 0.280936 0.892238
v -0.781408 0.280936 0.712936
v -0.822246 0.280936 0.664378
v -0.856674 0.280936 0.547149
v 0.599698 0.023959 0.547149
v 0.781408 0.099226 0.547149
v 0.847918 0.214425 0.547149
v 0.856674 0.280936 0.547149
v 0.822246 0.280936 0.664378
v 0.781408 0.280936 0.712936
v 0.599698 0.280936 0.892238
v 0.599698 0.214425 0.773619
v 0.599698 0.099226 0.712936
v 0.599698 0.058387 0.664378
v -0.599698 1.737308 0.547149
v -0.781408 1.662041 0.547149
v -0.847918 1.546841 0.547149
v -0.856674 1.480331 0.547149
v -0.822246 1.480331 0.664378
v -0.781408 1.480331 0.712936
v -0.599698 1.480331 0.892238
v -0.599698 1.546841 0.773619
v -0.599698 1.662041 0.712936
v -0.599698 1.702879 0.664378
v 0.847918 1.546841 0.547149
v 0.781408 1.662041 0.547149
v 0.599698 1.737308 0.547149
v 0.599698 1.702879 0.664378
v 0.599698 1.662041 0.712936
v 0.599698 1.546841 0.773619
v 0.599698 1.480331 0.892238
v 0.781408 1.480331 0.712936
v 0.822246 1.480331 0.664378
v 0.856674 1.480331 0.547149
v -0.599698 1.480331 -0.781608
v -0.781408 1.480331 -0.712936
v -0.856674 1.480331 -0.547149
v -0.847918 1.546841 -0.547149
v -0.781408 1.662041 -0.547149
v -0.599698 1.737308 -0.547149
v -0.599698 1.662041 -0.712936
v -0.599698 1.546841 -0.773619
v 0.781408 1.480331 -0.712936
v 0.599698 1.480331 -0.781608
v 0.599698 1.546841 -0.773619
v 0.599698 1.662041 -0.712936
v 0.599698 1.737308 -0.547149
v 0.781408 1.662041 -0.547149
v 0.847918 1.546841 -0.547149
v 0.856674 1.480331 -0.547149
v -0.599698 0.023959 -0.547149
v -0.781408 0.099226 -0.547149
v -0.847918 0.214425 -0.547149
v -0.856674 0.280936 -0.547149
v -0.781408 0.280936 -0.712936
v -0.599698 0.280936 -0.781608
v -0.599698 0.214425 -0.773619
v -0.599698 0.099226 -0.712936
v 0.847918 0.214425 -0.547149
v 0.781408 0.099226 -0.547149
v 0.599698 0.023959 -0.547149
v 0.599698 0.099226 -0.712936
v 0.599698 0.214425 -0.773619
v 0.599698 0.280936 -0.781608
v 0.781408 0.280936 -0.712936
v 0.856674 0.280936 -0.547149
v -0.818304 0.227217 0.659916
v -0.766886 0.113747 0.638513
v -0.777822 0.230866 0.709664
v -0.748011 0.132622 0.682466
v 0.766886 0.113747 0.638513
v 0.818304 0.227217 0.659916
v 0.777822 0.230866 0.709664
v 0.748011 0.132622 0.682466
v -0.766886 1.647519 0.638513
v -0.818304 1.534049 0.659916
v -0.777822 1.530400 0.709664
v -0.748011 1.628645 0.682466
v 0.818304 1.534049 0.659916
v 0.766886 1.647519 0.638513
v 0.777822 1.530400 0.709664
v 0.748011 1.628645 0.682466
v -0.777822 1.530400 -0.709664
v -0.748011 1.628645 -0.682466
v 0.777822 1.530400 -0.709664
v 0.748011 1.628645 -0.682466
v -0.748011 0.132622 -0.682466
v -0.777822 0.230866 -0.709664
v 0.777822 0.230866 -0.709664
v 0.748011 0.132622 -0.682466
vt 0.412496 0.962504
vt 0.662496 0.037496
vt 0.412496 0.212504
vt 0.662496 0.212504
vt 0.162496 0.037496
vt 0.412496 0.462504
vt 0.837504 0.212504
vt 0.837504 0.037496
vt 0.587504 0.787496
vt 0.412496 0.712504
vt 0.587504 0.037496
vt 0.587504 0.287496
vt 0.587504 0.537496
vt 0.337504 0.037496
vt 0.337504 0.212504
vt 0.162496 0.212504
vt 0.341396 0.025000
vt 0.348960 -0.000000
vt 0.375000 0.973960
vt 0.404815 0.987654
vt 0.401040 0.000000
vt 0.401040 1.000000
vt 0.408604 0.025004
vt 0.412496 0.037496
vt 0.375004 0.036241
vt 0.362657 0.036403
vt 0.587504 0.962504
vt 0.651040 -0.000000
vt 0.625000 0.973960
vt 0.658603 0.025003
vt 0.637338 0.036400
vt 0.624990 0.036241
vt 0.591395 0.025001
vt 0.598960 1.000000
vt 0.598960 0.000000
vt 0.595183 0.987654
vt 0.412496 0.287496
vt 0.348960 0.250000
vt 0.375000 0.276040
vt 0.341410 0.224995
vt 0.362899 0.213579
vt 0.375353 0.213730
vt 0.411854 0.224871
vt 0.411271 0.249642
vt 0.411424 0.262097
vt 0.658591 0.224998
vt 0.651040 0.250000
vt 0.625000 0.276040
vt 0.588580 0.262095
vt 0.588731 0.249640
vt 0.588144 0.224868
vt 0.587504 0.212504
vt 0.624649 0.213728
vt 0.637103 0.213575
vt 0.412496 0.537496
vt 0.375000 0.526040
vt 0.125000 0.223960
vt 0.158605 0.225195
vt 0.151040 0.250000
vt 0.375000 0.473960
vt 0.411242 0.500003
vt 0.411833 0.524802
vt 0.875000 0.223960
vt 0.625000 0.526040
vt 0.588170 0.524803
vt 0.588758 0.499997
vt 0.587504 0.462504
vt 0.848960 0.250000
vt 0.625000 0.473960
vt 0.841397 0.225198
vt 0.412496 0.787496
vt 0.151040 -0.000000
vt 0.375000 0.776040
vt 0.158603 0.024802
vt 0.125000 0.026040
vt 0.375000 0.723960
vt 0.411830 0.725197
vt 0.411242 0.750003
vt 0.841395 0.024805
vt 0.848960 -0.000000
vt 0.625000 0.776040
vt 0.588758 0.749997
vt 0.588167 0.725198
vt 0.587504 0.712504
vt 0.625000 0.723960
vt 0.875000 0.026040
vt 0.363136 0.026332
vt 0.365912 0.000000
vt 0.375000 0.990912
vt 0.375010 0.026469
vt 0.375000 0.000000
vt 0.375000 1.000000
vt 0.634088 0.000000
vt 0.625000 0.990912
vt 0.636880 0.026292
vt 0.625002 0.026469
vt 0.625000 0.000000
vt 0.625000 1.000000
vt 0.365912 0.250000
vt 0.375000 0.259088
vt 0.363459 0.223678
vt 0.375703 0.223470
vt 0.375000 0.250000
vt 0.636530 0.223637
vt 0.634088 0.250000
vt 0.625000 0.259088
vt 0.624268 0.223464
vt 0.625000 0.250000
vt 0.375000 0.517736
vt 0.125000 0.232264
vt 0.125000 0.250000
vt 0.375000 0.500000
vt 0.875000 0.232264
vt 0.625000 0.517736
vt 0.875000 0.250000
vt 0.625000 0.500000
vt 0.125000 0.000000
vt 0.375000 0.750000
vt 0.125000 0.017736
vt 0.375000 0.732264
vt 0.875000 0.017736
vt 0.625000 0.732264
vt 0.625000 0.750000
vt 0.875000 0.000000
vn -0.053258 -0.998206 0.027357
vn -0.608752 -0.793088 0.020788
vn -0.608098 -0.792814 -0.040779
vn -0.052098 -0.997008 -0.057101
vn -0.924427 -0.380727 0.021946
vn -0.925089 -0.377264 -0.043393
vn -0.999580 -0.006761 0.028186
vn -0.998226 -0.006690 -0.059156
vn -0.124406 -0.084213 0.988651
vn -0.043097 -0.690764 0.721795
vn 0.043097 -0.690764 0.721795
vn 0.124406 -0.084213 0.988651
vn -0.034019 -0.571852 0.819651
vn 0.034019 -0.571852 0.819651
vn -0.039184 -0.912080 0.408135
vn 0.039184 -0.912080 0.408135
vn 0.053258 -0.998206 0.027357
vn -0.910770 -0.004881 0.412886
vn -0.910770 0.004881 0.412886
vn -0.999580 0.006761 0.028186
vn -0.711694 -0.029004 0.701890
vn -0.711694 0.029004 0.701890
vn -0.124406 0.084213 0.988651
vn 0.999580 -0.006761 0.028186
vn 0.924427 -0.380727 0.021946
vn 0.925089 -0.377264 -0.043393
vn 0.998226 -0.006690 -0.059156
vn 0.608752 -0.793088 0.020789
vn 0.608098 -0.792813 -0.040779
vn 0.052098 -0.997008 -0.057101
vn 0.711694 -0.029004 0.701890
vn 0.711694 0.029004 0.701890
vn 0.124406 0.084213 0.988651
vn 0.910770 -0.004881 0.412886
vn 0.910770 0.004881 0.412886
vn 0.999580 0.006761 0.028186
vn -0.924427 0.380727 0.021946
vn -0.925089 0.377264 -0.043393
vn -0.998226 0.006690 -0.059156
vn -0.608752 0.793088 0.020788
vn -0.608099 0.792813 -0.040779
vn -0.053258 0.998206 0.027357
vn -0.052098 0.997008 -0.057101
vn -0.039184 0.912080 0.408135
vn 0.039184 0.912080 0.408135
vn 0.053258 0.998206 0.027357
vn -0.034019 0.571852 0.819651
vn 0.034019 0.571852 0.819651
vn -0.043097 0.690764 0.721795
vn 0.043097 0.690764 0.721795
vn 0.608752 0.793088 0.020788
vn 0.608098 0.792813 -0.040779
vn 0.052098 0.997008 -0.057101
vn 0.924427 0.380727 0.021946
vn 0.925089 0.377264 -0.043393
vn 0.998226 0.006690 -0.059156
vn -0.673991 0.005056 -0.738722
vn -0.673991 -0.005056 -0.738722
vn -0.049270 0.006107 -0.998767
vn -0.049270 -0.006107 -0.998767
vn -0.036571 0.348489 -0.936599
vn 0.036571 0.348489 -0.936599
vn 0.049270 0.006107 -0.998767
vn -0.035898 0.764956 -0.643082
vn 0.035898 0.764956 -0.643082
vn 0.673991 0.005056 -0.738722
vn 0.673991 -0.005056 -0.738722
vn 0.049270 -0.006107 -0.998767
vn -0.035898 -0.764956 -0.643082
vn 0.035898 -0.764956 -0.643082
vn -0.036571 -0.348489 -0.936599
vn 0.036571 -0.348489 -0.936599
vn -0.869103 -0.325906 0.372083
vn -0.575271 -0.745342 0.336940
vn -0.473007 -0.499408 0.725849
vn -0.404545 -0.515899 0.755110
vn 0.575271 -0.745342 0.336940
vn 0.869103 -0.325906 0.372083
vn 0.473007 -0.499408 0.725849
vn 0.404545 -0.515899 0.755110
vn -0.575271 0.745342 0.336940
vn -0.869103 0.325906 0.372083
vn -0.473007 0.499408 0.725849
vn -0.404545 0.515899 0.755111
vn 0.869103 0.325905 0.372083
vn 0.575271 0.745342 0.336940
vn 0.473007 0.499408 0.725849
vn 0.404545 0.515899 0.755111
vn -0.641285 0.307765 -0.702875
vn -0.506079 0.660462 -0.554684
vn 0.641285 0.307765 -0.702875
vn 0.506079 0.660462 -0.554684
vn -0.506079 -0.660462 -0.554684
vn -0.641285 -0.307765 -0.702875
vn 0.641285 -0.307765 -0.702876
vn 0.506079 -0.660462 -0.554684
s 1
g pCube1
usemtl initialShadingGroup
f 3/1/1 2/19/2 58/73/3 57/71/4
f 2/18/2 1/17/5 59/74/6 58/72/3
f 1/17/5 10/14/7 60/5/8 59/74/6
f 7/24/9 6/23/10 18/33/11 17/11/12
f 6/23/10 5/21/13 19/35/14 18/33/11
f 5/22/13 4/20/15 20/36/16 19/34/14
f 4/20/15 3/1/1 11/27/17 20/36/16
f 10/14/7 9/26/18 25/41/19 24/15/20
f 9/26/18 8/25/21 26/42/22 25/41/19
f 8/25/21 7/24/9 27/3/23 26/42/22
f 14/2/24 13/30/25 65/79/26 72/8/27
f 13/30/25 12/28/28 66/80/29 65/79/26
f 12/29/28 11/27/17 67/9/30 66/81/29
f 17/11/12 16/32/31 38/53/32 37/52/33
f 16/32/31 15/31/34 39/54/35 38/53/32
f 15/31/34 14/2/24 40/4/36 39/54/35
f 24/15/20 23/40/37 44/58/38 43/16/39
f 23/40/37 22/38/40 45/59/41 44/58/38
f 22/39/40 21/37/42 46/6/43 45/60/41
f 21/37/42 30/45/44 34/49/45 33/12/46
f 30/45/44 29/44/47 35/50/48 34/49/45
f 29/44/47 28/43/49 36/51/50 35/50/48
f 28/43/49 27/3/23 37/52/33 36/51/50
f 33/12/46 32/48/51 54/69/52 53/67/53
f 32/47/51 31/46/54 55/70/55 54/68/52
f 31/46/54 40/4/36 56/7/56 55/70/55
f 43/16/39 42/57/57 61/75/58 60/5/8
f 42/56/57 41/55/59 62/10/60 61/76/58
f 41/55/59 48/62/61 51/65/62 50/13/63
f 48/62/61 47/61/64 52/66/65 51/65/62
f 47/61/64 46/6/43 53/67/53 52/66/65
f 50/13/63 49/64/66 71/85/67 70/84/68
f 49/63/66 56/7/56 72/8/27 71/86/67
f 57/71/4 64/78/69 68/82/70 67/9/30
f 64/78/69 63/77/71 69/83/72 68/82/70
f 63/77/71 62/10/60 70/84/68 69/83/72
f 7/24/9 17/11/12 37/52/33 27/3/23
f 21/37/42 33/12/46 53/67/53 46/6/43
f 41/55/59 50/13/63 70/84/68 62/10/60
f 57/71/4 67/9/30 11/27/17 3/1/1
f 14/2/24 72/8/27 56/7/56 40/4/36
f 60/5/8 10/14/7 24/15/20 43/16/39
f 9/26/18 10/14/7 1/17/5 73/87/73
f 73/87/73 1/17/5 2/18/2 74/88/74
f 74/89/74 2/19/2 3/1/1 4/20/15
f 6/23/10 7/24/9 8/25/21 75/90/75
f 75/90/75 8/25/21 9/26/18 73/87/73
f 74/89/74 4/20/15 5/22/13 76/92/76
f 76/91/76 5/21/13 6/23/10 75/90/75
f 75/90/75 73/87/73 74/88/74 76/91/76
f 20/36/16 11/27/17 12/29/28 77/94/77
f 77/93/77 12/28/28 13/30/25 78/95/78
f 13/30/25 14/2/24 15/31/34 78/95/78
f 78/95/78 15/31/34 16/32/31 79/96/79
f 79/96/79 16/32/31 17/11/12 18/33/11
f 79/96/79 18/33/11 19/35/14 80/97/80
f 80/98/80 19/34/14 20/36/16 77/94/77
f 77/93/77 78/95/78 79/96/79 80/97/80
f 30/45/44 21/37/42 22/39/40 81/100/81
f 81/99/81 22/38/40 23/40/37 82/101/82
f 23/40/37 24/15/20 25/41/19 82/101/82
f 82/101/82 25/41/19 26/42/22 83/102/83
f 83/102/83 26/42/22 27/3/23 28/43/49
f 83/102/83 28/43/49 29/44/47 84/103/84
f 84/103/84 29/44/47 30/45/44 81/100/81
f 81/99/81 82/101/82 83/102/83 84/103/84
f 39/54/35 40/4/36 31/46/54 85/104/85
f 85/104/85 31/46/54 32/47/51 86/105/86
f 86/106/86 32/48/51 33/12/46 34/49/45
f 36/51/50 37/52/33 38/53/32 87/107/87
f 87/107/87 38/53/32 39/54/35 85/104/85
f 86/106/86 34/49/45 35/50/48 88/108/88
f 88/108/88 35/50/48 36/51/50 87/107/87
f 87/107/87 85/104/85 86/105/86 88/108/88
f 48/62/61 41/55/59 42/56/57 89/109/89
f 42/57/57 43/16/39 44/58/38 89/110/89
f 89/110/89 44/58/38 45/59/41 90/111/90
f 90/112/90 45/60/41 46/6/43 47/61/64
f 90/112/90 47/61/64 48/62/61 89/109/89
f 55/70/55 56/7/56 49/63/66 91/113/91
f 91/114/91 49/64/66 50/13/63 51/65/62
f 52/66/65 53/67/53 54/69/52 92/116/92
f 92/115/92 54/68/52 55/70/55 91/113/91
f 91/114/91 51/65/62 52/66/65 92/116/92
f 64/78/69 57/71/4 58/73/3 93/118/93
f 93/117/93 58/72/3 59/74/6 94/119/94
f 59/74/6 60/5/8 61/75/58 94/119/94
f 94/120/94 61/76/58 62/10/60 63/77/71
f 94/120/94 63/77/71 64/78/69 93/118/93
f 71/86/67 72/8/27 65/79/26 95/121/95
f 95/121/95 65/79/26 66/80/29 96/124/96
f 96/123/96 66/81/29 67/9/30 68/82/70
f 69/83/72 70/84/68 71/85/67 95/122/95
f 96/123/96 68/82/70 69/83/72 95/122/95
