# This file uses centimeters as units for non-parametric coordinates.

g default
v 0.540750 0.967368 3.585496
v 1.304649 0.967368 3.585496
v 0.540750 1.145382 3.585496
v 1.304649 1.145382 3.585496
v 0.540750 1.145382 2.786479
v 1.304649 1.145382 2.786479
v 0.540750 0.967368 2.786479
v 1.304649 0.967368 2.786479
v 1.304649 0.967368 3.425692
v 0.540750 0.967368 3.425692
v 0.540750 1.145382 3.425692
v 1.304649 1.145382 3.425692
v 1.304649 0.967368 3.265889
v 0.540750 0.967368 3.265889
v 0.540750 1.145382 3.265889
v 1.304649 1.145382 3.265889
v 1.304649 0.967368 3.106086
v 0.540750 0.967368 3.106086
v 0.540750 1.145382 3.106086
v 1.304649 1.145382 3.106086
v 1.304649 0.967368 2.946283
v 0.540750 0.967368 2.946283
v 0.540750 1.145382 2.946283
v 1.304649 1.145382 2.946283
v 1.144846 0.967368 2.786479
v 1.036443 0.967368 3.054685
v 1.084504 0.967368 3.137928
v 1.084504 0.967368 3.234048
v 1.036444 0.967368 3.317291
v 1.144846 0.967368 3.585496
v 1.144846 1.145382 3.585496
v 1.144846 1.145382 2.786479
v 0.985042 0.967368 2.786479
v 0.953201 0.967368 3.006625
v 0.953201 0.967368 3.365351
v 0.985042 0.967368 3.585496
v 0.985042 1.145382 3.585496
v 0.985042 1.145382 2.786479
v 0.825240 0.967368 2.786479
v 0.857081 0.967368 3.006625
v 0.857081 0.967368 3.365351
v 0.825240 0.967368 3.585496
v 0.825240 1.145382 3.585496
v 0.825240 1.145382 2.786479
v 0.665434 0.967368 2.786479
v 0.773836 0.967368 3.054685
v 0.725776 0.967368 3.137928
v 0.725776 0.967368 3.234048
v 0.773837 0.967368 3.317291
v 0.665434 0.967368 3.585496
v 0.665434 1.145382 3.585496
v 0.665434 1.145382 3.425692
v 0.665434 1.145382 3.265889
v 0.665434 1.145382 3.106086
v 0.665434 1.145382 2.946283
v 0.665434 1.145382 2.786479
v 0.953490 0.256818 3.005544
v 1.037479 0.256818 3.053649
v 1.085584 0.256818 3.137638
v 1.085584 0.256818 3.234337
v 0.953491 0.256818 3.366431
v 1.037480 0.256818 3.318326
v 0.856791 0.256818 3.005544
v 0.856791 0.256818 3.366431
v 0.772800 0.256818 3.053649
v 0.724696 0.256818 3.137638
v 0.724696 0.256818 3.234338
v 0.772800 0.256818 3.318326
v 0.955350 0.208489 2.980609
v 1.050897 0.208489 3.040231
v 1.110520 0.208489 3.135778
v 1.110520 0.208489 3.236197
v 0.955350 0.208489 3.391367
v 1.050897 0.208489 3.331744
v 0.854931 0.208489 2.980609
v 0.854931 0.208489 3.391367
v 0.759383 0.208489 3.040231
v 0.699760 0.208489 3.135779
v 0.699760 0.208489 3.236198
v 0.759383 0.208489 3.331744
v 0.964186 0.122322 2.944464
v 1.076942 0.122463 3.014186
v 1.146665 0.122322 3.126942
v 1.146665 0.122322 3.245033
v 0.964187 0.122322 3.427512
v 1.076942 0.122463 3.357789
v 0.846095 0.122322 2.944464
v 0.846095 0.122322 3.427512
v 0.733338 0.122463 3.014186
v 0.663615 0.122322 3.126942
v 0.663615 0.122322 3.245034
v 0.733338 0.122463 3.357789
v 0.967078 0.081618 2.892018
v 1.103321 0.081882 2.987806
v 1.199111 0.081618 3.124050
v 1.199111 0.081618 3.247925
v 0.967078 0.081618 3.479958
v 1.103321 0.081882 3.384168
v 0.843203 0.081618 2.892018
v 0.843204 0.081618 3.479958
v 0.706959 0.081882 2.987806
v 0.611171 0.082288 3.124051
v 0.611171 0.082288 3.247926
v 0.706959 0.081882 3.384168
v 0.972025 0.007205 2.868534
v 0.975146 0.007205 3.115982
v 1.119152 0.007205 2.971975
v 1.222594 0.007205 3.119102
v 0.975147 0.007205 3.255993
v 1.222594 0.007205 3.252873
v 0.972026 0.007205 3.503442
v 1.119153 0.007205 3.400000
v 0.838255 0.007205 2.868534
v 0.835135 0.007205 3.115982
v 0.835135 0.007205 3.255993
v 0.838256 0.007205 3.503442
v 0.691127 0.007205 2.971975
v 0.587685 0.007205 3.119103
v 0.587685 0.007205 3.252874
v 0.691127 0.007205 3.400000
v 0.665434 2.242784 3.225943
v 0.665434 2.236153 3.305282
v 0.540750 2.242784 3.225943
v 0.540750 2.202976 3.265889
v 0.540750 2.236153 3.305282
v 0.665434 2.236153 3.066693
v 0.665434 2.242784 3.146033
v 0.540750 2.236153 3.066693
v 0.540750 2.202976 3.106086
v 0.540750 2.242784 3.146033
v 0.540750 2.220142 2.971587
v 0.564718 2.215882 2.946283
v 0.540750 2.215882 2.922315
v 0.540750 2.190461 2.946283
v 0.540750 2.323493 2.922315
v 0.564718 2.323493 2.946283
v 0.665434 2.220142 2.971587
v 0.665434 2.190461 2.946283
v 0.665434 2.215882 2.922315
v 0.641468 2.215882 2.946283
v 0.665434 2.323493 2.922315
v 0.641468 2.323493 2.946283
v 0.665434 2.215882 2.810447
v 0.665434 2.198935 2.786479
v 0.641468 2.215882 2.786479
v 0.641468 2.323493 2.786479
v 0.665434 2.323493 2.810447
v 0.564718 2.215882 2.786479
v 0.540750 2.198935 2.786479
v 0.540750 2.215882 2.810447
v 0.540750 2.323493 2.810447
v 0.564718 2.323493 2.786479
v 0.540750 2.215882 3.561528
v 0.540750 2.198935 3.585496
v 0.529601 2.215882 3.585496
v 0.540750 2.323493 3.561528
v 0.529601 2.323493 3.585496
v 0.641468 2.215882 3.585496
v 0.665434 2.198935 3.585496
v 0.665434 2.215882 3.561528
v 0.665434 2.323493 3.561528
v 0.641468 2.323493 3.585496
v 0.665434 2.215882 3.449660
v 0.665434 2.190461 3.425692
v 0.665434 2.220142 3.400388
v 0.641468 2.215882 3.425692
v 0.641468 2.323493 3.425692
v 0.665434 2.323493 3.449660
v 0.564718 2.215882 3.425692
v 0.540750 2.220142 3.400388
v 0.540750 2.190461 3.425692
v 0.540750 2.215882 3.449660
v 0.540750 2.323493 3.449660
v 0.564718 2.323493 3.425692
v 0.671393 1.174186 2.938506
v 0.671393 1.174012 2.805456
v 0.671393 2.168666 2.805456
v 0.671393 2.184667 2.820590
v 0.671393 2.184667 2.891226
v 0.671393 2.160840 2.938506
v 0.671393 1.174012 3.566520
v 0.671393 1.174186 3.433469
v 0.671393 2.160840 3.433469
v 0.671393 2.184667 3.480749
v 0.671393 2.184667 3.551385
v 0.671393 2.168666 3.566520
v 0.671393 1.174567 3.268430
v 0.671393 2.228506 3.309187
v 0.671393 2.189036 3.385346
v 0.671393 1.174567 3.103545
v 0.671393 2.234974 3.144875
v 0.671393 2.234974 3.227100
v 0.671393 2.189036 2.986628
v 0.671393 2.228506 3.062787
v 0.697883 2.202976 3.265889
v 0.697883 2.202976 3.106086
v 0.695309 1.190936 2.946322
v 0.697883 1.193509 2.946322
v 0.697883 1.193344 2.820049
v 0.695309 1.190768 2.817475
v 0.697883 2.152981 2.820049
v 0.695309 2.154005 2.817475
v 0.697883 2.166926 2.833239
v 0.695309 2.169500 2.832131
v 0.697883 2.166926 2.899925
v 0.695309 2.169500 2.900536
v 0.697883 2.143498 2.946415
v 0.695309 2.146426 2.946322
v 0.695309 1.190768 3.554501
v 0.697883 1.193344 3.551927
v 0.697883 1.193509 3.425653
v 0.695309 1.190936 3.425653
v 0.695309 2.146426 3.425653
v 0.697883 2.143498 3.425560
v 0.697883 2.166926 3.472051
v 0.695309 2.169500 3.471439
v 0.697883 2.166926 3.538736
v 0.695309 2.169500 3.539844
v 0.697883 2.152981 3.551927
v 0.695309 2.154005 3.554501
v 0.697883 1.193878 3.265827
v 0.695309 1.191305 3.265826
v 0.695309 2.211955 3.305296
v 0.697883 2.209430 3.304574
v 0.697883 2.171477 3.377806
v 0.695309 2.173732 3.379050
v 0.697883 1.193878 3.106149
v 0.695309 1.191305 3.106149
v 0.695309 2.218218 3.146173
v 0.697883 2.215645 3.146274
v 0.697883 2.215645 3.225701
v 0.695309 2.218218 3.225802
v 0.697883 2.171477 2.994169
v 0.695309 2.173732 2.992926
v 0.697883 2.209430 3.067400
v 0.695309 2.211955 3.066679
v 1.144846 1.145382 3.552658
v 1.244581 1.145382 3.552658
v 1.244581 1.145382 3.425692
v 1.244581 1.145382 3.265889
v 1.244581 1.145382 3.106086
v 1.244581 1.145382 2.946283
v 1.144846 1.145382 2.819317
v 1.244581 1.145382 2.819317
v 0.985042 1.145382 3.552658
v 0.985042 1.145382 2.819317
v 0.825239 1.145382 3.552658
v 0.825239 1.145382 2.819317
v 0.725503 1.145382 3.552658
v 0.725503 1.145382 3.425692
v 0.725503 1.145382 3.265889
v 0.725503 1.145382 3.106086
v 0.725503 1.145382 2.946283
v 0.725503 1.145382 2.819317
v 1.144846 1.162029 3.425692
v 1.144846 1.169569 3.265889
v 1.144846 1.169569 3.106086
v 1.144846 1.162029 2.946283
v 0.985042 1.169569 3.425692
v 0.985042 1.169569 3.265889
v 0.985042 1.169569 3.106086
v 0.985042 1.169569 2.946283
v 0.825240 1.162029 3.425692
v 0.825240 1.169569 3.265889
v 0.825240 1.169569 3.106086
v 0.825240 1.162029 2.946283
v 1.144846 1.157476 3.552658
v 1.144846 1.166027 3.549116
v 1.144846 1.169569 3.540566
v 1.232488 1.169569 3.540566
v 1.241039 1.166027 3.549116
v 1.244581 1.157476 3.552658
v 1.232488 1.169569 3.425692
v 1.241039 1.166027 3.425692
v 1.244581 1.157476 3.425692
v 1.232488 1.169569 3.265889
v 1.241039 1.166027 3.265889
v 1.244581 1.157476 3.265889
v 1.232488 1.169569 3.106086
v 1.241039 1.166027 3.106086
v 1.244581 1.157476 3.106086
v 1.232488 1.169569 2.946283
v 1.241039 1.166027 2.946283
v 1.244581 1.157476 2.946283
v 1.232488 1.169569 2.831410
v 1.241039 1.166027 2.822859
v 1.244581 1.157476 2.819317
v 1.144846 1.169569 2.831410
v 1.144846 1.166027 2.822859
v 1.144846 1.157476 2.819317
v 0.985042 1.157476 3.552658
v 0.985042 1.166027 3.549116
v 0.985042 1.169569 3.540566
v 0.985042 1.169569 2.831410
v 0.985042 1.166027 2.822859
v 0.985042 1.157476 2.819317
v 0.825239 1.157476 3.552658
v 0.825239 1.166027 3.549116
v 0.825239 1.169569 3.540566
v 0.825239 1.169569 2.831410
v 0.825239 1.166027 2.822859
v 0.825239 1.157476 2.819317
v 0.737595 1.169569 3.540566
v 0.729044 1.166027 3.549116
v 0.725503 1.157476 3.552658
v 0.725503 1.157476 3.425692
v 0.729044 1.166027 3.425692
v 0.737595 1.169569 3.425692
v 0.725503 1.157476 3.265889
v 0.729044 1.166027 3.265889
v 0.737595 1.169569 3.265889
v 0.725503 1.157476 3.106086
v 0.729044 1.166027 3.106086
v 0.737595 1.169569 3.106086
v 0.725503 1.157476 2.946283
v 0.729044 1.166027 2.946283
v 0.737595 1.169569 2.946283
v 0.725503 1.157476 2.819317
v 0.729044 1.166027 2.822859
v 0.737595 1.169569 2.831410
vt 0.865155 0.194498
vt 0.868799 0.186565
vt 0.915750 0.127087
vt 0.894562 0.176204
vt 0.731958 0.178212
vt 0.713469 0.124991
vt 0.748609 0.174227
vt 0.280386 0.870000
vt 0.323868 0.692326
vt 0.350866 0.818466
vt 0.791685 0.086731
vt 0.784292 0.130725
vt 0.016935 0.561562
vt 0.777696 0.092553
vt 0.758984 0.221331
vt 0.537388 0.640319
vt 0.422852 0.574645
vt 0.864414 0.214081
vt 0.845639 0.140369
vt 0.268773 0.337885
vt 0.845514 0.100182
vt 0.857001 0.103267
vt 0.480299 0.694073
vt 0.412491 0.629417
vt 0.832985 0.245585
vt 0.200562 0.398038
vt 0.829842 0.097945
vt 0.418938 0.756368
vt 0.375181 0.670537
vt 0.794437 0.239430
vt 0.840843 0.905452
vt 0.839876 0.929964
vt 0.813993 0.931153
vt 0.816783 0.905750
vt 0.137712 0.457938
vt 0.811285 0.090065
vt 0.792834 0.902006
vt 0.786925 0.927428
vt 0.748166 0.917765
vt 0.736500 0.910360
vt 0.749824 0.893586
vt 0.761334 0.895449
vt 0.068237 0.631603
vt 0.207218 0.592740
vt 0.215434 0.536606
vt 0.254240 0.496644
vt 0.305782 0.477282
vt 0.854493 0.141833
vt 0.870974 0.097313
vt 0.763906 0.094549
vt 0.129195 0.699364
vt 0.227191 0.644979
vt 0.536548 0.878143
vt 0.579553 0.876983
vt 0.566162 0.907915
vt 0.535603 0.922863
vt 0.509381 0.877976
vt 0.510765 0.920867
vt 0.464871 0.877063
vt 0.479756 0.907573
vt 0.860813 0.150355
vt 0.360249 0.487941
vt 0.884972 0.098638
vt 0.189183 0.209103
vt 0.149292 0.253645
vt 0.105688 0.213835
vt 0.143889 0.168260
vt 0.228802 0.165024
vt 0.183241 0.124555
vt 0.268693 0.120483
vt 0.224278 0.081563
vt 0.751495 0.094460
vt 0.188924 0.762150
vt 0.267534 0.684327
vt 0.536832 0.851120
vt 0.581342 0.852016
vt 0.509659 0.850954
vt 0.466657 0.852095
vt 0.865674 0.164598
vt 0.401211 0.524428
vt 0.899216 0.105471
vt 0.234735 0.249576
vt 0.193693 0.292567
vt 0.274093 0.205874
vt 0.312299 0.160302
vt 0.736212 0.091707
vt 0.535454 0.808231
vt 0.566482 0.821515
vt 0.510606 0.806232
vt 0.480025 0.821170
vt 0.263184 0.623938
vt 0.279979 0.637754
vt 0.261654 0.600448
vt 0.271170 0.578197
vt 0.284890 0.562017
vt 0.305080 0.560030
vt 0.304674 0.648843
vt 0.328883 0.569278
vt 0.325308 0.647087
vt 0.339198 0.630254
vt 0.347261 0.603161
vt 0.345418 0.582825
vt 0.266397 0.626256
vt 0.284636 0.638869
vt 0.261968 0.601494
vt 0.270237 0.581800
vt 0.283432 0.564892
vt 0.304580 0.561436
vt 0.305396 0.647586
vt 0.325017 0.569127
vt 0.327388 0.644167
vt 0.340457 0.624745
vt 0.346027 0.603499
vt 0.343061 0.581164
vt 0.605818 0.947179
vt 0.642097 0.894190
vt 0.552318 0.980886
vt 0.493374 0.983476
vt 0.440435 0.947193
vt 0.406752 0.893725
vt 0.639433 0.835260
vt 0.404139 0.834800
vt 0.605725 0.781827
vt 0.552853 0.745559
vt 0.493848 0.748149
vt 0.440431 0.781852
vt 0.590340 0.931421
vt 0.617003 0.884667
vt 0.543037 0.958187
vt 0.502936 0.958383
vt 0.456213 0.931723
vt 0.429463 0.884449
vt 0.616735 0.844580
vt 0.429224 0.844364
vt 0.589941 0.797332
vt 0.543317 0.770349
vt 0.503123 0.770571
vt 0.455924 0.797642
vt 0.711963 0.870766
vt 0.711697 0.876014
vt 0.693752 0.882301
vt 0.678940 0.876176
vt 0.751942 0.874725
vt 0.744660 0.886401
vt 0.720083 0.876145
vt 0.973231 0.871541
vt 0.960534 0.877116
vt 0.937310 0.868672
vt 0.940007 0.864411
vt 0.930884 0.869260
vt 0.907650 0.881851
vt 0.899821 0.868019
vt 0.890941 0.889861
vt 0.863133 0.903471
vt 0.851218 0.883931
vt 0.799319 0.881695
vt 0.731753 0.894885
vt 0.727875 0.904524
vt 0.722276 0.903361
vt 0.721050 0.909361
vt 0.688734 0.889278
vt 0.705042 0.898761
vt 0.706882 0.894646
vt 0.711841 0.887540
vt 0.716698 0.889987
vt 0.732970 0.891371
vt 0.931691 0.881688
vt 0.944157 0.886385
vt 0.943039 0.890576
vt 0.964506 0.884475
vt 0.933708 0.904290
vt 0.934523 0.903444
vt 0.928983 0.901864
vt 0.918978 0.905605
vt 0.902188 0.889542
vt 0.919206 0.897072
vt 0.923490 0.894563
vt 0.928726 0.881876
vt 0.868476 0.926951
vt 0.906068 0.912705
vt 0.719952 0.920115
vt 0.934829 0.914880
vt 0.736034 0.067264
vt 0.618755 0.012603
vt 0.598036 0.010895
vt 0.618820 0.435184
vt 0.616642 0.442206
vt 0.606388 0.443564
vt 0.597754 0.434566
vt 0.892533 0.060902
vt 0.524657 0.010908
vt 0.503938 0.012618
vt 0.516305 0.443551
vt 0.524939 0.434552
vt 0.506051 0.442193
vt 0.503874 0.435171
vt 0.842127 0.044881
vt 0.549188 0.010562
vt 0.531427 0.445942
vt 0.543045 0.462568
vt 0.791272 0.045680
vt 0.573500 0.010533
vt 0.555247 0.465417
vt 0.567452 0.465393
vt 0.591266 0.445953
vt 0.579652 0.462570
vt 0.596190 0.018872
vt 0.596087 0.020050
vt 0.572930 0.019704
vt 0.572955 0.018534
vt 0.614899 0.019923
vt 0.614373 0.021023
vt 0.614934 0.428933
vt 0.614404 0.428503
vt 0.613787 0.435362
vt 0.613404 0.434288
vt 0.604533 0.436149
vt 0.604443 0.435007
vt 0.596223 0.427102
vt 0.596099 0.425768
vt 0.589373 0.438725
vt 0.589150 0.437692
vt 0.507793 0.019936
vt 0.508320 0.021036
vt 0.508289 0.428490
vt 0.507760 0.428920
vt 0.526502 0.018884
vt 0.526606 0.020062
vt 0.549738 0.018540
vt 0.549764 0.019711
vt 0.526471 0.427088
vt 0.526595 0.425754
vt 0.533543 0.437679
vt 0.533320 0.438713
vt 0.518161 0.436136
vt 0.518251 0.434994
vt 0.508906 0.435349
vt 0.509289 0.434275
vt 0.544154 0.454731
vt 0.544300 0.453602
vt 0.555590 0.456290
vt 0.555564 0.457457
vt 0.567131 0.457471
vt 0.567105 0.456302
vt 0.578394 0.453609
vt 0.578541 0.454738
vt 0.549777 0.450839
vt 0.572916 0.450850
vt 0.033489 0.225789
vt 0.055477 0.263875
vt 0.056171 0.176989
vt 0.096707 0.128360
vt 0.138410 0.081931
vt 0.182331 0.036893
vt 0.227295 0.008470
vt 0.268420 0.025569
vt 0.100699 0.308054
vt 0.317278 0.066069
vt 0.149538 0.348553
vt 0.362515 0.110263
vt 0.190653 0.365661
vt 0.235621 0.337249
vt 0.279547 0.292218
vt 0.321257 0.245796
vt 0.361806 0.197172
vt 0.384504 0.148366
vt 0.077952 0.246850
vt 0.073899 0.250173
vt 0.053931 0.224802
vt 0.058996 0.224546
vt 0.066141 0.256146
vt 0.045672 0.225093
vt 0.189326 0.353494
vt 0.188627 0.345256
vt 0.221634 0.319050
vt 0.227722 0.326705
vt 0.188334 0.340190
vt 0.218281 0.315061
vt 0.080526 0.191884
vt 0.118425 0.146405
vt 0.158644 0.101544
vt 0.199681 0.059074
vt 0.253958 0.050198
vt 0.229624 0.033941
vt 0.119638 0.286864
vt 0.298343 0.087263
vt 0.164007 0.323928
vt 0.340040 0.127288
vt 0.259323 0.272595
vt 0.299548 0.227740
vt 0.337458 0.182263
vt 0.358995 0.149601
vt 0.067853 0.183781
vt 0.107043 0.136922
vt 0.147955 0.091273
vt 0.190235 0.047433
vt 0.228626 0.020637
vt 0.261854 0.037317
vt 0.109665 0.298057
vt 0.308314 0.076068
vt 0.156108 0.336807
vt 0.351851 0.117993
vt 0.270007 0.282870
vt 0.310926 0.237228
vt 0.350128 0.190372
vt 0.372321 0.149058
vt 0.116164 0.290774
vt 0.076180 0.188996
vt 0.114472 0.143093
vt 0.154912 0.097988
vt 0.196326 0.055086
vt 0.229329 0.028875
vt 0.256791 0.045778
vt 0.301817 0.083353
vt 0.161173 0.328347
vt 0.344094 0.123966
vt 0.263053 0.276153
vt 0.303500 0.231053
vt 0.341803 0.185153
vt 0.364061 0.149347
vt 0.728917 0.096064
vt 0.742450 0.082011
vt 0.749152 0.069083
vt 0.797974 0.057266
vt 0.843556 0.057348
vt 0.882313 0.065382
vt 0.903087 0.103895
vt 0.894448 0.097745
vt 0.752314 0.089559
vt 0.880768 0.093922
vt 0.764285 0.091545
vt 0.867400 0.095517
vt 0.775231 0.090103
vt 0.781542 0.084338
vt 0.807547 0.083806
vt 0.828987 0.091396
vt 0.846447 0.096197
vt 0.859723 0.098756
vt 0.813238 0.936782
vt 0.781864 0.932594
vt 0.874532 0.930713
vt 0.843107 0.935755
vt 0.732681 0.929920
vt 0.706427 0.931879
vt 0.780701 0.026256
vt 0.718516 0.054331
vt 0.848338 0.022309
vt 0.922653 0.925181
vt 0.948705 0.926237
vt 0.908150 0.046132
vt 0.938980 0.110982
vt 0.988919 0.859780
vt 0.983189 0.879767
vt 0.963102 0.906138
vt 0.691251 0.912304
vt 0.669584 0.886258
vt 0.662912 0.866367
vt 0.686023 0.113267
vt 0.330564 0.581806
vt 0.343229 0.587918
vt 0.339157 0.609637
vt 0.333750 0.627916
vt 0.298642 0.643440
vt 0.320697 0.644905
vt 0.312685 0.564889
vt 0.287988 0.624080
vt 0.288038 0.564527
vt 0.272919 0.586849
vt 0.264036 0.609813
vt 0.266610 0.624920
vt 0.560635 0.537945
vt 0.500871 0.470638
vt 0.243145 0.820260
vt 0.751281 0.159739
vt 0.440345 0.409104
vt 0.759668 0.150968
vt 0.386919 0.350818
vt 0.769077 0.141731
vt 0.339009 0.287336
vt 0.770334 0.128552
vt 0.766659 0.198323
vt 0.796680 0.211342
vt 0.079866 0.512789
vt 0.799552 0.135188
vt 0.824978 0.212690
vt 0.817367 0.142283
vt 0.850993 0.204525
vt 0.837444 0.150858
vt 0.599931 0.592225
vt 0.742989 0.182056
vn 0.000000 0.000000 1.000000
vn 0.000000 0.000000 1.000000
vn 0.000000 0.000000 1.000000
vn 0.000000 0.000000 1.000000
vn 0.000000 0.000000 -1.000000
vn 0.000000 0.000000 -1.000000
vn 0.000000 0.000000 -1.000000
vn 0.000000 0.000000 -1.000000
vn 0.000001 -1.000000 0.000001
vn 0.000001 -1.000000 0.000001
vn 0.000001 -1.000000 0.000001
vn 0.000001 -1.000000 0.000001
vn 1.000000 0.000000 0.000000
vn 1.000000 0.000000 0.000000
vn 1.000000 0.000000 0.000000
vn 1.000000 0.000000 0.000000
vn -1.000000 0.000000 0.000000
vn -1.000000 0.000000 0.000000
vn -1.000000 -0.000000 0.000000
vn -1.000000 -0.000000 0.000000
vn 0.000001 -1.000000 -0.000000
vn 0.000001 -1.000000 -0.000001
vn 0.000001 -1.000000 -0.000001
vn 0.000001 -1.000000 -0.000001
vn -1.000000 -0.000000 0.000000
vn -1.000000 0.000000 0.000000
vn -1.000000 0.000000 0.000000
vn -1.000000 -0.000000 0.000000
vn 1.000000 0.000000 0.000000
vn 1.000000 0.000000 0.000000
vn 1.000000 0.000000 0.000000
vn 1.000000 0.000000 0.000000
vn 0.000002 -1.000000 -0.000000
vn 0.000002 -1.000000 -0.000000
vn -1.000000 -0.000000 0.000000
vn -1.000000 0.000000 0.000000
vn 1.000000 0.000000 0.000000
vn 1.000000 0.000000 0.000000
vn 0.000002 -1.000000 0.000000
vn 0.000002 -1.000000 0.000000
vn -1.000000 -0.000000 0.000000
vn -1.000000 0.000000 0.000000
vn 0.000000 0.999134 0.041606
vn 0.000000 0.999134 0.041606
vn 0.000000 0.999134 -0.041606
vn 0.000000 0.999134 -0.041606
vn 1.000000 0.000000 0.000000
vn 1.000000 0.000000 0.000000
vn 0.000000 0.991162 -0.132654
vn 0.000000 0.991162 -0.132654
vn 0.000000 0.986124 -0.166008
vn 0.000000 0.986124 -0.166008
vn 0.000000 0.986124 -0.166008
vn 0.000000 0.986124 -0.166008
vn -0.000000 -1.000000 0.000001
vn -0.000001 -1.000000 0.000001
vn -0.000001 -1.000000 0.000001
vn -0.000001 -1.000000 0.000001
vn -0.000001 -1.000000 0.000000
vn -0.000001 -1.000000 0.000000
vn -0.000001 -1.000000 -0.000000
vn -0.000001 -1.000000 -0.000000
vn -0.000001 -1.000000 -0.000001
vn -0.000001 -1.000000 -0.000001
vn -0.000000 -1.000000 -0.000001
vn -0.000001 -1.000000 -0.000001
vn 0.000000 0.000000 1.000000
vn 0.000000 0.000000 1.000000
vn 0.000000 0.000000 1.000000
vn 0.000000 0.000000 1.000000
vn 0.000000 0.000000 -1.000000
vn 0.000000 0.000000 -1.000000
vn 0.000000 0.000000 -1.000000
vn 0.000000 0.000000 -1.000000
vn -0.000000 -1.000000 0.000001
vn -0.000000 -1.000000 0.000001
vn 0.000000 -1.000000 0.000000
vn 0.000000 -1.000000 0.000000
vn 0.000000 -1.000000 0.000000
vn 0.000000 -1.000000 0.000000
vn 0.000000 -1.000000 -0.000000
vn 0.000000 -1.000000 -0.000000
vn 0.000000 -1.000000 -0.000000
vn 0.000000 -1.000000 -0.000000
vn -0.000000 -1.000000 -0.000001
vn -0.000000 -1.000000 -0.000001
vn 0.000000 0.000000 1.000000
vn 0.000000 0.000000 1.000000
vn 0.000000 0.999930 0.011796
vn 0.000000 1.000000 0.000000
vn 0.000170 1.000000 0.000082
vn -0.000000 0.999930 0.011796
vn -0.000000 0.999930 -0.011796
vn -0.000000 0.999930 -0.011796
vn -0.000000 1.000000 0.000000
vn 0.000170 1.000000 -0.000082
vn 0.000000 0.000000 -1.000000
vn 0.000000 0.000000 -1.000000
vn 0.000000 -1.000000 0.000001
vn 0.000000 -1.000000 0.000001
vn 0.000000 -1.000000 0.000000
vn 0.000000 -1.000000 -0.000000
vn 0.000000 -1.000000 -0.000000
vn 0.000000 -1.000000 -0.000000
vn 0.000000 -1.000000 -0.000001
vn 0.000000 -1.000000 -0.000001
vn 0.000000 0.000000 1.000000
vn 0.000000 0.000000 1.000000
vn 0.000000 0.999930 0.011796
vn -0.000170 1.000000 0.000082
vn -0.000000 0.999930 -0.011796
vn -0.000170 1.000000 -0.000082
vn 0.000000 0.000000 -1.000000
vn 0.000000 0.000000 -1.000000
vn 0.000000 -1.000000 0.000000
vn 0.000000 -1.000000 -0.000000
vn 0.000000 -1.000000 -0.000000
vn 0.000000 -1.000000 -0.000001
vn 0.498495 0.001756 -0.866891
vn 0.498495 0.001756 -0.866891
vn 0.498495 0.001756 -0.866891
vn 0.498495 0.001756 -0.866891
vn 0.866889 0.001756 -0.498498
vn 0.866889 0.001756 -0.498498
vn 0.866889 0.001756 -0.498498
vn 0.866889 0.001756 -0.498498
vn 0.999999 0.001521 0.000000
vn 0.999999 0.001521 0.000000
vn 0.999999 0.001521 0.000000
vn 0.999999 0.001521 0.000000
vn 0.866891 0.001756 0.498494
vn 0.866892 0.001756 0.498494
vn 0.866892 0.001756 0.498494
vn 0.866892 0.001756 0.498494
vn 0.498497 0.001756 0.866890
vn 0.498497 0.001756 0.866890
vn 0.498497 0.001756 0.866890
vn 0.498497 0.001756 0.866890
vn 0.000000 0.001521 -0.999999
vn 0.000000 0.001521 -0.999999
vn 0.000000 0.001521 -0.999999
vn 0.000000 0.001521 -0.999999
vn 0.000000 0.001521 0.999999
vn 0.000000 0.001521 0.999999
vn 0.000000 0.001521 0.999999
vn 0.000000 0.001521 0.999999
vn -0.866892 0.001756 -0.498493
vn -0.866892 0.001756 -0.498493
vn -0.866892 0.001756 -0.498493
vn -0.866892 0.001756 -0.498493
vn -0.498487 0.001756 -0.866896
vn -0.498487 0.001756 -0.866896
vn -0.498487 0.001756 -0.866896
vn -0.498487 0.001756 -0.866896
vn -0.999999 0.001521 0.000001
vn -0.999999 0.001521 0.000001
vn -0.999999 0.001521 0.000001
vn -0.999999 0.001521 0.000001
vn -0.866890 0.001756 0.498497
vn -0.866890 0.001756 0.498497
vn -0.866890 0.001756 0.498497
vn -0.866890 0.001756 0.498497
vn -0.498488 0.001756 0.866895
vn -0.498488 0.001756 0.866895
vn -0.498488 0.001756 0.866895
vn -0.498488 0.001756 0.866895
vn 0.252100 0.435622 -0.864106
vn 0.648524 0.398537 -0.648526
vn 0.648523 0.398537 -0.648526
vn 0.242000 0.437127 -0.866231
vn 0.864105 0.435622 -0.252102
vn 0.866230 0.437128 -0.242003
vn 0.864106 0.435622 0.252100
vn 0.866231 0.437127 0.242001
vn 0.648526 0.398538 0.648523
vn 0.648526 0.398538 0.648523
vn 0.252100 0.435626 0.864104
vn 0.242001 0.437132 0.866228
vn -0.252096 0.435623 -0.864106
vn -0.241999 0.437128 -0.866231
vn -0.252097 0.435626 0.864105
vn -0.241999 0.437132 0.866229
vn -0.864105 0.435625 -0.252098
vn -0.648520 0.398540 -0.648527
vn -0.648520 0.398540 -0.648527
vn -0.866229 0.437131 -0.242000
vn -0.864104 0.435626 0.252100
vn -0.866228 0.437132 0.242002
vn -0.648519 0.398541 0.648528
vn -0.648519 0.398541 0.648528
vn 0.487270 0.382266 -0.785137
vn 0.650801 0.391038 -0.650805
vn 0.650801 0.391038 -0.650805
vn 0.487270 0.382266 -0.785137
vn 0.785135 0.382266 -0.487275
vn 0.785135 0.382266 -0.487275
vn 0.922156 0.386818 0.000000
vn 0.922156 0.386818 0.000000
vn 0.922156 0.386818 0.000000
vn 0.922156 0.386818 0.000000
vn 0.785137 0.382265 0.487272
vn 0.650805 0.391037 0.650802
vn 0.650805 0.391037 0.650802
vn 0.785137 0.382264 0.487272
vn 0.487275 0.382265 0.785135
vn 0.487275 0.382265 0.785135
vn 0.000000 0.386820 -0.922155
vn 0.000000 0.386820 -0.922155
vn 0.000000 0.386820 -0.922155
vn 0.000000 0.386820 -0.922155
vn 0.000000 0.386818 0.922156
vn 0.000000 0.386818 0.922156
vn 0.000000 0.386818 0.922156
vn 0.000000 0.386818 0.922156
vn -0.785137 0.382265 -0.487272
vn -0.650800 0.391038 -0.650806
vn -0.650800 0.391038 -0.650806
vn -0.785137 0.382265 -0.487272
vn -0.487266 0.382266 -0.785140
vn -0.487266 0.382266 -0.785140
vn -0.922156 0.386818 0.000000
vn -0.922156 0.386818 0.000000
vn -0.922156 0.386818 0.000000
vn -0.922156 0.386818 0.000000
vn -0.650799 0.391038 0.650807
vn -0.785134 0.382266 0.487276
vn -0.785134 0.382266 0.487276
vn -0.650799 0.391038 0.650807
vn -0.487269 0.382266 0.785138
vn -0.487269 0.382267 0.785138
vn 0.215828 0.761467 -0.611217
vn 0.493101 0.716730 -0.493102
vn 0.493100 0.716730 -0.493102
vn 0.192146 0.766462 -0.612874
vn 0.611217 0.761466 -0.215831
vn 0.612874 0.766462 -0.192149
vn 0.611217 0.761466 0.215829
vn 0.612874 0.766462 0.192148
vn 0.493103 0.716729 0.493101
vn 0.493103 0.716729 0.493102
vn 0.215830 0.761467 0.611217
vn 0.192149 0.766463 0.612873
vn -0.215826 0.761467 -0.611218
vn -0.192146 0.766462 -0.612875
vn -0.215829 0.761467 0.611217
vn -0.192147 0.766463 0.612874
vn -0.606480 0.765173 -0.216084
vn -0.491237 0.717995 -0.493122
vn -0.490869 0.717990 -0.493496
vn -0.607922 0.770209 -0.192895
vn -0.606480 0.765172 0.216086
vn -0.607922 0.770209 0.192896
vn -0.491238 0.717993 0.493125
vn -0.490870 0.717987 0.493498
vn 0.551333 0.283732 -0.784556
vn 0.677217 0.287670 -0.677218
vn 0.677217 0.287670 -0.677218
vn 0.551333 0.283732 -0.784556
vn 0.784555 0.283731 -0.551335
vn 0.784555 0.283731 -0.551335
vn 0.953639 0.300953 0.000000
vn 0.953639 0.300953 0.000000
vn 0.953639 0.300953 0.000000
vn 0.953639 0.300953 0.000000
vn 0.784555 0.283730 0.551335
vn 0.677219 0.287669 0.677216
vn 0.677219 0.287669 0.677216
vn 0.784555 0.283730 0.551335
vn 0.551338 0.283731 0.784553
vn 0.551338 0.283731 0.784553
vn -0.000001 0.300955 -0.953638
vn -0.000001 0.300955 -0.953638
vn -0.000001 0.300955 -0.953638
vn -0.000001 0.300955 -0.953638
vn 0.000003 0.300955 0.953638
vn 0.000003 0.300955 0.953638
vn 0.000003 0.300955 0.953638
vn 0.000003 0.300955 0.953638
vn -0.784525 0.282555 -0.551981
vn -0.677859 0.287059 -0.676834
vn -0.677421 0.287061 -0.677272
vn -0.784525 0.282555 -0.551981
vn -0.551330 0.283732 -0.784558
vn -0.551330 0.283732 -0.784558
vn -0.954399 0.298533 0.000001
vn -0.954399 0.298533 0.000001
vn -0.954399 0.298533 0.000001
vn -0.954399 0.298533 0.000001
vn -0.677858 0.287058 0.676835
vn -0.784522 0.282554 0.551986
vn -0.784522 0.282554 0.551986
vn -0.677420 0.287060 0.677273
vn -0.551335 0.283731 0.784555
vn -0.551335 0.283731 0.784555
vn 0.000000 0.000000 -1.000000
vn 0.000000 0.000000 -1.000000
vn 0.000000 0.000000 -1.000000
vn 0.000000 0.000000 -1.000000
vn -1.000000 -0.000000 0.000000
vn -1.000000 -0.000000 0.000000
vn -1.000000 -0.000000 0.000000
vn -1.000000 -0.000000 0.000000
vn 0.000000 0.000000 1.000000
vn 0.000000 0.000000 1.000000
vn 0.000000 0.000000 1.000000
vn 0.000000 0.000000 1.000000
vn -1.000000 -0.000000 0.000000
vn -1.000000 -0.000000 0.000000
vn -1.000000 -0.000000 0.000000
vn -1.000000 -0.000000 0.000000
vn -1.000000 -0.000000 0.000000
vn -1.000000 -0.000000 0.000000
vn -1.000000 -0.000000 0.000000
vn -1.000000 -0.000000 0.000000
vn -1.000000 -0.000000 0.000000
vn -1.000000 -0.000000 0.000000
vn -1.000000 -0.000000 0.000000
vn -1.000000 0.000000 0.000000
vn 0.000000 0.000000 1.000000
vn 0.000000 0.000000 1.000000
vn 0.000000 0.000000 1.000000
vn 0.000000 0.000000 1.000000
vn 1.000000 0.000000 0.000000
vn 0.999392 0.034626 0.003992
vn 0.999331 0.036495 -0.002337
vn 1.000000 0.000000 0.000000
vn 0.000000 0.000000 -1.000000
vn 0.000000 0.000000 -1.000000
vn -1.000000 0.000000 0.000000
vn -1.000000 0.000000 0.000000
vn 0.000000 0.000000 1.000000
vn 0.000000 0.000000 1.000000
vn 1.000000 0.000000 0.000000
vn 0.999331 0.036494 0.002337
vn 0.999392 0.034626 -0.003992
vn 1.000000 0.000000 0.000000
vn 0.000000 0.000000 -1.000000
vn 0.000000 0.000000 -1.000000
vn 0.000000 0.000000 -1.000000
vn 0.000000 0.000000 -1.000000
vn -1.000000 0.000000 0.000000
vn -1.000000 0.000000 0.000000
vn 0.000000 0.991162 0.132654
vn 0.000000 0.991162 0.132654
vn 0.000000 1.000000 -0.000000
vn 0.000000 1.000000 -0.000000
vn 0.000000 1.000000 -0.000000
vn 0.000000 1.000000 -0.000000
vn 0.000000 1.000000 -0.000000
vn 0.000000 1.000000 -0.000000
vn 0.000000 1.000000 -0.000000
vn 0.000000 1.000000 -0.000000
vn 0.000000 1.000000 -0.000000
vn 0.000000 1.000000 -0.000000
vn 0.000000 1.000000 -0.000000
vn 0.000000 1.000000 -0.000000
vn 0.000000 1.000000 -0.000000
vn 0.000000 1.000000 -0.000000
vn 0.000000 1.000000 -0.000000
vn 0.000000 1.000000 -0.000000
vn 0.000000 0.986125 0.166008
vn 0.000000 0.986125 0.166008
vn 0.000000 0.986125 0.166008
vn 0.000000 0.986124 0.166008
vn -0.707107 0.000000 0.707107
vn -0.707107 0.000000 0.707107
vn -0.707107 0.000000 0.707107
vn -0.707107 0.000000 0.707107
vn 0.707127 0.000000 0.707086
vn 0.707127 0.000000 0.707086
vn 0.707127 0.000000 0.707086
vn 0.707127 0.000000 0.707086
vn 0.707127 0.000000 -0.707086
vn 0.707127 0.000000 -0.707086
vn 0.707127 0.000000 -0.707086
vn 0.707127 0.000000 -0.707086
vn -0.707107 0.000000 -0.707107
vn -0.707107 0.000000 -0.707107
vn -0.707107 0.000000 -0.707107
vn -0.707107 0.000000 -0.707107
vn -0.906709 0.000000 -0.421756
vn -0.906709 0.000000 -0.421756
vn -0.906709 0.000000 -0.421756
vn -0.906709 0.000000 -0.421756
vn 0.707127 0.000000 0.707087
vn 0.707127 0.000000 0.707087
vn 0.707127 0.000000 0.707087
vn 0.707127 0.000000 0.707087
vn 0.707127 0.000000 -0.707087
vn 0.707127 0.000000 -0.707087
vn 0.707127 0.000000 -0.707087
vn 0.707127 0.000000 -0.707087
vn -0.707107 0.000000 -0.707107
vn -0.707107 0.000000 -0.707107
vn -0.707107 0.000000 -0.707107
vn -0.707107 0.000000 -0.707107
vn -0.726327 0.684795 -0.059209
vn -0.726327 0.684795 -0.059209
vn -0.726327 0.684795 -0.059209
vn -0.726327 0.684795 -0.059209
vn 0.726347 0.684774 -0.059207
vn 0.726347 0.684774 -0.059207
vn 0.726347 0.684774 -0.059207
vn 0.726347 0.684774 -0.059207
vn 0.500018 0.707105 -0.499985
vn 0.500018 0.707105 -0.499985
vn 0.500018 0.707104 -0.499985
vn -0.499996 0.707114 -0.499995
vn -0.499996 0.707114 -0.499995
vn -0.499996 0.707114 -0.499995
vn -0.778711 -0.512262 -0.362212
vn -0.778711 -0.512262 -0.362212
vn -0.778711 -0.512262 -0.362212
vn 0.500018 0.707104 0.499985
vn 0.500018 0.707105 0.499985
vn 0.500018 0.707105 0.499985
vn 0.726347 0.684773 0.059207
vn 0.726347 0.684773 0.059207
vn 0.726348 0.684773 0.059207
vn 0.726347 0.684773 0.059207
vn -0.726327 0.684794 0.059209
vn -0.726327 0.684794 0.059209
vn -0.726327 0.684794 0.059209
vn -0.726327 0.684794 0.059209
vn 0.979364 -0.202102 0.000185
vn 0.984058 -0.113861 -0.136623
vn 0.963446 -0.023546 -0.266867
vn 0.979342 -0.202210 0.000178
vn 0.969378 0.044099 -0.241581
vn 0.954488 0.001019 -0.298247
vn 0.984523 0.171277 -0.037123
vn 0.985313 0.166880 0.036193
vn 0.988011 0.153820 -0.013181
vn 0.988764 0.148733 0.014990
vn 0.984058 -0.113862 0.136623
vn 0.979364 -0.202102 -0.000185
vn 0.979342 -0.202210 -0.000178
vn 0.963445 -0.023546 0.266870
vn 0.988011 0.153820 0.013181
vn 0.985313 0.166880 -0.036193
vn 0.988764 0.148733 -0.014989
vn 0.984523 0.171277 0.037123
vn 0.969378 0.044100 0.241582
vn 0.954487 0.001019 0.298250
vn 0.979668 -0.200625 -0.000115
vn 0.979664 -0.200647 -0.000120
vn 0.896031 0.438136 0.071870
vn 0.961813 0.256922 0.094373
vn 0.971122 0.204980 0.122086
vn 0.941372 0.327126 0.082511
vn 0.979668 -0.200625 0.000115
vn 0.979664 -0.200647 0.000120
vn 0.790026 0.612679 -0.021977
vn 0.790027 0.612678 0.021978
vn 0.788766 0.614090 0.027218
vn 0.788765 0.614092 -0.027218
vn 0.961813 0.256924 -0.094374
vn 0.971122 0.204981 -0.122087
vn 0.896028 0.438142 -0.071870
vn 0.941371 0.327128 -0.082512
vn 0.707077 -0.707136 0.001316
vn 0.707077 -0.707136 0.001318
vn 0.707088 -0.707125 0.000814
vn 0.707088 -0.707125 0.000818
vn 0.707072 -0.707141 0.000924
vn 0.707072 -0.707141 0.000924
vn 0.707120 0.000000 -0.707093
vn 0.707120 0.000000 -0.707093
vn 0.707120 0.000000 -0.707093
vn 0.707120 0.000000 -0.707093
vn 0.707108 0.485895 -0.513717
vn 0.707108 0.485895 -0.513717
vn 0.707108 0.485895 -0.513717
vn 0.707108 0.485895 -0.513717
vn 0.707148 0.707065 0.000000
vn 0.707148 0.707065 0.000000
vn 0.714788 0.693768 0.088114
vn 0.716757 0.676245 0.170154
vn 0.707125 0.631436 0.318218
vn 0.707125 0.631436 0.318218
vn 0.707090 0.610114 -0.357470
vn 0.707090 0.610114 -0.357470
vn 0.707180 0.624623 -0.331274
vn 0.707206 0.616362 -0.346349
vn 0.707146 0.000000 0.707067
vn 0.707146 0.000000 0.707067
vn 0.707146 0.000000 0.707067
vn 0.707146 0.000000 0.707067
vn 0.707072 -0.707141 -0.000924
vn 0.707072 -0.707141 -0.000924
vn 0.707076 -0.707137 -0.001316
vn 0.707076 -0.707137 -0.001318
vn 0.707088 -0.707126 -0.000818
vn 0.707088 -0.707125 -0.000814
vn 0.707105 0.610100 0.357465
vn 0.707105 0.610100 0.357465
vn 0.707220 0.616349 0.346344
vn 0.707193 0.624612 0.331267
vn 0.707119 0.631442 -0.318219
vn 0.707119 0.631442 -0.318219
vn 0.714789 0.693766 -0.088118
vn 0.716755 0.676247 -0.170153
vn 0.707152 0.707061 0.000000
vn 0.707152 0.707061 0.000000
vn 0.707125 0.485889 0.513698
vn 0.707126 0.485889 0.513698
vn 0.707126 0.485889 0.513698
vn 0.707126 0.485889 0.513698
vn 0.713163 0.686609 0.141303
vn 0.713664 0.662150 0.228562
vn 0.707336 0.706269 0.029341
vn 0.707333 0.706404 0.025958
vn 0.707332 0.706404 -0.025958
vn 0.707335 0.706270 -0.029341
vn 0.713655 0.662157 -0.228568
vn 0.713158 0.686615 -0.141299
vn 1.000000 -0.000000 0.000000
vn 1.000000 -0.000000 0.000000
vn 1.000000 -0.000000 0.000000
vn 1.000000 -0.000000 0.000000
vn 1.000000 -0.000000 0.000000
vn 1.000000 -0.000000 0.000000
vn 1.000000 -0.000000 0.000000
vn 1.000000 -0.000000 0.000000
vn 1.000000 -0.000000 0.000000
vn 1.000000 -0.000000 0.000000
vn 1.000000 -0.000000 0.000000
vn 1.000000 -0.000000 0.000000
vn 1.000000 -0.000000 0.000000
vn 1.000000 -0.000000 0.000000
vn 1.000000 -0.000000 0.000000
vn 1.000000 -0.000000 0.000000
vn 1.000000 -0.000000 0.000000
vn 1.000000 -0.000000 0.000000
vn 1.000000 -0.000000 0.000000
vn 1.000000 -0.000000 0.000000
vn 1.000000 -0.000000 0.000000
vn 1.000000 -0.000000 0.000000
vn 0.573327 -0.819326 0.001486
vn 0.573418 -0.819262 0.001072
vn 0.573418 -0.819262 0.001072
vn 0.573310 -0.819337 0.001562
vn 0.449032 0.000000 -0.893516
vn 0.449032 0.000000 -0.893516
vn 0.449032 0.000000 -0.893516
vn 0.449032 0.000000 -0.893516
vn 0.618127 0.540164 -0.571088
vn 0.618127 0.540164 -0.571088
vn 0.618127 0.540164 -0.571088
vn 0.618127 0.540164 -0.571088
vn 0.535536 0.844512 0.000000
vn 0.510961 0.855739 0.081421
vn 0.452362 0.859478 0.238048
vn 0.535536 0.844512 0.000000
vn 0.364237 0.831665 0.419123
vn 0.364237 0.831665 0.419123
vn 0.573418 -0.819262 -0.001072
vn 0.573327 -0.819326 -0.001486
vn 0.573310 -0.819337 -0.001562
vn 0.573418 -0.819262 -0.001072
vn 0.364239 0.831665 -0.419122
vn 0.510961 0.855739 -0.081421
vn 0.452362 0.859478 -0.238047
vn 0.364239 0.831665 -0.419122
vn 0.535536 0.844512 0.000000
vn 0.535536 0.844512 0.000000
vn 0.618127 0.540170 0.571083
vn 0.618127 0.540170 0.571083
vn 0.618127 0.540170 0.571083
vn 0.618127 0.540170 0.571083
vn 0.449032 0.000000 0.893516
vn 0.449032 0.000000 0.893516
vn 0.449032 0.000000 0.893516
vn 0.449032 0.000000 0.893516
vn 0.573305 -0.819342 -0.000975
vn 0.573309 -0.819339 -0.000915
vn 0.579306 0.797711 0.167517
vn 0.567190 0.727565 0.385933
vn 0.566185 0.718763 0.403502
vn 0.577470 0.771995 0.265617
vn 0.565254 0.711743 0.417023
vn 0.565255 0.711743 0.417023
vn 0.573305 -0.819342 0.000975
vn 0.573309 -0.819339 0.000915
vn 0.574632 0.817845 -0.030464
vn 0.574631 0.817845 0.030464
vn 0.574689 0.817677 0.033702
vn 0.574689 0.817677 -0.033702
vn 0.565258 0.711741 -0.417023
vn 0.567193 0.727563 -0.385933
vn 0.566188 0.718761 -0.403502
vn 0.565258 0.711741 -0.417023
vn 0.579307 0.797710 -0.167517
vn 0.577472 0.771994 -0.265616
vn 0.000000 1.000000 0.000000
vn 0.000000 1.000000 0.000000
vn 0.000000 1.000000 0.000000
vn 0.000000 1.000000 0.000000
vn 0.000000 1.000000 0.000000
vn 0.000000 1.000000 0.000000
vn 0.000000 1.000000 0.000000
vn 0.000000 1.000000 0.000000
vn 0.000000 1.000000 0.000000
vn 0.000000 1.000000 0.000000
vn 0.000000 1.000000 0.000000
vn 0.000000 1.000000 0.000000
vn 0.000000 1.000000 0.000000
vn 0.000000 1.000000 0.000000
vn 0.000000 1.000000 0.000000
vn 0.000000 1.000000 0.000000
vn 0.000000 1.000000 -0.000000
vn 0.000000 1.000000 -0.000000
vn 0.000000 1.000000 0.000000
vn 0.000000 1.000000 0.000000
vn 0.000000 1.000000 -0.000000
vn 0.000000 1.000000 -0.000000
vn 0.000000 1.000000 -0.000000
vn 0.000000 1.000000 -0.000000
vn 0.000000 1.000000 0.000000
vn 0.000000 1.000000 0.000000
vn 0.000000 1.000000 0.000000
vn 0.000000 1.000000 0.000000
vn 0.000000 1.000000 0.000000
vn 0.000000 1.000000 0.000000
vn 0.000000 1.000000 0.000000
vn 0.000000 1.000000 0.000000
vn 0.000000 1.000000 0.000000
vn 0.000000 1.000000 0.000000
vn 0.000000 1.000000 -0.000000
vn 0.000000 1.000000 -0.000000
vn 0.000000 0.999999 -0.001351
vn 0.000000 0.923869 0.382709
vn 0.000000 0.923869 0.382710
vn 0.011240 0.999897 0.008965
vn 0.000000 0.382682 0.923880
vn 0.000000 0.168424 0.985715
vn 0.000000 0.158564 0.987349
vn 0.000000 0.382682 0.923880
vn -0.987290 0.158931 0.000000
vn -0.923880 0.382681 0.000000
vn -0.923880 0.382682 0.000000
vn -0.985704 0.168487 0.000000
vn -0.382716 0.923866 0.000000
vn -0.011240 0.999897 0.008965
vn 0.001796 0.999998 0.000000
vn -0.382716 0.923866 0.000000
vn -0.001796 0.999998 0.000000
vn 0.017222 0.999794 0.010746
vn 0.017222 0.999794 -0.010746
vn -0.001796 0.999998 0.000000
vn 0.000000 0.999999 0.001351
vn 0.011240 0.999897 -0.008965
vn 0.000000 0.999998 -0.001848
vn 0.000000 0.999998 0.001848
vn 0.000000 0.999999 -0.001351
vn 0.000000 0.999999 0.001351
vn -0.017222 0.999794 0.010746
vn -0.017222 0.999794 -0.010746
vn 0.001796 0.999998 -0.000000
vn -0.011240 0.999897 -0.008965
vn 0.000000 0.000000 1.000000
vn 0.000000 0.000000 1.000000
vn 1.000000 0.000000 0.000000
vn 1.000000 0.000000 0.000000
vn 0.985702 0.168496 0.000000
vn 0.987289 0.158938 0.000000
vn 1.000000 0.000000 0.000000
vn 0.985600 0.169092 0.000000
vn 1.000000 0.000000 0.000000
vn 0.985600 0.169092 0.000000
vn 1.000000 0.000000 0.000000
vn 0.985702 0.168495 0.000000
vn 1.000000 0.000000 0.000000
vn 0.987288 0.158938 0.000000
vn 0.000000 0.000000 -1.000000
vn 0.000000 0.000000 -1.000000
vn 0.000000 0.168424 -0.985715
vn 0.000000 0.158564 -0.987349
vn 0.000000 0.000000 1.000000
vn 0.000000 0.169083 0.985602
vn 0.000000 0.000000 -1.000000
vn 0.000000 0.169083 -0.985602
vn 0.000000 0.000000 1.000000
vn 0.000000 0.168424 0.985715
vn 0.000000 0.000000 -1.000000
vn 0.000000 0.168424 -0.985715
vn -1.000000 0.000000 0.000000
vn -1.000000 0.000000 0.000000
vn 0.000000 0.000000 1.000000
vn 0.000000 0.158564 0.987349
vn -1.000000 0.000000 0.000000
vn -0.985602 0.169083 0.000000
vn -1.000000 0.000000 0.000000
vn -0.985602 0.169083 0.000000
vn -1.000000 0.000000 0.000000
vn -0.985704 0.168487 0.000000
vn -1.000000 0.000000 0.000000
vn -0.987290 0.158931 0.000000
vn 0.000000 0.000000 -1.000000
vn 0.000000 0.158564 -0.987349
vn 0.000000 0.382682 0.923880
vn 0.000000 0.923869 0.382709
vn 0.382724 0.923863 0.000000
vn 0.382724 0.923863 0.000000
vn 0.923874 0.382697 0.000000
vn 0.923873 0.382699 0.000000
vn 0.382724 0.923863 0.000000
vn 0.923873 0.382700 0.000000
vn 0.382724 0.923863 0.000000
vn 0.923873 0.382699 0.000000
vn 0.382723 0.923863 0.000000
vn 0.923873 0.382698 0.000000
vn 0.382723 0.923863 0.000000
vn 0.923874 0.382698 0.000000
vn 0.000000 0.923866 -0.382717
vn 0.000000 0.923866 -0.382717
vn 0.000000 0.382682 -0.923880
vn 0.000000 0.382682 -0.923880
vn 0.000000 0.923866 -0.382716
vn 0.000000 0.382682 -0.923880
vn 0.000000 0.382682 0.923880
vn 0.000000 0.923869 0.382710
vn 0.000000 0.923866 -0.382717
vn 0.000000 0.382682 -0.923880
vn 0.000000 0.382682 0.923880
vn 0.000000 0.923868 0.382711
vn -0.923880 0.382681 0.000000
vn -0.382717 0.923866 0.000000
vn -0.923881 0.382681 0.000000
vn -0.382717 0.923866 0.000000
vn -0.923880 0.382681 0.000000
vn -0.382716 0.923866 0.000000
vn -0.923880 0.382682 0.000000
vn -0.382716 0.923866 0.000000
vn 0.000000 0.923865 -0.382718
vn 0.000000 0.382682 -0.923880
s 1
g Judge_Chair
f 1/1/1 50/2/2 51/3/3 3/4/4
s 2
f 5/5/5 56/6/6 45/7/7 7/390/8
s 3
f 7/8/9 45/373/10 46/9/11 22/10/12
s 4
f 24/11/13 21/12/14 8/380/15 6/14/16
s 5
f 7/390/17 22/381/18 23/15/19 5/5/20
s 3
f 10/16/21 49/17/22 50/371/23 1/389/24
s 5
f 11/18/25 10/387/26 1/1/27 3/4/28
s 4
f 2/19/29 9/388/30 12/21/31 4/22/32
s 3
f 14/23/33 48/24/34 49/17/22 10/16/21
s 5
f 15/25/35 14/385/36 10/387/26 11/18/25
s 4
f 12/21/31 9/388/30 13/386/37 16/27/38
s 3
f 18/28/39 47/29/40 48/24/34 14/23/33
s 5
f 19/30/41 18/382/42 14/385/36 15/25/35
s 9
f 123/31/43 121/32/44 127/33/45 130/34/46
s 4
f 16/27/38 13/386/37 17/384/47 20/36/48
s 3
f 22/10/12 46/9/11 47/29/40 18/28/39
s 5
f 23/15/19 22/381/18 18/382/42 19/30/41
s 9
f 128/37/49 126/38/50 137/39/51 140/40/52 132/41/53 131/42/54
s 4
f 20/36/48 17/384/47 21/12/14 24/11/13
s 3
f 25/43/55 8/13/56 21/383/57 26/44/58
f 27/45/59 26/44/58 21/383/57 17/35/60
f 28/46/61 27/45/59 17/35/60 13/26/62
f 29/47/63 28/46/61 13/26/62 9/20/64
f 30/377/65 29/47/63 9/20/64 2/379/66
s 1
f 31/49/67 30/48/68 2/19/69 4/22/70
s 2
f 25/378/71 32/50/72 6/14/73 8/380/74
s 3
f 33/51/75 25/43/55 26/44/58 34/52/76
s 13
f 106/53/77 105/54/78 107/55/79 108/56/80
f 109/57/81 106/53/77 108/56/80 110/58/82
f 111/59/83 109/57/81 110/58/82 112/60/84
s 3
f 36/375/85 35/62/86 29/47/63 30/377/65
s 1
f 37/63/87 36/61/88 30/48/68 31/49/67
s 14
f 260/64/89 259/65/90 255/66/91 256/67/92
f 261/68/93 260/64/89 256/67/92 257/69/94
f 262/70/95 261/68/93 257/69/94 258/71/96
s 2
f 33/376/97 38/72/98 32/50/72 25/378/71
s 3
f 39/73/99 33/51/75 34/52/76 40/74/100
s 13
f 114/75/101 113/76/102 105/54/78 106/53/77
f 115/77/103 114/75/101 106/53/77 109/57/81
f 116/78/104 115/77/103 109/57/81 111/59/83
s 3
f 42/372/105 41/80/106 35/62/86 36/375/85
s 1
f 43/81/107 42/79/108 36/61/88 37/63/87
s 14
f 264/82/109 263/83/110 259/65/90 260/64/89
f 265/84/111 264/82/109 260/64/89 261/68/93
f 266/85/112 265/84/111 261/68/93 262/70/95
s 2
f 39/374/113 44/86/114 38/72/98 33/376/97
s 3
f 45/373/10 39/73/99 40/74/100 46/9/11
s 13
f 118/87/115 117/88/116 113/76/102 114/75/101
f 119/89/117 118/87/115 114/75/101 115/77/103
f 120/90/118 119/89/117 115/77/103 116/78/104
s 3
f 50/371/23 49/17/22 41/80/106 42/372/105
s 1
f 51/3/3 50/2/2 42/79/108 43/81/107
s 2
f 45/7/7 56/6/6 44/86/114 39/374/113
s off
f 34/52/119 26/44/120 58/91/121 57/92/122
f 26/44/123 27/45/124 59/93/125 58/91/126
f 27/45/127 28/46/128 60/94/129 59/93/130
f 28/46/131 29/47/132 62/95/133 60/94/134
f 29/47/135 35/62/136 61/96/137 62/95/138
f 40/74/139 34/52/140 57/92/141 63/97/142
f 35/62/143 41/80/144 64/98/145 61/96/146
f 47/29/147 46/9/148 65/99/149 66/100/150
f 46/9/151 40/74/152 63/97/153 65/99/154
f 48/24/155 47/29/156 66/100/157 67/101/158
f 49/17/159 48/24/160 67/101/161 68/102/162
f 41/80/163 49/17/164 68/102/165 64/98/166
s 15
f 57/92/167 58/91/168 70/103/169 69/104/170
f 58/91/168 59/93/171 71/105/172 70/103/169
f 59/93/171 60/94/173 72/106/174 71/105/172
f 60/94/173 62/95/175 74/107/176 72/106/174
f 62/95/175 61/96/177 73/108/178 74/107/176
f 63/97/179 57/92/167 69/104/170 75/109/180
f 61/96/177 64/98/181 76/110/182 73/108/178
f 66/100/183 65/99/184 77/111/185 78/112/186
f 65/99/184 63/97/179 75/109/180 77/111/185
f 67/101/187 66/100/183 78/112/186 79/113/188
f 68/102/189 67/101/187 79/113/188 80/114/190
f 64/98/181 68/102/189 80/114/190 76/110/182
s 16
f 69/104/191 70/103/192 82/370/193 81/366/194
f 70/103/192 71/105/195 83/369/196 82/370/193
s off
f 71/105/197 72/106/198 84/368/199 83/369/200
s 17
f 72/106/201 74/107/202 86/367/203 84/368/204
f 74/107/202 73/108/205 85/365/206 86/367/203
s off
f 75/109/207 69/104/208 81/366/209 87/363/210
f 73/108/211 76/110/212 88/359/213 85/365/214
s 18
f 78/112/215 77/111/216 89/364/217 90/362/218
f 77/111/216 75/109/219 87/363/220 89/364/217
s off
f 79/113/221 78/112/222 90/362/223 91/361/224
s 19
f 80/114/225 79/113/226 91/361/227 92/360/228
f 76/110/229 80/114/225 92/360/228 88/359/230
s 20
f 81/116/231 82/115/232 94/127/233 93/128/234
f 82/115/232 83/117/235 95/129/236 94/127/233
f 83/117/235 84/118/237 96/130/238 95/129/236
f 84/118/237 86/119/239 98/131/240 96/130/238
f 86/119/239 85/120/241 97/132/242 98/131/240
f 87/121/243 81/116/231 93/128/234 99/133/244
f 85/120/241 88/122/245 100/134/246 97/132/242
f 90/124/247 89/123/248 101/135/249 102/136/250
f 89/123/248 87/121/243 99/133/244 101/135/249
f 91/125/251 90/124/247 102/136/250 103/137/252
f 92/126/253 91/125/251 103/137/252 104/138/254
f 88/122/245 92/126/253 104/138/254 100/134/246
s 21
f 93/128/255 94/127/256 107/55/257 105/54/258
f 94/127/256 95/129/259 108/56/260 107/55/257
s off
f 95/129/261 96/130/262 110/58/263 108/56/264
s 22
f 96/130/265 98/131/266 112/60/267 110/58/268
f 98/131/266 97/132/269 111/59/270 112/60/267
s off
f 99/133/271 93/128/272 105/54/273 113/76/274
f 97/132/275 100/134/276 116/78/277 111/59/278
s 23
f 102/136/279 101/135/280 117/88/281 118/87/282
f 101/135/280 99/133/283 113/76/284 117/88/281
s off
f 103/137/285 102/136/286 118/87/287 119/89/288
s 24
f 104/138/289 103/137/290 119/89/291 120/90/292
f 100/134/293 104/138/289 120/90/292 116/78/294
s 2
f 56/6/6 5/5/5 149/139/295 148/140/296 145/141/297 144/142/298
s 5
f 5/5/20 23/15/19 134/143/299 133/144/300 150/145/301 149/139/302
s 1
f 3/4/4 51/3/3 159/146/303 158/147/304 155/148/305 154/149/306
s 5
f 11/18/25 3/4/28 154/149/307 153/150/308 172/151/309 171/152/310
f 15/25/35 11/18/25 171/152/310 170/153/311 125/154/312 124/155/313
f 19/30/41 15/25/35 124/155/313 123/31/314 130/34/315 129/156/316
f 23/15/19 19/30/41 129/156/316 128/37/317 131/42/318 134/143/299
s off
f 136/157/319 132/41/320 140/40/321 142/158/322
s 25
f 141/159/323 139/160/324 143/161/325 147/162/326
s 2
f 146/163/327 145/141/297 148/140/296 152/164/328
s 5
f 151/165/329 150/145/301 133/144/300 135/166/330
s 1
f 157/167/331 155/148/305 158/147/304 162/168/332
s 25
f 161/169/333 160/170/334 163/171/335 168/172/336
s off
f 167/173/337 166/174/338 169/175/339 174/176/340
s 5
f 173/177/341 172/151/309 153/150/308 156/178/342
s 9
f 122/179/343 121/32/44 123/31/43 125/154/344
f 127/33/45 126/38/50 128/37/49 130/34/46
s 5
f 123/31/314 124/155/313 125/154/312
f 128/37/317 129/156/316 130/34/315
s off
f 135/166/345 136/157/346 142/158/347 141/159/348 147/162/349 146/163/350 152/164/351 151/165/352
f 156/178/353 157/167/354 162/168/355 161/169/356 168/172/357 167/173/358 174/176/359 173/177/360
s 9
f 170/153/361 169/175/362 166/174/363 165/180/364 122/179/343 125/154/344
s off
f 133/144/365 132/41/366 136/157/367 135/166/368
f 140/40/369 139/160/370 141/159/371 142/158/372
f 143/161/373 145/141/374 146/163/375 147/162/376
f 148/140/377 150/145/378 151/165/379 152/164/380
f 153/150/381 155/148/382 157/167/383 156/178/384
f 158/147/385 160/170/386 161/169/387 162/168/388
f 163/171/389 166/174/390 167/173/391 168/172/392
f 169/175/393 172/151/394 173/177/395 174/176/396
f 131/42/397 132/41/398 133/144/399 134/143/400
f 137/39/401 138/181/402 139/160/403 140/40/404
f 143/161/405 144/142/406 145/141/407
f 148/140/408 149/139/409 150/145/410
f 153/150/411 154/149/412 155/148/413
f 158/147/414 159/146/415 160/170/416
f 163/171/417 164/182/418 165/180/419 166/174/420
f 169/175/421 170/153/422 171/152/423 172/151/424
s 25
f 55/183/425 56/6/426 176/358/427 175/346/428
f 56/6/426 144/142/429 177/357/430 176/358/427
f 144/142/429 143/161/325 178/356/431 177/357/430
f 143/161/325 139/160/324 179/355/432 178/356/431
f 139/160/324 138/181/433 180/344/434 179/355/432
f 51/3/435 52/190/436 182/350/437 181/351/438
f 164/182/439 163/171/335 184/354/440 183/349/441
f 163/171/335 160/170/334 185/353/442 184/354/440
f 160/170/334 159/146/443 186/352/444 185/353/442
f 159/146/443 51/3/435 181/351/438 186/352/444
f 52/190/436 53/197/445 187/347/446 182/350/437
f 122/179/447 165/180/448 189/348/449 188/341/450
f 165/180/448 164/182/439 183/349/441 189/348/449
f 53/197/445 54/201/451 190/345/452 187/347/446
f 127/33/453 121/32/454 192/342/455 191/339/456
f 54/201/451 55/183/425 175/346/428 190/345/452
f 138/181/433 137/39/457 193/343/458 180/344/434
f 137/39/457 126/38/459 194/340/460 193/343/458
f 121/32/454 122/179/447 188/341/450 192/342/455
f 126/38/459 127/33/453 191/339/456 194/340/460
s 29
f 197/207/461 198/208/462 227/209/463 228/210/464
f 198/208/462 197/207/461 200/211/465 199/212/466
s off
f 199/212/467 200/211/468 202/213/469 201/214/470
f 201/214/471 202/213/472 204/215/473 203/216/474
s 30
f 203/216/475 204/215/476 206/217/477 205/218/478
f 205/218/478 206/217/477 208/219/479 207/220/480
s 31
f 207/220/481 208/219/482 234/221/483 233/222/484
s off
f 209/223/485 210/224/486 219/225/487 220/226/488
s 29
f 210/224/489 209/223/490 212/227/491 211/228/492
f 211/228/492 212/227/491 222/229/493 221/230/494
s 31
f 213/231/495 214/232/496 225/233/497 226/234/498
s 34
f 214/232/499 213/231/500 216/235/501 215/236/502
f 215/236/502 216/235/501 218/237/503 217/238/504
s off
f 217/238/505 218/237/506 220/226/507 219/225/508
s 29
f 221/230/494 222/229/493 228/210/464 227/209/463
s 31
f 223/239/509 224/240/510 231/241/511 232/242/512
f 224/240/510 223/239/509 226/234/498 225/233/497
f 229/243/513 230/244/514 235/245/515 236/246/516
f 230/244/514 229/243/513 232/242/512 231/241/511
f 233/222/484 234/221/483 236/246/516 235/245/515
s 35
f 198/208/517 199/212/518 201/214/519 203/216/520 205/218/521 207/220/522
f 210/224/523 211/228/524 214/232/525 215/236/526 217/238/527 219/225/528
f 211/228/524 221/230/529 195/247/530 224/240/531 225/233/532 214/232/525
f 221/230/529 227/209/533 196/248/534 230/244/535 231/241/536 195/247/530
f 227/209/533 198/208/517 207/220/522 233/222/537 235/245/538 196/248/534
f 231/241/536 224/240/531 195/247/530
f 235/245/538 230/244/535 196/248/534
s 37
f 175/185/539 176/184/540 200/211/541 197/207/542
s off
f 176/184/543 177/186/544 202/213/545 200/211/546
f 177/186/547 178/187/548 204/215/549 202/213/550
s 38
f 178/187/551 179/188/552 206/217/553 204/215/554
f 179/188/552 180/189/555 208/219/556 206/217/553
s 37
f 181/192/557 182/191/558 212/227/559 209/223/560
s 40
f 183/194/561 184/193/562 216/235/563 213/231/564
f 184/193/562 185/195/565 218/237/566 216/235/563
s off
f 185/195/567 186/196/568 220/226/569 218/237/570
f 186/196/571 181/192/572 209/223/573 220/226/574
s 37
f 182/191/558 187/198/575 222/229/576 212/227/559
s 41
f 188/200/577 189/199/578 226/234/579 223/239/580
f 189/199/578 183/194/581 213/231/582 226/234/579
s 37
f 187/198/575 190/202/583 228/210/584 222/229/576
s 41
f 191/204/585 192/203/586 232/242/587 229/243/588
s 37
f 190/202/583 175/185/539 197/207/542 228/210/584
s 41
f 180/189/589 193/205/590 234/221/591 208/219/592
f 193/205/590 194/206/593 236/246/594 234/221/591
f 192/203/586 188/200/577 223/239/580 232/242/587
f 194/206/593 191/204/585 229/243/588 236/246/594
s 43
f 31/49/595 4/22/596 238/338/597 237/332/598
f 4/22/596 12/21/599 239/337/600 238/338/597
f 12/21/599 16/27/601 240/336/602 239/337/600
f 16/27/601 20/36/603 241/335/604 240/336/602
f 20/36/603 24/11/605 242/334/606 241/335/604
f 24/11/605 6/14/607 244/333/608 242/334/606
f 6/14/607 32/50/609 243/331/610 244/333/608
f 37/63/611 31/49/595 237/332/598 245/330/612
f 32/50/609 38/72/613 246/329/614 243/331/610
f 43/81/615 37/63/611 245/330/612 247/328/616
f 38/72/613 44/86/617 248/322/618 246/329/614
f 52/190/619 51/3/620 249/327/621 250/326/622
f 51/3/620 43/81/615 247/328/616 249/327/621
f 53/197/623 52/190/619 250/326/622 251/325/624
f 54/201/625 53/197/623 251/325/624 252/324/626
f 55/183/627 54/201/625 252/324/626 253/323/628
f 56/6/629 55/183/627 253/323/628 254/321/630
f 44/86/617 56/6/629 254/321/630 248/322/618
s 14
f 269/267/631 268/268/632 271/269/633 270/270/634
s 45
f 268/268/635 267/271/636 272/272/637 271/269/638
s 46
f 305/273/639 304/274/640 307/275/641 306/276/642
s 14
f 304/274/643 303/277/644 308/278/645 307/275/646
f 255/66/91 269/267/631 270/270/634 273/279/647
f 256/67/92 255/66/91 273/279/647 276/280/648
f 257/69/94 256/67/92 276/280/648 279/281/649
f 258/71/96 257/69/94 279/281/649 282/282/650
f 288/283/651 258/71/96 282/282/650 285/284/652
f 259/65/90 293/285/653 269/267/631 255/66/91
f 294/286/654 262/70/95 258/71/96 288/283/651
f 263/83/110 299/287/655 293/285/653 259/65/90
f 300/288/656 266/85/112 262/70/95 294/286/654
f 308/278/645 303/277/644 299/287/655 263/83/110
f 311/289/657 308/278/645 263/83/110 264/82/109
f 314/290/658 311/289/657 264/82/109 265/84/111
f 317/291/659 314/290/658 265/84/111 266/85/112
f 320/292/660 317/291/659 266/85/112 300/288/656
s 45
f 237/250/661 238/249/662 272/272/637 267/271/636
s 48
f 238/249/663 239/251/664 275/293/665 272/272/666
f 239/251/664 240/252/667 278/294/668 275/293/665
f 240/252/667 241/253/669 281/295/670 278/294/668
f 241/253/669 242/254/671 284/296/672 281/295/670
f 242/254/671 244/255/673 287/297/674 284/296/672
s 49
f 244/255/675 243/256/676 290/298/677 287/297/678
s 45
f 245/257/679 237/250/661 267/271/636 291/299/680
s 49
f 243/256/676 246/258/681 296/300/682 290/298/677
s 45
f 247/259/683 245/257/679 291/299/680 297/301/684
s 49
f 246/258/681 248/260/685 302/302/686 296/300/682
s 46
f 250/262/687 249/261/688 305/273/639 306/276/642
s 45
f 249/261/689 247/259/683 297/301/684 305/273/690
s 46
f 251/263/691 250/262/687 306/276/642 309/303/692
f 252/264/693 251/263/691 309/303/692 312/304/694
f 253/265/695 252/264/693 312/304/694 315/305/696
f 254/266/697 253/265/695 315/305/696 318/306/698
s 49
f 248/260/685 254/266/699 318/306/700 302/302/686
s 45
f 267/271/636 268/268/635 292/307/701 291/299/680
s 14
f 268/268/632 269/267/631 293/285/653 292/307/702
f 270/270/634 271/269/703 274/308/704 273/279/647
s 48
f 271/269/705 272/272/666 275/293/665 274/308/706
s 14
f 273/279/647 274/308/704 277/309/707 276/280/648
s 48
f 274/308/706 275/293/665 278/294/668 277/309/708
s 14
f 276/280/648 277/309/707 280/310/709 279/281/649
s 48
f 277/309/708 278/294/668 281/295/670 280/310/710
s 14
f 279/281/649 280/310/709 283/311/711 282/282/650
s 48
f 280/310/710 281/295/670 284/296/672 283/311/712
s 14
f 282/282/650 283/311/711 286/312/713 285/284/652
s 48
f 283/311/712 284/296/672 287/297/674 286/312/714
s 14
f 285/284/652 286/312/715 289/313/716 288/283/651
s 49
f 286/312/717 287/297/678 290/298/677 289/313/718
s 14
f 288/283/651 289/313/716 295/314/719 294/286/654
s 49
f 289/313/718 290/298/677 296/300/682 295/314/720
s 45
f 291/299/680 292/307/701 298/315/721 297/301/684
s 14
f 292/307/702 293/285/653 299/287/655 298/315/722
f 294/286/654 295/314/719 301/316/723 300/288/656
s 49
f 295/314/720 296/300/682 302/302/686 301/316/724
s 45
f 297/301/684 298/315/721 304/274/725 305/273/690
s 14
f 298/315/722 299/287/655 303/277/644 304/274/726
s 46
f 306/276/642 307/275/641 310/317/727 309/303/692
s 14
f 307/275/646 308/278/645 311/289/657 310/317/728
s 46
f 309/303/692 310/317/727 313/318/729 312/304/694
s 14
f 310/317/728 311/289/657 314/290/658 313/318/730
s 46
f 312/304/694 313/318/729 316/319/731 315/305/696
s 14
f 313/318/730 314/290/658 317/291/659 316/319/732
s 46
f 315/305/696 316/319/731 319/320/733 318/306/698
s 14
f 316/319/732 317/291/659 320/292/660 319/320/734
f 300/288/656 301/316/723 319/320/735 320/292/660
s 49
f 301/316/724 302/302/686 318/306/700 319/320/736
