# This file uses centimeters as units for non-parametric coordinates.

g default
v 2.790139 1.298072 -0.009319
v 5.012656 1.298072 -0.009319
v 2.790139 1.512636 -0.009319
v 5.012656 1.512636 -0.009319
v 2.790139 1.512636 -1.009319
v 5.012656 1.512636 -1.009319
v 2.790139 1.298072 -1.009319
v 5.012656 1.298072 -1.009319
v 2.790139 1.512636 -0.794504
v 2.790139 1.298072 -0.794504
v 5.012656 1.298072 -0.794504
v 5.012656 1.512636 -0.794504
v 2.790139 1.512636 -0.224134
v 2.790139 1.298072 -0.224134
v 5.012656 1.298072 -0.224134
v 5.012656 1.512636 -0.224134
v 4.769826 1.512636 -1.009319
v 4.769826 1.298072 -1.009319
v 4.769826 1.298072 -0.794504
v 4.769826 1.298072 -0.224134
v 4.769826 1.298072 -0.009319
v 4.769826 1.512636 -0.009319
v 4.769826 1.512636 -0.224134
v 4.769826 1.512636 -0.794504
v 3.032969 1.512636 -1.009319
v 3.032969 1.298072 -1.009319
v 3.032969 1.298072 -0.794504
v 3.032969 1.298072 -0.224134
v 3.032969 1.298072 -0.009319
v 3.032969 1.512636 -0.009319
v 3.032969 1.512636 -0.224134
v 3.032969 1.512636 -0.794504
v 2.790139 -0.010760 -0.224134
v 3.032969 -0.010760 -0.224134
v 3.032969 -0.010760 -0.009319
v 2.790139 -0.010760 -0.009319
v 2.790139 -0.010760 -1.009319
v 3.032969 -0.010760 -1.009319
v 3.032969 -0.010760 -0.794504
v 2.790139 -0.010760 -0.794504
v 4.769826 -0.010760 -1.009319
v 4.769826 -0.010760 -0.794504
v 5.012656 -0.010760 -1.009319
v 5.012656 -0.010760 -0.794504
v 4.769826 -0.010760 -0.224134
v 4.769826 -0.010760 -0.009319
v 5.012656 -0.010760 -0.224134
v 5.012656 -0.010760 -0.009319
v 2.746422 1.298072 0.033626
v 2.728984 1.303821 0.051448
v 2.716220 1.319527 0.064496
v 2.711548 1.340981 0.069271
v 3.032969 1.340981 0.147861
v 3.033660 1.319527 0.142112
v 3.035553 1.303821 0.126407
v 3.038137 1.298072 0.104953
v 3.038137 1.512636 0.104953
v 3.035553 1.506887 0.126407
v 3.033660 1.491182 0.142112
v 3.032969 1.469728 0.147861
v 2.711548 1.469728 0.069271
v 2.716220 1.491182 0.064496
v 2.728984 1.506887 0.051448
v 2.746422 1.512636 0.033626
v 2.746422 1.512636 -1.052263
v 2.728984 1.506887 -1.070086
v 2.716220 1.491182 -1.083133
v 2.711548 1.469728 -1.087909
v 3.032969 1.469728 -1.166498
v 3.033660 1.491182 -1.160750
v 3.035553 1.506887 -1.145044
v 3.038137 1.512636 -1.123590
v 3.038137 1.298072 -1.123590
v 3.035553 1.303821 -1.145044
v 3.033660 1.319527 -1.160750
v 3.032969 1.340981 -1.166498
v 2.711548 1.340981 -1.087909
v 2.716220 1.319527 -1.083133
v 2.728984 1.303821 -1.070086
v 2.746422 1.298072 -1.052263
v 5.169836 1.340981 -0.224134
v 5.164087 1.319527 -0.224890
v 5.148380 1.303821 -0.226957
v 5.126927 1.298072 -0.229781
v 5.056373 1.298072 0.033626
v 5.073810 1.303821 0.051448
v 5.086574 1.319527 0.064496
v 5.091246 1.340981 0.069271
v 5.126927 1.512636 -0.229781
v 5.148380 1.506887 -0.226957
v 5.164087 1.491182 -0.224890
v 5.169836 1.469728 -0.224134
v 5.091246 1.469728 0.069271
v 5.086574 1.491182 0.064496
v 5.073810 1.506887 0.051448
v 5.056373 1.512636 0.033626
v 2.675866 1.298072 -0.229781
v 2.654412 1.303821 -0.226957
v 2.638708 1.319527 -0.224890
v 2.632959 1.340981 -0.224134
v 2.632959 1.469728 -0.224134
v 2.638708 1.491182 -0.224890
v 2.654412 1.506887 -0.226957
v 2.675866 1.512636 -0.229781
v 2.632959 1.340981 -0.794504
v 2.638708 1.319527 -0.793747
v 2.654412 1.303821 -0.791680
v 2.675866 1.298072 -0.788857
v 2.675866 1.512636 -0.788857
v 2.654412 1.506887 -0.791680
v 2.638708 1.491182 -0.793747
v 2.632959 1.469728 -0.794504
v 5.126927 1.298072 -0.788857
v 5.148380 1.303821 -0.791680
v 5.164087 1.319527 -0.793747
v 5.169836 1.340981 -0.794504
v 5.091246 1.340981 -1.087909
v 5.086574 1.319527 -1.083133
v 5.073810 1.303821 -1.070086
v 5.056373 1.298072 -1.052263
v 5.169836 1.469728 -0.794504
v 5.164087 1.491182 -0.793747
v 5.148380 1.506887 -0.791680
v 5.126927 1.512636 -0.788857
v 5.056373 1.512636 -1.052263
v 5.073810 1.506887 -1.070086
v 5.086574 1.491182 -1.083133
v 5.091246 1.469728 -1.087909
v 4.764656 1.512636 -1.123590
v 4.767242 1.506887 -1.145044
v 4.769132 1.491182 -1.160750
v 4.769826 1.469728 -1.166498
v 4.769826 1.340981 -1.166498
v 4.769132 1.319527 -1.160750
v 4.767242 1.303821 -1.145044
v 4.764656 1.298072 -1.123590
v 4.764656 1.298072 0.104953
v 4.767242 1.303821 0.126407
v 4.769132 1.319527 0.142112
v 4.769826 1.340981 0.147861
v 4.769826 1.469728 0.147861
v 4.769132 1.491182 0.142112
v 4.767242 1.506887 0.126407
v 4.764656 1.512636 0.104953
vt 0.213985 0.566695
vt 0.216458 0.549139
vt 0.249972 0.553353
vt 0.248191 0.574102
vt 0.578685 0.812197
vt 0.592633 0.812226
vt 0.620054 0.812283
vt 0.634002 0.812311
vt 0.980536 0.833627
vt 0.939053 0.806377
vt 0.966475 0.806263
vt 0.897685 0.806548
vt 0.347849 0.575713
vt 0.345279 0.553797
vt 0.380449 0.549744
vt 0.381936 0.568644
vt 0.000000 0.000000
vt 0.963248 0.027590
vt 0.594233 0.033548
vt 0.000000 0.000000
vt 0.799002 0.806520
vt 0.826423 0.806531
vt 0.840370 0.806537
vt 0.785054 0.806514
vt 0.745026 0.029833
vt 0.799323 0.027840
vt 0.000000 0.000000
vt 0.000000 0.000000
vt 0.750325 0.835917
vt 0.750145 0.808496
vt 0.681356 0.808948
vt 0.708777 0.808768
vt 0.244855 0.402247
vt 0.206660 0.405555
vt 0.204277 0.388113
vt 0.242285 0.382431
vt 0.345425 0.398620
vt 0.347262 0.376817
vt 0.382274 0.400877
vt 0.383902 0.382040
vt 0.000000 0.000000
vt 0.000000 0.000000
vt 0.000000 0.000000
vt 0.000000 0.000000
vt 0.000000 0.000000
vt 0.000000 0.000000
vt 0.000000 0.000000
vt 0.000000 0.000000
vt 0.106507 0.663586
vt 0.090410 0.677605
vt 0.049957 0.625531
vt 0.069789 0.618338
vt 0.079764 0.690072
vt 0.033783 0.631146
vt 0.000000 0.000000
vt 0.000000 0.000000
vt 0.165645 0.554586
vt 0.180344 0.550718
vt 0.194240 0.578165
vt 0.183624 0.587110
vt 0.192008 0.548131
vt 0.203117 0.571187
vt 0.197553 0.548081
vt 0.207378 0.568279
vt 0.413467 0.591332
vt 0.402505 0.581113
vt 0.416363 0.551845
vt 0.430757 0.555946
vt 0.393395 0.573484
vt 0.404763 0.549063
vt 0.388876 0.570449
vt 0.399121 0.548823
vt 0.523847 0.606741
vt 0.543154 0.612717
vt 0.505492 0.665017
vt 0.488597 0.651709
vt 0.559076 0.617304
vt 0.517063 0.676658
vt 0.000000 0.000000
vt 0.000000 0.000000
vt 0.000000 0.000000
vt 0.177919 0.201200
vt 0.079727 0.277419
vt 0.000000 0.000000
vt 0.182474 0.217333
vt 0.090756 0.290037
vt 0.189277 0.237129
vt 0.107105 0.304456
vt 0.232706 0.339248
vt 0.237289 0.355605
vt 0.181442 0.375926
vt 0.169263 0.365964
vt 0.240722 0.368220
vt 0.191524 0.383235
vt 0.242035 0.373187
vt 0.196515 0.386217
vt 0.390613 0.240027
vt 0.397842 0.220306
vt 0.492219 0.286502
vt 0.475980 0.300883
vt 0.402709 0.204473
vt 0.503129 0.273933
vt 0.000000 0.000000
vt 0.000000 0.000000
vt 0.347073 0.366575
vt 0.348169 0.360955
vt 0.396295 0.376660
vt 0.391445 0.379897
vt 0.351048 0.346709
vt 0.406025 0.368621
vt 0.354958 0.327690
vt 0.417718 0.357809
vt 0.196144 0.722240
vt 0.239739 0.620080
vt 0.401559 0.713614
vt 0.357321 0.625886
vt 0.440517 0.391596
vt 0.510563 0.345467
vt 0.147731 0.399109
vt 0.073919 0.351653
vt 0.000000 0.000000
vt 0.248206 0.583907
vt 0.000000 0.000000
vt 0.348049 0.586011
vt 0.403108 0.400833
vt 0.000000 0.000000
vt 0.000000 0.000000
vt 0.185830 0.406120
vt 0.189870 0.742020
vt 0.185895 0.757984
vt 0.247129 0.589192
vt 0.244073 0.602549
vt 0.352605 0.606208
vt 0.349274 0.591658
vt 0.415716 0.750086
vt 0.410012 0.733968
vt 0.054100 0.344011
vt 0.038202 0.338115
vt 0.179374 0.406068
vt 0.165701 0.403281
vt 0.547121 0.331038
vt 0.530893 0.337380
vt 0.422806 0.396853
vt 0.409395 0.400325
vt 0.504284 0.265974
vt 0.554665 0.327960
vt 0.403763 0.197746
vt 0.417032 0.756827
vt 0.185270 0.764762
vt 0.030704 0.335255
vt 0.078433 0.269228
vt 0.177028 0.194388
vt 0.518554 0.684361
vt 0.566690 0.619525
vt 0.026181 0.633834
vt 0.078956 0.698068
vt 0.722724 0.808676
vt 0.764272 0.835825
vt 0.764092 0.808404
vt 0.758973 0.029741
vt 0.676237 0.030285
vt 0.785043 0.833936
vt 0.867792 0.806548
vt 0.868114 0.027869
vt 0.785376 0.027834
vt 0.798990 0.833942
vt 0.925106 0.806435
vt 0.980422 0.806205
vt 0.977195 0.027532
vt 0.894458 0.027875
vt 0.966589 0.833684
vt 0.661423 0.812368
vt 0.578629 0.839619
vt 0.592576 0.839648
vt 0.663024 0.033689
vt 0.580286 0.033519
vt 0.000000 0.000000
vt 0.621655 0.033604
vt 0.935826 0.027703
vt 0.000000 0.000000
vt 0.000000 0.000000
vt 0.717605 0.030013
vt 0.703658 0.030105
vt 0.826745 0.027852
vt 0.000000 0.000000
vt 0.840692 0.027857
vt 0.635602 0.033633
vt 0.921879 0.027761
vn 0.000000 1.000000 0.000000
vn 0.000000 1.000000 0.000000
vn 0.000000 1.000000 0.000000
vn 0.000000 1.000000 0.000000
vn 0.000000 -1.000000 0.000000
vn 0.000000 -1.000000 0.000000
vn 0.000000 -1.000000 0.000000
vn 0.000000 -1.000000 0.000000
vn 0.000000 -1.000000 0.000000
vn 0.000000 -1.000000 0.000000
vn 0.000000 -1.000000 0.000000
vn 0.000000 -1.000000 0.000000
vn 0.000000 1.000000 0.000000
vn 0.000000 1.000000 0.000000
vn 0.000000 1.000000 0.000000
vn 0.000000 1.000000 0.000000
vn 0.000000 -1.000000 0.000000
vn 0.000000 -1.000000 0.000000
vn 0.000000 -1.000000 0.000000
vn 0.000000 -1.000000 0.000000
vn 0.000000 -1.000000 0.000000
vn 0.000000 -1.000000 0.000000
vn 0.000000 -1.000000 0.000000
vn 0.000000 -1.000000 0.000000
vn 0.000000 -1.000000 0.000000
vn 0.000000 -1.000000 0.000000
vn 0.000000 -1.000000 0.000000
vn 0.000000 -1.000000 0.000000
vn 0.000000 -1.000000 0.000000
vn 0.000000 -1.000000 0.000000
vn 0.000000 -1.000000 0.000000
vn 0.000000 -1.000000 0.000000
vn 0.000000 1.000000 0.000000
vn 0.000000 1.000000 0.000000
vn 0.000000 1.000000 0.000000
vn 0.000000 1.000000 0.000000
vn 0.000000 1.000000 0.000000
vn 0.000000 1.000000 0.000000
vn 0.000000 1.000000 0.000000
vn 0.000000 1.000000 0.000000
vn 0.000000 -1.000000 -0.000000
vn 0.000000 -1.000000 -0.000000
vn 0.000000 -1.000000 0.000000
vn 0.000000 -1.000000 0.000000
vn 0.000000 0.000000 -1.000000
vn 0.000000 0.000000 -1.000000
vn 0.000000 0.000000 -1.000000
vn 0.000000 0.000000 -1.000000
vn 1.000000 0.000000 0.000000
vn 1.000000 0.000000 0.000000
vn 1.000000 0.000000 0.000000
vn 1.000000 0.000000 0.000000
vn 0.000000 0.000000 1.000000
vn 0.000000 0.000000 1.000000
vn 0.000000 0.000000 1.000000
vn 0.000000 0.000000 1.000000
vn -1.000000 0.000000 0.000000
vn -1.000000 0.000000 0.000000
vn -1.000000 0.000000 0.000000
vn -1.000000 0.000000 0.000000
vn 0.000000 0.000000 -1.000000
vn 0.000000 0.000000 -1.000000
vn 0.000000 0.000000 -1.000000
vn 0.000000 0.000000 -1.000000
vn 1.000000 0.000000 0.000000
vn 1.000000 0.000000 0.000000
vn 1.000000 0.000000 0.000000
vn 1.000000 0.000000 0.000000
vn 0.000000 0.000000 1.000000
vn 0.000000 0.000000 1.000000
vn 0.000000 0.000000 1.000000
vn 0.000000 0.000000 1.000000
vn -1.000000 0.000000 0.000000
vn -1.000000 0.000000 0.000000
vn -1.000000 0.000000 0.000000
vn -1.000000 0.000000 0.000000
vn -1.000000 0.000000 0.000000
vn -1.000000 0.000000 0.000000
vn -1.000000 0.000000 0.000000
vn -1.000000 0.000000 0.000000
vn 0.000000 0.000000 -1.000000
vn 0.000000 0.000000 -1.000000
vn 0.000000 0.000000 -1.000000
vn 0.000000 0.000000 -1.000000
vn 1.000000 0.000000 0.000000
vn 1.000000 0.000000 0.000000
vn 1.000000 0.000000 0.000000
vn 1.000000 0.000000 0.000000
vn 0.000000 0.000000 1.000000
vn 0.000000 0.000000 1.000000
vn 0.000000 0.000000 1.000000
vn 0.000000 0.000000 1.000000
vn -1.000000 0.000000 0.000000
vn -1.000000 0.000000 0.000000
vn -1.000000 0.000000 0.000000
vn -1.000000 0.000000 0.000000
vn 0.000000 0.000000 -1.000000
vn 0.000000 0.000000 -1.000000
vn 0.000000 0.000000 -1.000000
vn 0.000000 0.000000 -1.000000
vn 1.000000 0.000000 0.000000
vn 1.000000 0.000000 0.000000
vn 1.000000 0.000000 0.000000
vn 1.000000 0.000000 0.000000
vn 0.000000 0.000000 1.000000
vn 0.000000 0.000000 1.000000
vn 0.000000 0.000000 1.000000
vn 0.000000 0.000000 1.000000
vn -0.237338 -0.038131 0.970678
vn -0.229419 -0.258814 0.938287
vn -0.032299 -0.498593 0.866234
vn -0.038037 -0.038212 0.998545
vn -0.167946 -0.707107 0.686872
vn -0.319837 -0.881684 0.346896
vn -0.018682 -0.862192 0.506236
vn -0.056536 -0.997123 0.050488
vn -0.001890 -0.998910 0.046650
vn -0.038037 0.038212 0.998545
vn -0.032299 0.498593 0.866234
vn -0.229419 0.258815 0.938287
vn -0.237338 0.038131 0.970678
vn -0.018682 0.862193 0.506235
vn -0.319836 0.881685 0.346895
vn -0.167946 0.707107 0.686872
vn -0.001890 0.998910 0.046649
vn -0.056535 0.997123 0.050487
vn -0.237338 0.038131 -0.970678
vn -0.205862 0.498756 -0.841941
vn -0.032299 0.498593 -0.866234
vn -0.038037 0.038212 -0.998545
vn -0.167946 0.707107 -0.686873
vn -0.027402 0.708490 -0.705189
vn -0.366055 0.910375 -0.192929
vn -0.056535 0.997123 -0.050487
vn -0.001890 0.998910 -0.046649
vn -0.008044 0.966137 -0.257904
vn -0.038037 -0.038212 -0.998545
vn -0.032299 -0.498593 -0.866234
vn -0.205861 -0.498756 -0.841940
vn -0.237338 -0.038131 -0.970678
vn -0.027402 -0.708490 -0.705189
vn -0.167946 -0.707107 -0.686873
vn -0.008044 -0.966136 -0.257908
vn -0.001890 -0.998910 -0.046650
vn -0.056536 -0.997123 -0.050488
vn -0.366056 -0.910374 -0.192930
vn 0.047237 -0.998876 0.003847
vn 0.255829 -0.966428 0.023835
vn 0.132134 -0.973845 0.184842
vn 0.056536 -0.997123 0.050488
vn 0.701677 -0.709832 0.061548
vn 0.862322 -0.500301 0.078099
vn 0.847000 -0.480749 0.226871
vn 0.683014 -0.707123 0.182945
vn 0.995152 -0.038365 0.090560
vn 0.965284 -0.037086 0.258555
vn 0.995152 0.038365 0.090560
vn 0.862322 0.500301 0.078099
vn 0.847000 0.480749 0.226871
vn 0.965284 0.037086 0.258555
vn 0.701677 0.709832 0.061548
vn 0.683014 0.707123 0.182946
vn 0.255825 0.966429 0.023835
vn 0.047236 0.998876 0.003847
vn 0.056535 0.997123 0.050488
vn 0.132131 0.973846 0.184839
vn 0.995152 -0.038365 -0.090560
vn 0.862322 -0.500301 -0.078099
vn 0.847000 -0.480749 -0.226871
vn 0.965284 -0.037086 -0.258555
vn 0.701677 -0.709832 -0.061548
vn 0.683014 -0.707123 -0.182946
vn 0.255830 -0.966428 -0.023835
vn 0.047237 -0.998876 -0.003847
vn 0.056536 -0.997123 -0.050488
vn 0.132134 -0.973845 -0.184842
vn 0.047236 0.998876 -0.003847
vn 0.255825 0.966429 -0.023835
vn 0.132131 0.973846 -0.184839
vn 0.056535 0.997123 -0.050488
vn 0.701677 0.709832 -0.061548
vn 0.862322 0.500301 -0.078099
vn 0.847000 0.480749 -0.226871
vn 0.683014 0.707123 -0.182945
vn 0.995152 0.038365 -0.090560
vn 0.965284 0.037086 -0.258555
vn -0.995152 -0.038365 0.090560
vn -0.965285 -0.037088 0.258553
vn -0.965285 0.037088 0.258553
vn -0.995152 0.038365 0.090560
vn -0.965285 -0.037088 -0.258553
vn -0.995152 -0.038365 -0.090560
vn -0.995152 0.038365 -0.090560
vn -0.965285 0.037088 -0.258553
vn 0.038038 0.038212 -0.998545
vn 0.237339 0.038133 -0.970678
vn 0.237339 -0.038133 -0.970678
vn 0.038038 -0.038212 -0.998545
vn 0.038038 0.038212 0.998545
vn 0.038038 -0.038212 0.998545
vn 0.237339 -0.038132 0.970678
vn 0.237339 0.038133 0.970678
vn 0.000000 -1.000000 0.000000
vn 0.000000 -1.000000 -0.000000
vn 0.000000 -1.000000 0.000000
vn -0.047236 -0.998876 0.003847
vn -0.047235 0.998876 0.003847
vn -0.047236 -0.998876 -0.003847
vn -0.047235 0.998876 -0.003847
vn 0.000000 -1.000000 -0.000000
vn 0.001890 0.998909 -0.046649
vn 0.001890 -0.998910 -0.046650
vn 0.001890 -0.998910 0.046650
vn 0.001890 0.998910 0.046649
vn -0.933033 -0.258827 0.249915
vn -0.862343 -0.500264 0.078101
vn -0.502058 -0.863676 0.044740
vn -0.683045 -0.707090 0.182956
vn -0.502057 0.863677 0.044740
vn -0.933033 0.258827 0.249915
vn -0.862343 0.500264 0.078101
vn -0.683045 0.707090 0.182956
vn -0.933033 0.258827 -0.249915
vn -0.862343 0.500265 -0.078101
vn -0.502056 0.863677 -0.044740
vn -0.683043 0.707092 -0.182956
vn -0.502058 -0.863676 -0.044740
vn -0.933033 -0.258827 -0.249915
vn -0.862343 -0.500265 -0.078101
vn -0.683043 -0.707092 -0.182956
vn 0.229418 -0.258823 0.938285
vn 0.032299 -0.498593 0.866234
vn 0.008044 -0.966136 0.257908
vn 0.167947 -0.707103 0.686877
vn 0.167947 -0.707103 0.686877
vn 0.027403 -0.708489 0.705189
vn 0.008044 0.966137 0.257904
vn 0.229418 0.258824 0.938284
vn 0.032299 0.498593 0.866234
vn 0.167947 0.707103 0.686877
vn 0.167947 0.707103 0.686877
vn 0.027403 0.708489 0.705189
vn 0.008044 -0.966136 -0.257908
vn 0.205861 -0.498755 -0.841941
vn 0.032299 -0.498593 -0.866234
vn 0.167947 -0.707101 -0.686878
vn 0.027403 -0.708489 -0.705189
vn 0.205861 0.498755 -0.841941
vn 0.032299 0.498593 -0.866234
vn 0.008044 0.966137 -0.257904
vn 0.167947 0.707102 -0.686878
vn 0.027403 0.708489 -0.705189
s 1
g Defendant
f 3/1/1 30/2/2 31/3/3 13/4/4
s off
f 33/5/5 34/6/6 35/174/7 36/173/8
f 37/9/9 38/171/10 39/11/11 40/168/12
s 1
f 9/13/13 32/14/14 25/15/15 5/16/16
f 10/17/17 27/180/18 28/177/19 14/20/20
f 13/4/4 31/3/3 32/14/14 9/13/13
s off
f 42/21/21 41/166/22 43/162/23 44/24/24
s 1
f 20/181/25 19/185/26 11/27/27 15/28/28
s off
f 46/29/29 45/30/30 47/159/31 48/158/32
s 1
f 23/33/33 22/34/34 4/35/35 16/36/36
f 24/37/37 23/33/33 16/36/36 12/38/38
f 17/39/39 24/37/37 12/38/38 6/40/40
f 27/180/18 26/41/41 18/42/42 19/185/26
f 28/177/19 27/180/18 19/185/26 20/181/25
f 29/43/43 28/177/19 20/181/25 21/44/44
f 31/3/3 30/2/2 22/34/34 23/33/33
f 32/14/14 31/3/3 23/33/33 24/37/37
f 25/15/15 32/14/14 24/37/37 17/39/39
s off
f 14/176/45 28/19/46 34/6/47 33/5/48
f 28/19/49 29/178/50 35/7/51 34/6/52
f 29/178/53 1/187/54 36/8/55 35/7/56
f 1/187/57 14/175/58 33/172/59 36/8/60
f 7/188/61 26/179/62 38/10/63 37/167/64
f 26/179/65 27/18/66 39/11/67 38/10/68
f 27/18/69 10/169/70 40/168/71 39/11/72
f 10/170/73 7/188/74 37/167/75 40/12/76
f 19/26/77 18/184/78 41/22/79 42/21/80
f 18/184/81 8/186/82 43/23/83 41/22/84
f 8/186/85 11/164/86 44/163/87 43/23/88
f 11/165/89 19/26/90 42/21/91 44/24/92
f 21/182/93 20/25/94 45/30/95 46/157/96
f 20/25/97 15/160/98 47/159/99 45/30/100
f 15/161/101 2/183/102 48/32/103 47/31/104
f 2/183/105 21/182/106 46/157/107 48/32/108
s 1
f 52/49/109 51/50/110 54/51/111 53/52/112
f 51/50/113 50/53/114 55/54/115 54/51/111
f 50/53/114 49/156/116 56/155/117 55/54/115
f 60/57/118 59/58/119 62/59/120 61/60/121
f 59/58/119 58/61/122 63/62/123 62/59/124
f 58/61/122 57/63/125 64/64/126 63/62/123
s 8
f 68/65/127 67/66/128 70/67/129 69/68/130
f 67/66/128 66/69/131 71/70/132 70/67/129
s 1
f 66/69/133 65/71/134 72/72/135 71/70/136
s 8
f 76/73/137 75/74/138 78/75/139 77/76/140
f 75/74/138 74/77/141 79/78/142 78/75/139
s 1
f 74/77/143 73/154/144 80/153/145 79/78/146
f 84/152/147 83/82/148 86/83/149 85/151/150
s 13
f 83/82/151 82/85/152 87/86/153 86/83/154
f 82/85/152 81/87/155 88/88/156 87/86/153
f 92/89/157 91/90/158 94/91/159 93/92/160
f 91/90/158 90/93/161 95/94/162 94/91/159
s 1
f 90/93/163 89/95/164 96/96/165 95/94/166
s 13
f 116/97/167 115/98/168 118/99/169 117/100/170
f 115/98/168 114/101/171 119/102/172 118/99/169
s 1
f 114/101/173 113/147/174 120/145/175 119/102/176
f 124/105/177 123/106/178 126/107/179 125/108/180
s 13
f 123/106/181 122/109/182 127/110/183 126/107/184
f 122/109/182 121/111/185 128/112/186 127/110/183
s 1
f 52/49/109 53/52/112 60/57/118 61/60/121
s 8
f 68/65/127 69/68/130 76/73/137 77/76/140
s 13
f 88/88/156 81/87/155 92/89/157 93/92/160
s 1
f 100/113/187 52/49/188 61/60/189 101/114/190
f 77/76/191 105/115/192 112/116/193 68/65/194
s 13
f 121/111/185 116/97/167 117/100/170 128/112/186
s 1
f 105/115/192 100/113/187 101/114/190 112/116/193
s 13
f 92/89/157 81/87/155 116/97/167 121/111/185
s 8
f 132/117/195 128/112/196 117/100/197 133/118/198
s 1
f 141/119/199 140/120/200 88/88/201 93/92/202
s 8
f 69/68/130 132/117/195 133/118/198 76/73/137
s 1
f 60/57/118 53/52/112 140/120/200 141/119/199
f 1/45/203 29/43/43 56/56/117 49/55/116
f 30/2/2 3/1/1 64/64/126 57/63/125
f 5/16/16 25/15/15 72/72/135 65/71/134
f 26/41/41 7/46/204 80/80/145 73/79/144
f 2/48/205 15/28/28 84/81/147 85/84/150
f 16/36/36 4/35/35 96/96/165 89/95/164
f 14/20/20 1/45/203 49/55/116 97/121/206
f 3/1/1 13/4/4 104/122/207 64/64/126
f 7/46/204 10/17/17 108/123/208 80/80/145
f 9/13/13 5/16/16 65/71/134 109/124/209
f 11/27/27 8/47/210 120/104/175 113/103/174
f 6/40/40 12/38/38 124/105/177 125/108/180
f 10/17/17 14/20/20 97/121/206 108/123/208
f 13/4/4 9/13/13 109/124/209 104/122/207
f 15/28/28 11/27/27 113/103/174 84/81/147
f 12/38/38 16/36/36 89/95/164 124/105/177
f 17/39/39 6/40/40 125/108/180 129/125/211
f 8/47/210 18/42/42 136/126/212 120/104/175
f 21/44/44 2/48/205 85/84/150 137/127/213
f 4/35/35 22/34/34 144/128/214 96/96/165
f 25/15/15 17/39/39 129/125/211 72/72/135
f 18/42/42 26/41/41 73/79/144 136/126/212
f 29/43/43 21/44/44 137/127/213 56/56/117
f 22/34/34 30/2/2 57/63/125 144/128/214
f 51/50/215 52/49/188 100/113/187 99/129/216
f 49/156/116 50/53/114 98/130/217 97/149/206
f 50/53/114 51/50/218 99/129/216 98/130/217
f 63/62/123 64/64/126 104/122/207 103/131/219
f 61/60/189 62/59/220 102/132/221 101/114/190
f 62/59/222 63/62/123 103/131/219 102/132/221
f 67/66/223 68/65/194 112/116/193 111/133/224
f 65/71/134 66/69/133 110/134/225 109/124/209
f 66/69/133 67/66/226 111/133/224 110/134/225
f 79/78/146 80/153/145 108/148/208 107/135/227
f 77/76/191 78/75/228 106/136/229 105/115/192
f 78/75/230 79/78/146 107/135/227 106/136/229
f 87/86/231 88/88/201 140/120/200 139/137/232
f 85/151/150 86/83/149 138/138/233 137/150/213
f 86/83/234 87/86/235 139/137/232 138/138/236
f 95/94/166 96/96/165 144/128/214 143/139/237
f 93/92/202 94/91/238 142/140/239 141/119/199
f 94/91/240 95/94/241 143/139/242 142/140/239
f 97/149/206 98/130/217 107/135/227 108/148/208
f 98/130/217 99/129/216 106/136/229 107/135/227
f 99/129/216 100/113/187 105/115/192 106/136/229
f 101/114/190 102/132/221 111/133/224 112/116/193
f 102/132/221 103/131/219 110/134/225 111/133/224
f 103/131/219 104/122/207 109/124/209 110/134/225
s 13
f 81/87/155 82/85/152 115/98/168 116/97/167
f 82/85/152 83/82/151 114/101/171 115/98/168
s 1
f 83/82/148 84/152/147 113/147/174 114/101/173
f 119/102/176 120/145/175 136/146/212 135/141/243
s 8
f 117/100/197 118/99/244 134/142/245 133/118/198
f 118/99/244 119/102/246 135/141/247 134/142/245
s 1
f 89/95/164 90/93/163 123/106/178 124/105/177
s 13
f 90/93/161 91/90/158 122/109/182 123/106/181
f 91/90/158 92/89/157 121/111/185 122/109/182
s 8
f 127/110/248 128/112/196 132/117/195 131/143/249
s 1
f 125/108/180 126/107/179 130/144/250 129/125/211
s 8
f 126/107/251 127/110/248 131/143/249 130/144/252
f 69/68/130 70/67/129 131/143/249 132/117/195
f 70/67/129 71/70/132 130/144/252 131/143/249
s 1
f 71/70/136 72/72/135 129/125/211 130/144/250
f 73/154/144 74/77/143 135/141/243 136/146/212
s 8
f 74/77/141 75/74/138 134/142/245 135/141/247
f 75/74/138 76/73/137 133/118/198 134/142/245
s 1
f 53/52/112 54/51/111 139/137/232 140/120/200
f 54/51/111 55/54/115 138/138/236 139/137/232
f 55/54/115 56/155/117 137/150/213 138/138/233
f 57/63/125 58/61/122 143/139/237 144/128/214
f 58/61/122 59/58/119 142/140/239 143/139/242
f 59/58/119 60/57/118 141/119/199 142/140/239
