# This file uses centimeters as units for non-parametric coordinates.

mtllib General Store.mtl
g default
v -1.200503 -1.489826 -0.135049
v -0.049093 -0.022559 -0.135049
v -0.049093 5.212916 -0.135049
v 9.982170 5.212916 -0.135049
v 11.074648 6.390354 -0.135049
v -1.200503 6.390354 -0.135049
v 11.074648 6.390354 -1.135049
v 11.074648 -1.489826 -1.135049
v -1.200503 -1.489826 -1.135049
v -0.049093 -0.022559 -1.135049
v 9.982170 -0.022559 -1.135049
v 9.982170 5.212916 -1.135049
v -0.049093 5.212916 -1.135049
v 9.982170 -0.022559 -0.135049
v 11.074648 -1.489826 -0.135049
v -1.200503 6.390354 -1.135049
v 9.978989 -0.411243 -1.047173
v 10.215279 -0.411243 -1.047173
v 9.978989 5.350591 -1.047173
v 10.215279 5.350591 -1.047173
v 9.978989 5.350591 -5.864143
v 10.215279 5.350591 -5.864143
v 9.978989 -0.411243 -5.864143
v 10.215279 -0.411243 -5.864143
v -0.194312 -0.038997 -5.715056
v 10.155463 -0.038997 -5.715056
v -0.194312 5.361734 -5.715056
v 10.155463 5.361734 -5.715056
v -0.194312 5.361734 -5.858926
v 10.155463 5.361734 -5.858926
v -0.194312 -0.038997 -5.858926
v 10.155463 -0.038997 -5.858926
v -0.124136 -0.215932 -1.137303
v 10.190527 -0.215932 -1.137303
v -0.124136 -0.030108 -1.137303
v 10.190527 -0.030108 -1.137303
v -0.124136 -0.030108 -5.833027
v 10.190527 -0.030108 -5.833027
v -0.124136 -0.215932 -5.833027
v 10.190527 -0.215932 -5.833027
v -0.281691 -0.411243 -1.138989
v -0.045401 -0.411243 -1.138989
v -0.281691 5.350591 -1.138989
v -0.045401 5.350591 -1.138989
v -0.281691 5.350591 -5.802493
v -0.045401 5.350591 -5.802493
v -0.281691 -0.411243 -5.802493
v -0.045401 -0.411243 -5.802493
v -0.314866 5.205896 -1.137303
v 10.221450 5.205896 -1.137303
v -0.314866 5.391721 -1.137303
v 10.221450 5.391721 -1.137303
v -0.314866 5.391721 -5.833027
v 10.221450 5.391721 -5.833027
v -0.314866 5.205896 -5.833027
v 10.221450 5.205896 -5.833027
vt 0.375000 0.000000
vt 0.398450 0.046549
vt 0.398450 0.212646
vt 0.602750 0.212646
vt 0.625000 0.250000
vt 0.375000 0.250000
vt 0.625000 0.500000
vt 0.625000 0.750000
vt 0.375000 0.750000
vt 0.398450 0.703451
vt 0.602750 0.703451
vt 0.602750 0.537354
vt 0.625000 0.252568
vt 0.375000 0.252568
vt 0.375000 0.495921
vt 0.625000 0.495921
vt 0.602750 0.046549
vt 0.625000 0.000000
vt 0.375000 0.500000
vt 0.627568 0.000000
vt 0.627568 0.250000
vt 0.870921 0.250000
vt 0.870921 0.000000
vt 0.875000 0.000000
vt 0.875000 0.250000
vt 0.398450 0.537354
vt 0.625000 0.754079
vt 0.375000 0.754079
vt 0.375000 0.997432
vt 0.625000 0.997432
vt 0.625000 1.000000
vt 0.375000 1.000000
vt 0.129079 0.000000
vt 0.129079 0.250000
vt 0.372432 0.250000
vt 0.372432 0.000000
vt 0.125000 0.000000
vt 0.125000 0.250000
vt 0.375000 0.000000
vt 0.625000 0.000000
vt 0.625000 0.250000
vt 0.375000 0.250000
vt 0.625000 0.500000
vt 0.375000 0.500000
vt 0.625000 0.750000
vt 0.375000 0.750000
vt 0.625000 1.000000
vt 0.375000 1.000000
vt 0.875000 0.000000
vt 0.875000 0.250000
vt 0.125000 0.000000
vt 0.125000 0.250000
vt 0.375000 0.000000
vt 0.625000 0.000000
vt 0.625000 0.250000
vt 0.375000 0.250000
vt 0.625000 0.500000
vt 0.375000 0.500000
vt 0.625000 0.750000
vt 0.375000 0.750000
vt 0.625000 1.000000
vt 0.375000 1.000000
vt 0.875000 0.000000
vt 0.875000 0.250000
vt 0.125000 0.000000
vt 0.125000 0.250000
vt 0.375000 0.000000
vt 0.625000 0.000000
vt 0.625000 0.250000
vt 0.375000 0.250000
vt 0.625000 0.500000
vt 0.375000 0.500000
vt 0.625000 0.750000
vt 0.375000 0.750000
vt 0.625000 1.000000
vt 0.375000 1.000000
vt 0.875000 0.000000
vt 0.875000 0.250000
vt 0.125000 0.000000
vt 0.125000 0.250000
vt 0.375000 0.000000
vt 0.625000 0.000000
vt 0.625000 0.250000
vt 0.375000 0.250000
vt 0.625000 0.500000
vt 0.375000 0.500000
vt 0.625000 0.750000
vt 0.375000 0.750000
vt 0.625000 1.000000
vt 0.375000 1.000000
vt 0.875000 0.000000
vt 0.875000 0.250000
vt 0.125000 0.000000
vt 0.125000 0.250000
vt 0.375000 0.000000
vt 0.625000 0.000000
vt 0.625000 0.250000
vt 0.375000 0.250000
vt 0.625000 0.500000
vt 0.375000 0.500000
vt 0.625000 0.750000
vt 0.375000 0.750000
vt 0.625000 1.000000
vt 0.375000 1.000000
vt 0.875000 0.000000
vt 0.875000 0.250000
vt 0.125000 0.000000
vt 0.125000 0.250000
vn 0.000000 0.000000 1.000000
vn 0.000000 0.000000 1.000000
vn 0.000000 0.000000 1.000000
vn 0.000000 0.000000 1.000000
vn 0.000000 0.000000 1.000000
vn 0.000000 0.000000 1.000000
vn -0.000000 0.000000 -1.000000
vn -0.000000 0.000000 -1.000000
vn -0.000000 0.000000 -1.000000
vn -0.000000 0.000000 -1.000000
vn -0.000000 0.000000 -1.000000
vn -0.000000 0.000000 -1.000000
vn 0.000000 -1.000000 0.000000
vn 0.000000 -1.000000 0.000000
vn 0.000000 -1.000000 0.000000
vn 0.000000 -1.000000 0.000000
vn 0.000000 0.000000 1.000000
vn 0.000000 0.000000 1.000000
vn 0.000000 1.000000 0.000000
vn 0.000000 1.000000 0.000000
vn 0.000000 1.000000 0.000000
vn 0.000000 1.000000 0.000000
vn -1.000000 0.000000 0.000000
vn -1.000000 0.000000 0.000000
vn -1.000000 0.000000 0.000000
vn -1.000000 0.000000 0.000000
vn 1.000000 0.000000 0.000000
vn 1.000000 0.000000 0.000000
vn 1.000000 0.000000 0.000000
vn 1.000000 0.000000 0.000000
vn 0.000000 0.000000 -1.000000
vn 0.000000 0.000000 -1.000000
vn 0.000000 1.000000 0.000000
vn 0.000000 1.000000 0.000000
vn 0.000000 1.000000 0.000000
vn 0.000000 1.000000 0.000000
vn 0.000000 -1.000000 0.000000
vn 0.000000 -1.000000 0.000000
vn 0.000000 -1.000000 0.000000
vn 0.000000 -1.000000 0.000000
vn 1.000000 0.000000 0.000000
vn 1.000000 0.000000 0.000000
vn 1.000000 0.000000 0.000000
vn 1.000000 0.000000 0.000000
vn -1.000000 0.000000 0.000000
vn -1.000000 0.000000 0.000000
vn -1.000000 0.000000 0.000000
vn -1.000000 0.000000 0.000000
vn 0.000000 0.000000 1.000000
vn 0.000000 0.000000 1.000000
vn 0.000000 0.000000 1.000000
vn 0.000000 0.000000 1.000000
vn 0.000000 1.000000 0.000000
vn 0.000000 1.000000 0.000000
vn 0.000000 1.000000 0.000000
vn 0.000000 1.000000 0.000000
vn 0.000000 0.000000 -1.000000
vn 0.000000 0.000000 -1.000000
vn 0.000000 0.000000 -1.000000
vn 0.000000 0.000000 -1.000000
vn 0.000000 -1.000000 0.000000
vn 0.000000 -1.000000 0.000000
vn 0.000000 -1.000000 0.000000
vn 0.000000 -1.000000 0.000000
vn 1.000000 0.000000 0.000000
vn 1.000000 0.000000 0.000000
vn 1.000000 0.000000 0.000000
vn 1.000000 0.000000 0.000000
vn -1.000000 0.000000 0.000000
vn -1.000000 0.000000 0.000000
vn -1.000000 0.000000 0.000000
vn -1.000000 0.000000 0.000000
vn 0.000000 0.000000 1.000000
vn 0.000000 0.000000 1.000000
vn 0.000000 0.000000 1.000000
vn 0.000000 0.000000 1.000000
vn 0.000000 1.000000 0.000000
vn 0.000000 1.000000 0.000000
vn 0.000000 1.000000 0.000000
vn 0.000000 1.000000 0.000000
vn 0.000000 0.000000 -1.000000
vn 0.000000 0.000000 -1.000000
vn 0.000000 0.000000 -1.000000
vn 0.000000 0.000000 -1.000000
vn 0.000000 -1.000000 0.000000
vn 0.000000 -1.000000 0.000000
vn 0.000000 -1.000000 0.000000
vn 0.000000 -1.000000 0.000000
vn 1.000000 0.000000 0.000000
vn 1.000000 0.000000 0.000000
vn 1.000000 0.000000 0.000000
vn 1.000000 0.000000 0.000000
vn -1.000000 0.000000 0.000000
vn -1.000000 0.000000 0.000000
vn -1.000000 0.000000 0.000000
vn -1.000000 0.000000 0.000000
vn 0.000000 0.000000 1.000000
vn 0.000000 0.000000 1.000000
vn 0.000000 0.000000 1.000000
vn 0.000000 0.000000 1.000000
vn 0.000000 1.000000 0.000000
vn 0.000000 1.000000 0.000000
vn 0.000000 1.000000 0.000000
vn 0.000000 1.000000 0.000000
vn 0.000000 0.000000 -1.000000
vn 0.000000 0.000000 -1.000000
vn 0.000000 0.000000 -1.000000
vn 0.000000 0.000000 -1.000000
vn 0.000000 -1.000000 0.000000
vn 0.000000 -1.000000 0.000000
vn 0.000000 -1.000000 0.000000
vn 0.000000 -1.000000 0.000000
vn 1.000000 0.000000 0.000000
vn 1.000000 0.000000 0.000000
vn 1.000000 0.000000 0.000000
vn 1.000000 0.000000 0.000000
vn -1.000000 0.000000 0.000000
vn -1.000000 0.000000 0.000000
vn -1.000000 0.000000 0.000000
vn -1.000000 0.000000 0.000000
vn 0.000000 0.000000 1.000000
vn 0.000000 0.000000 1.000000
vn 0.000000 0.000000 1.000000
vn 0.000000 0.000000 1.000000
vn 0.000000 1.000000 0.000000
vn 0.000000 1.000000 0.000000
vn 0.000000 1.000000 0.000000
vn 0.000000 1.000000 0.000000
vn 0.000000 0.000000 -1.000000
vn 0.000000 0.000000 -1.000000
vn 0.000000 0.000000 -1.000000
vn 0.000000 0.000000 -1.000000
vn 0.000000 -1.000000 0.000000
vn 0.000000 -1.000000 0.000000
vn 0.000000 -1.000000 0.000000
vn 0.000000 -1.000000 0.000000
vn 1.000000 0.000000 0.000000
vn 1.000000 0.000000 0.000000
vn 1.000000 0.000000 0.000000
vn 1.000000 0.000000 0.000000
vn -1.000000 0.000000 0.000000
vn -1.000000 0.000000 0.000000
vn -1.000000 0.000000 0.000000
vn -1.000000 0.000000 0.000000
vn 0.000000 0.000000 1.000000
vn 0.000000 0.000000 1.000000
vn 0.000000 0.000000 1.000000
vn 0.000000 0.000000 1.000000
vn 0.000000 1.000000 0.000000
vn 0.000000 1.000000 0.000000
vn 0.000000 1.000000 0.000000
vn 0.000000 1.000000 0.000000
vn 0.000000 0.000000 -1.000000
vn 0.000000 0.000000 -1.000000
vn 0.000000 0.000000 -1.000000
vn 0.000000 0.000000 -1.000000
vn 0.000000 -1.000000 0.000000
vn 0.000000 -1.000000 0.000000
vn 0.000000 -1.000000 0.000000
vn 0.000000 -1.000000 0.000000
vn 1.000000 0.000000 0.000000
vn 1.000000 0.000000 0.000000
vn 1.000000 0.000000 0.000000
vn 1.000000 0.000000 0.000000
vn -1.000000 0.000000 0.000000
vn -1.000000 0.000000 0.000000
vn -1.000000 0.000000 0.000000
vn -1.000000 0.000000 0.000000
s 1
g RoomScale:RoomScale:RoomModule1
usemtl initialShadingGroup
f 1/1/1 2/2/2 3/3/3 4/4/4 5/5/5 6/6/6
s 2
f 7/7/7 8/8/8 9/9/9 10/10/10 11/11/11 12/12/12
s off
f 4/13/13 3/14/14 13/15/15 12/16/16
s 1
f 4/4/4 14/17/17 2/2/2 1/1/1 15/18/18 5/5/5
s off
f 6/6/19 5/5/20 7/7/21 16/19/22
f 14/20/23 4/21/24 12/22/25 11/23/26
f 15/18/27 8/24/28 7/25/29 5/5/30
s 2
f 16/19/31 7/7/7 12/12/12 13/26/32 10/10/10 9/9/9
s off
f 11/27/33 10/28/34 2/29/35 14/30/36
f 9/9/37 8/8/38 15/31/39 1/32/40
f 10/33/41 13/34/42 3/35/43 2/36/44
f 9/37/45 1/1/46 6/6/47 16/38/48
f 17/39/49 18/40/50 20/41/51 19/42/52
f 19/42/53 20/41/54 22/43/55 21/44/56
f 21/44/57 22/43/58 24/45/59 23/46/60
f 23/46/61 24/45/62 18/47/63 17/48/64
f 18/40/65 24/49/66 22/50/67 20/41/68
f 23/51/69 17/39/70 19/42/71 21/52/72
f 25/53/73 26/54/74 28/55/75 27/56/76
f 27/56/77 28/55/78 30/57/79 29/58/80
f 29/58/81 30/57/82 32/59/83 31/60/84
f 31/60/85 32/59/86 26/61/87 25/62/88
f 26/54/89 32/63/90 30/64/91 28/55/92
f 31/65/93 25/53/94 27/56/95 29/66/96
f 33/67/97 34/68/98 36/69/99 35/70/100
f 35/70/101 36/69/102 38/71/103 37/72/104
f 37/72/105 38/71/106 40/73/107 39/74/108
f 39/74/109 40/73/110 34/75/111 33/76/112
f 34/68/113 40/77/114 38/78/115 36/69/116
f 39/79/117 33/67/118 35/70/119 37/80/120
f 41/81/121 42/82/122 44/83/123 43/84/124
f 43/84/125 44/83/126 46/85/127 45/86/128
f 45/86/129 46/85/130 48/87/131 47/88/132
f 47/88/133 48/87/134 42/89/135 41/90/136
f 42/82/137 48/91/138 46/92/139 44/83/140
f 47/93/141 41/81/142 43/84/143 45/94/144
f 49/95/145 50/96/146 52/97/147 51/98/148
f 51/98/149 52/97/150 54/99/151 53/100/152
f 53/100/153 54/99/154 56/101/155 55/102/156
f 55/102/157 56/101/158 50/103/159 49/104/160
f 50/96/161 56/105/162 54/106/163 52/97/164
f 55/107/165 49/95/166 51/98/167 53/108/168
g default
v 3.065239 -0.031532 -2.804817
v 4.260971 -0.031532 -2.804817
v 3.065239 -0.031532 -5.641160
v 4.260971 -0.031532 -5.641160
v 4.361827 1.059316 -1.333613
v 2.964382 1.059316 -1.333613
v 2.964382 1.059316 -5.641160
v 4.361827 1.059316 -5.641160
v 3.065239 1.059315 -2.804817
v 3.065239 1.059315 -5.641160
v 4.260971 1.059315 -5.641160
v 4.260971 1.059315 -2.804817
v 3.045558 1.214035 -1.468099
v 2.964382 1.133230 -1.333613
v 4.280801 1.214036 -1.467854
v 4.361827 1.133230 -1.333613
v 2.964382 1.123825 -5.641160
v 3.045409 1.204852 -5.641160
v 4.361827 1.123825 -5.641160
v 4.280801 1.204852 -5.641160
vt 0.375000 0.000000
vt 0.625000 0.000000
vt 0.375000 0.750000
vt 0.625000 0.750000
vt 0.375000 1.000000
vt 0.625000 1.000000
vt 0.875000 0.000000
vt 0.125000 0.000000
vt 0.125000 0.221897
vt 0.625000 0.528103
vt 0.375000 0.212705
vt 0.125000 0.212705
vt 0.375000 0.537295
vt 0.625000 0.537295
vt 0.875000 0.212705
vt 0.625000 0.212705
vt 0.625000 0.512645
vt 0.375000 0.528103
vt 0.389522 0.257805
vt 0.375000 0.512645
vt 0.610504 0.500000
vt 0.610504 0.257791
vt 0.389496 0.500000
vt 0.625000 0.221897
vt 0.375000 0.237977
vt 0.375000 0.221897
vt 0.125000 0.237355
vt 0.875000 0.221897
vt 0.875000 0.237355
vt 0.625000 0.237977
vn 0.000000 0.000000 1.000000
vn 0.000000 0.000000 1.000000
vn 0.000000 -0.860338 0.509724
vn 0.000000 -0.860338 0.509724
vn 0.000000 0.000000 -1.000000
vn 0.000000 0.000000 -1.000000
vn 0.000000 0.000000 -1.000000
vn 0.000000 0.000000 -1.000000
vn 0.000000 -1.000000 0.000000
vn 0.000000 -1.000000 0.000000
vn 0.000000 -1.000000 0.000000
vn 0.000000 -1.000000 0.000000
vn 1.000000 0.000000 0.000000
vn 1.000000 0.000000 0.000000
vn 0.993290 -0.115654 0.000000
vn 0.977674 -0.210125 0.000000
vn -1.000000 0.000000 0.000000
vn -1.000000 0.000000 0.000000
vn -0.977674 -0.210126 0.000000
vn -0.993290 -0.115655 0.000000
vn -0.000009 -1.000000 0.000000
vn -0.000009 -1.000000 0.000000
vn 0.000000 0.000000 -1.000000
vn 0.000000 0.000000 -1.000000
vn 0.000009 -1.000000 0.000000
vn 0.000009 -1.000000 0.000000
vn 0.000000 -1.000000 0.000001
vn 0.000000 -1.000000 0.000001
vn 0.000000 0.000000 -1.000000
vn 0.000000 0.000000 -1.000000
vn 0.000000 0.000000 -1.000000
vn 0.000000 0.000000 -1.000000
vn -0.070566 0.997198 0.024820
vn -0.000028 0.501927 0.864910
vn -0.000028 0.502150 0.864781
vn 0.070572 0.997198 0.024817
vn -0.901118 0.433572 -0.000943
vn -0.062591 0.998037 -0.002195
vn -0.882206 0.470863 -0.001024
vn 0.901254 0.433289 -0.000950
vn 0.882385 0.470527 -0.001031
vn 0.062588 0.998037 -0.002196
vn 0.000000 0.000000 1.000000
vn 0.000000 0.000000 1.000000
vn -1.000000 0.000000 0.000000
vn -1.000000 0.000000 0.000000
vn 1.000000 0.000000 0.000000
vn 1.000000 0.000000 0.000000
s 1
g Counter:Counter
usemtl Counter:blinn1SG
f 57/109/169 58/110/170 68/124/171 65/119/172
s 2
f 66/121/173 67/122/174 60/112/175 59/111/176
s off
f 59/111/177 60/112/178 58/114/179 57/113/180
s 3
f 58/110/181 60/115/182 67/123/183 68/124/184
s 4
f 59/116/185 57/109/186 65/119/187 66/120/188
f 66/120/188 65/119/187 62/134/189 63/117/190
s 2
f 63/126/191 64/118/192 67/122/174 66/121/173
s 3
f 68/124/184 67/123/183 64/136/193 61/132/194
s 1
f 65/119/172 68/124/171 61/132/195 62/134/196
s 2
f 73/128/197 74/131/198 76/129/199 75/125/200 64/118/192 63/126/191
s 5
f 69/127/201 70/133/202 72/138/203 71/130/204
f 70/133/205 69/127/201 74/131/206 73/128/207
f 71/130/204 72/138/208 75/125/209 76/129/210
f 69/127/201 71/130/204 76/129/210 74/131/206
f 62/134/211 61/132/212 72/138/203 70/133/202
f 63/117/213 62/134/214 70/133/205 73/135/207
f 61/132/215 64/136/216 75/137/209 72/138/208
g default
v 3.853493 1.191534 -3.882872
v 4.356678 1.191534 -3.882872
v 3.853493 1.438331 -3.882872
v 4.356678 1.438331 -3.882872
v 3.853493 1.438331 -4.569463
v 4.356678 1.438331 -4.569463
v 3.853493 1.191534 -4.569463
v 4.356678 1.191534 -4.569463
v 4.311439 1.438331 -3.882872
v 4.311439 1.438331 -4.569463
v 4.311439 1.191534 -4.569463
v 4.311439 1.191534 -3.882872
v 3.853493 1.493810 -3.882872
v 4.311439 1.493810 -3.882872
v 4.311439 1.493810 -4.569463
v 3.853493 1.493810 -4.569463
v 4.206431 1.493810 -3.882872
v 4.206431 1.493810 -4.569463
v 4.206431 1.438331 -4.569463
v 4.206431 1.191534 -4.569463
v 4.206431 1.191534 -3.882872
v 4.206431 1.438331 -3.882872
v 3.853493 1.540269 -3.882872
v 4.206431 1.540269 -3.882872
v 4.206431 1.540269 -4.569463
v 3.853493 1.540269 -4.569463
v 4.157716 1.540269 -3.882872
v 4.157716 1.540269 -4.569463
v 4.157716 1.493810 -4.569463
v 4.157716 1.438331 -4.569463
v 4.157716 1.191534 -4.569463
v 4.157716 1.191534 -3.882872
v 4.157716 1.438331 -3.882872
v 4.157716 1.493810 -3.882872
v 3.853493 1.591861 -3.882872
v 4.157716 1.591861 -3.882872
v 4.157716 1.591861 -4.569463
v 3.853493 1.591861 -4.569463
v 4.106049 1.591861 -3.882872
v 4.106049 1.591861 -4.569463
v 4.106049 1.540269 -4.569463
v 4.106049 1.493810 -4.569463
v 4.106049 1.438331 -4.569463
v 4.106049 1.191534 -4.569463
v 4.106049 1.191534 -3.882872
v 4.106049 1.438331 -3.882872
v 4.106049 1.493810 -3.882872
v 4.106049 1.540269 -3.882872
v 3.853493 1.643368 -3.882872
v 4.106049 1.643368 -3.882872
v 4.106049 1.643368 -4.569463
v 3.853493 1.643368 -4.569463
v 4.054884 1.643368 -3.882872
v 4.054884 1.643368 -4.569463
v 4.054884 1.591861 -4.569463
v 4.054884 1.540269 -4.569463
v 4.054884 1.493810 -4.569463
v 4.054884 1.438331 -4.569463
v 4.054884 1.191534 -4.569463
v 4.054884 1.191534 -3.882872
v 4.054884 1.438331 -3.882872
v 4.054884 1.493810 -3.882872
v 4.054884 1.540269 -3.882872
v 4.054884 1.591861 -3.882872
v 3.853493 1.790604 -3.882872
v 4.054884 1.790604 -3.882872
v 4.054884 1.790604 -4.569463
v 3.853493 1.790604 -4.569463
v 3.908909 1.790604 -3.882872
v 3.908909 1.790604 -4.569463
v 3.908909 1.643368 -4.569463
v 3.908909 1.591861 -4.569463
v 3.908909 1.540269 -4.569463
v 3.908909 1.493810 -4.569463
v 3.908909 1.438331 -4.569463
v 3.908909 1.191534 -4.569463
v 3.908909 1.191534 -3.882872
v 3.908909 1.438331 -3.882872
v 3.908909 1.493810 -3.882872
v 3.908909 1.540269 -3.882872
v 3.908909 1.591861 -3.882872
v 3.908909 1.643368 -3.882872
v 3.908909 1.901199 -3.882872
v 4.054884 1.901199 -3.882872
v 4.054884 1.901199 -4.569463
v 3.908909 1.901199 -4.569463
vt 0.799546 0.199669
vt 0.993188 0.199669
vt 0.993188 0.393311
vt 0.799546 0.393311
vt 0.002684 0.052231
vt 0.196326 0.052231
vt 0.196326 0.245874
vt 0.002684 0.245874
vt 0.196326 0.289405
vt 0.002684 0.289405
vt 0.196326 0.325857
vt 0.002684 0.325857
vt 0.196326 0.366337
vt 0.002684 0.366337
vt 0.196326 0.406751
vt 0.002684 0.406751
vt 0.196326 0.522276
vt 0.002684 0.522276
vt 0.834313 0.629372
vt 0.834313 0.435729
vt 0.877844 0.435729
vt 0.877844 0.629372
vt 0.878901 0.629305
vt 0.878901 0.435663
vt 0.915353 0.435663
vt 0.915353 0.629305
vt 0.916521 0.629455
vt 0.916521 0.435812
vt 0.957001 0.435812
vt 0.957001 0.629455
vt 0.710624 0.884991
vt 0.710624 0.691349
vt 0.751037 0.691349
vt 0.751037 0.884991
vt 1.000690 3.000721
vt 1.345915 3.000721
vt 1.345915 3.206678
vt 1.000690 3.206678
vt 1.345915 3.361379
vt 1.000690 3.361379
vt -0.999691 3.345915
vt -0.999691 3.000690
vt -0.844989 3.000690
vt -0.844989 3.345915
vt 0.248880 0.022676
vt 0.270206 0.022676
vt 0.270206 0.216319
vt 0.248880 0.216319
vt 0.445398 0.226242
vt 0.445398 0.204915
vt 0.639040 0.204915
vt 0.639040 0.226242
vt 0.445398 0.148739
vt 0.639040 0.148739
vt 0.445398 0.129049
vt 0.639040 0.129049
vt 0.445398 0.109166
vt 0.639040 0.109166
vt 0.445398 0.090419
vt 0.639040 0.090419
vt 0.445398 0.050008
vt 0.639040 0.050008
vt 0.445398 0.032598
vt 0.639040 0.032598
vt 0.815851 0.435754
vt 0.833261 0.435754
vt 0.833261 0.629396
vt 0.815851 0.629396
vt 0.650955 0.437735
vt 0.691366 0.437735
vt 0.691366 0.631378
vt 0.650955 0.631378
vt 0.695219 0.437735
vt 0.713966 0.437735
vt 0.713966 0.631378
vt 0.695219 0.631378
vt 0.717866 0.437735
vt 0.737749 0.437735
vt 0.737749 0.631378
vt 0.717866 0.631378
vt 0.741542 0.437735
vt 0.761232 0.437735
vt 0.761232 0.631378
vt 0.741542 0.631378
vt 0.693550 0.091524
vt 0.749727 0.091524
vt 0.749727 0.285166
vt 0.693550 0.285166
vt 0.255662 0.438256
vt 0.276989 0.438256
vt 0.276989 0.631899
vt 0.255662 0.631899
vt 0.333165 0.438256
vt 0.333165 0.631899
vt 0.276989 0.675429
vt 0.255662 0.675429
vt 0.352855 0.438256
vt 0.352855 0.631899
vt 0.333165 0.675429
vt 0.276989 0.711882
vt 0.255662 0.711882
vt 0.372738 0.438256
vt 0.372738 0.631899
vt 0.352855 0.675429
vt 0.333165 0.711882
vt 0.276989 0.752362
vt 0.255662 0.752362
vt 0.391485 0.438256
vt 0.391485 0.631899
vt 0.372738 0.675429
vt 0.352855 0.711882
vt 0.333165 0.752362
vt 0.276989 0.792776
vt 0.255662 0.792776
vt 0.431896 0.438256
vt 0.431896 0.631899
vt 0.391485 0.675429
vt 0.372738 0.711882
vt 0.352855 0.752362
vt 0.333165 0.792776
vt 0.276989 0.908301
vt 0.255662 0.908301
vt 0.449306 0.438256
vt 0.449306 0.631899
vt 0.431896 0.675429
vt 0.391485 0.711882
vt 0.372738 0.752362
vt 0.352855 0.792776
vt 0.333165 0.908301
vt 0.333165 0.995075
vt 0.276989 0.995075
vt 0.453309 0.799569
vt 0.474635 0.799569
vt 0.474635 0.993212
vt 0.453309 0.993212
vt 0.453309 0.756039
vt 0.474635 0.756039
vt 0.530811 0.799569
vt 0.530811 0.993212
vt 0.453309 0.719586
vt 0.474635 0.719586
vt 0.530811 0.756039
vt 0.550502 0.799569
vt 0.550502 0.993212
vt 0.453309 0.679106
vt 0.474635 0.679106
vt 0.530811 0.719586
vt 0.550502 0.756039
vt 0.570385 0.799569
vt 0.570385 0.993212
vt 0.453309 0.638692
vt 0.474635 0.638692
vt 0.530811 0.679106
vt 0.550502 0.719586
vt 0.570385 0.756039
vt 0.589132 0.799569
vt 0.589132 0.993212
vt 0.453309 0.523167
vt 0.474635 0.523167
vt 0.530811 0.638692
vt 0.550502 0.679106
vt 0.570385 0.719586
vt 0.589132 0.756039
vt 0.629543 0.799569
vt 0.629543 0.993212
vt 0.530811 0.523167
vt 0.550502 0.638692
vt 0.570385 0.679106
vt 0.589132 0.719586
vt 0.629543 0.756039
vt 0.646952 0.799569
vt 0.646952 0.993212
vt 0.474635 0.436393
vt 0.530811 0.436393
vn 0.000000 0.000000 1.000000
vn 0.000000 0.000000 1.000000
vn 0.000000 0.000000 1.000000
vn 0.000000 0.000000 1.000000
vn 0.000000 1.000000 0.000000
vn 0.000000 1.000000 0.000000
vn 0.000000 1.000000 0.000000
vn 0.000000 1.000000 0.000000
vn 0.000000 0.000000 -1.000000
vn 0.000000 0.000000 -1.000000
vn 0.000000 0.000000 -1.000000
vn 0.000000 0.000000 -1.000000
vn 0.000000 -1.000000 0.000000
vn 0.000000 -1.000000 0.000000
vn 0.000000 -1.000000 0.000000
vn 0.000000 -1.000000 0.000000
vn 1.000000 0.000000 0.000000
vn 1.000000 0.000000 0.000000
vn 1.000000 0.000000 0.000000
vn 1.000000 0.000000 0.000000
vn -1.000000 0.000000 0.000000
vn -1.000000 0.000000 0.000000
vn -1.000000 0.000000 0.000000
vn -1.000000 0.000000 0.000000
vn 0.000000 1.000000 0.000000
vn 0.000000 1.000000 0.000000
vn 0.000000 1.000000 0.000000
vn 0.000000 1.000000 0.000000
vn 0.000000 0.000000 -1.000000
vn 0.000000 0.000000 -1.000000
vn 0.000000 0.000000 -1.000000
vn 0.000000 0.000000 -1.000000
vn 0.000000 -1.000000 0.000000
vn 0.000000 -1.000000 0.000000
vn 0.000000 -1.000000 0.000000
vn 0.000000 -1.000000 0.000000
vn 0.000000 0.000000 1.000000
vn 0.000000 0.000000 1.000000
vn 0.000000 0.000000 1.000000
vn 0.000000 0.000000 1.000000
vn 0.000000 0.000000 1.000000
vn 0.000000 0.000000 1.000000
vn 1.000000 0.000000 0.000000
vn 1.000000 0.000000 0.000000
vn 1.000000 0.000000 0.000000
vn 1.000000 0.000000 0.000000
vn 0.000000 0.000000 -1.000000
vn 0.000000 0.000000 -1.000000
vn -1.000000 0.000000 0.000000
vn -1.000000 0.000000 0.000000
vn 0.000000 1.000000 0.000000
vn 0.000000 1.000000 0.000000
vn 0.000000 1.000000 0.000000
vn 0.000000 1.000000 0.000000
vn 0.000000 0.000000 -1.000000
vn 0.000000 0.000000 -1.000000
vn 0.000000 0.000000 -1.000000
vn 0.000000 0.000000 -1.000000
vn 0.000000 -1.000000 0.000000
vn 0.000000 -1.000000 0.000000
vn 0.000000 0.000000 1.000000
vn 0.000000 0.000000 1.000000
vn 0.000000 0.000000 1.000000
vn 0.000000 0.000000 1.000000
vn 0.000000 0.000000 1.000000
vn 0.000000 0.000000 1.000000
vn 1.000000 0.000000 0.000000
vn 1.000000 0.000000 0.000000
vn 1.000000 0.000000 0.000000
vn 1.000000 0.000000 0.000000
vn 0.000000 0.000000 -1.000000
vn 0.000000 0.000000 -1.000000
vn -1.000000 0.000000 0.000000
vn -1.000000 0.000000 0.000000
vn 0.000000 1.000000 0.000000
vn 0.000000 1.000000 0.000000
vn 0.000000 1.000000 0.000000
vn 0.000000 1.000000 0.000000
vn 0.000000 0.000000 -1.000000
vn 0.000000 0.000000 -1.000000
vn 0.000000 0.000000 -1.000000
vn 0.000000 0.000000 -1.000000
vn 0.000000 0.000000 -1.000000
vn 0.000000 -1.000000 0.000000
vn 0.000000 -1.000000 0.000000
vn 0.000000 0.000000 1.000000
vn 0.000000 0.000000 1.000000
vn 0.000000 0.000000 1.000000
vn 0.000000 0.000000 1.000000
vn 0.000000 0.000000 1.000000
vn 0.000000 0.000000 1.000000
vn 0.000000 0.000000 1.000000
vn 1.000000 0.000000 0.000000
vn 1.000000 0.000000 0.000000
vn 1.000000 0.000000 0.000000
vn 1.000000 0.000000 0.000000
vn 0.000000 0.000000 -1.000000
vn 0.000000 0.000000 -1.000000
vn -1.000000 0.000000 0.000000
vn -1.000000 0.000000 0.000000
vn 0.000000 1.000000 0.000000
vn 0.000000 1.000000 0.000000
vn 0.000000 1.000000 0.000000
vn 0.000000 1.000000 0.000000
vn 0.000000 0.000000 -1.000000
vn 0.000000 0.000000 -1.000000
vn 0.000000 0.000000 -1.000000
vn 0.000000 0.000000 -1.000000
vn 0.000000 0.000000 -1.000000
vn 0.000000 0.000000 -1.000000
vn 0.000000 -1.000000 0.000000
vn 0.000000 -1.000000 0.000000
vn 0.000000 0.000000 1.000000
vn 0.000000 0.000000 1.000000
vn 0.000000 0.000000 1.000000
vn 0.000000 0.000000 1.000000
vn 0.000000 0.000000 1.000000
vn 0.000000 0.000000 1.000000
vn 0.000000 0.000000 1.000000
vn 0.000000 0.000000 1.000000
vn 1.000000 0.000000 0.000000
vn 1.000000 0.000000 0.000000
vn 1.000000 0.000000 0.000000
vn 1.000000 0.000000 0.000000
vn 0.000000 0.000000 -1.000000
vn 0.000000 0.000000 -1.000000
vn -1.000000 0.000000 0.000000
vn -1.000000 0.000000 0.000000
vn 0.000000 1.000000 0.000000
vn 0.000000 1.000000 0.000000
vn 0.000000 1.000000 0.000000
vn 0.000000 1.000000 0.000000
vn 0.000000 0.000000 -1.000000
vn 0.000000 0.000000 -1.000000
vn 0.000000 0.000000 -1.000000
vn 0.000000 0.000000 -1.000000
vn 0.000000 0.000000 -1.000000
vn 0.000000 0.000000 -1.000000
vn 0.000000 0.000000 -1.000000
vn 0.000000 -1.000000 0.000000
vn 0.000000 -1.000000 0.000000
vn 0.000000 0.000000 1.000000
vn 0.000000 0.000000 1.000000
vn 0.000000 0.000000 1.000000
vn 0.000000 0.000000 1.000000
vn 0.000000 0.000000 1.000000
vn 0.000000 0.000000 1.000000
vn 0.000000 0.000000 1.000000
vn 0.000000 0.000000 1.000000
vn 0.000000 0.000000 1.000000
vn 1.000000 0.000000 0.000000
vn 1.000000 0.000000 0.000000
vn 1.000000 0.000000 0.000000
vn 1.000000 0.000000 0.000000
vn 0.000000 0.000000 -1.000000
vn 0.000000 0.000000 -1.000000
vn -1.000000 0.000000 0.000000
vn -1.000000 0.000000 0.000000
vn 0.000000 1.000000 0.000000
vn 0.000000 1.000000 0.000000
vn 0.000000 1.000000 0.000000
vn 0.000000 1.000000 0.000000
vn 0.000000 0.000000 -1.000000
vn 0.000000 0.000000 1.000000
vn 0.000000 0.000000 1.000000
vn 0.000000 0.000000 1.000000
vn 1.000000 0.000000 0.000000
vn 1.000000 0.000000 0.000000
vn 0.000000 0.000000 -1.000000
vn 0.000000 0.000000 -1.000000
vn -1.000000 0.000000 0.000000
vn -1.000000 0.000000 0.000000
vn -1.000000 0.000000 0.000000
vn -1.000000 0.000000 0.000000
s 1
g Cash_Register:Cash_Register
usemtl Cash_Register:anisotropic1SG
f 77/227/217 153/228/218 154/229/219 79/230/220
s off
f 141/183/221 145/184/222 146/185/223 144/186/224
s 2
f 81/270/225 151/271/226 152/272/227 83/273/228
s 3
f 83/187/229 152/188/230 153/189/231 77/190/232
s off
f 78/139/233 84/140/234 82/141/235 80/142/236
s 4
f 83/143/237 77/144/238 79/145/239 81/146/240
s off
f 85/203/241 80/204/242 82/205/243 86/206/244
s 2
f 87/303/245 86/302/246 82/309/247 84/310/248
s 3
f 88/200/249 87/199/250 84/201/251 78/202/252
s 1
f 85/254/253 88/253/254 78/261/255 80/262/256
f 79/230/220 154/229/219 155/233/257 89/234/258
s off
f 85/157/259 86/158/260 91/159/261 90/160/262
s 2
f 151/271/226 81/270/225 92/274/263 150/275/264
s 4
f 81/146/240 79/145/239 89/147/265 92/148/266
s off
f 93/207/267 90/208/268 91/209/269 94/210/270
s 2
f 86/302/246 95/294/271 94/301/272 91/308/273
f 96/295/274 95/294/271 86/302/246 87/303/245
s 3
f 97/198/275 96/197/276 87/199/250 88/200/249
s 1
f 98/247/277 97/246/278 88/253/254 85/254/253
f 93/255/279 98/247/277 85/254/253 90/263/280
f 89/234/258 155/233/257 156/238/281 99/239/282
s off
f 93/161/283 94/162/284 101/163/285 100/164/286
s 2
f 150/275/264 92/274/263 102/278/287 149/279/288
s 4
f 92/148/266 89/147/265 99/149/289 102/150/290
s off
f 103/211/291 100/212/292 101/213/293 104/214/294
s 2
f 94/301/272 105/293/295 104/300/296 101/307/297
f 95/294/271 106/287/298 105/293/295 94/301/272
f 107/288/299 106/287/298 95/294/271 96/295/274
s 3
f 108/196/300 107/195/301 96/197/276 97/198/275
s 1
f 109/241/302 108/240/303 97/246/278 98/247/277
f 110/248/304 109/241/302 98/247/277 93/255/279
f 103/256/305 110/248/304 93/255/279 100/264/306
f 99/239/282 156/238/281 157/244/307 111/245/308
s off
f 103/165/309 104/166/310 113/167/311 112/168/312
s 2
f 149/279/288 102/278/287 114/283/313 148/284/314
s 4
f 102/150/290 99/149/289 111/151/315 114/152/316
s off
f 115/215/317 112/216/318 113/217/319 116/218/320
s 2
f 104/300/296 117/292/321 116/299/322 113/306/323
f 105/293/295 118/286/324 117/292/321 104/300/296
f 106/287/298 119/281/325 118/286/324 105/293/295
f 120/282/326 119/281/325 106/287/298 107/288/299
s 3
f 121/194/327 120/193/328 107/195/301 108/196/300
s 1
f 122/236/329 121/235/330 108/240/303 109/241/302
f 123/242/331 122/236/329 109/241/302 110/248/304
f 124/249/332 123/242/331 110/248/304 103/256/305
f 115/257/333 124/249/332 103/256/305 112/265/334
f 111/245/308 157/244/307 158/251/335 125/252/336
s off
f 115/169/337 116/170/338 127/171/339 126/172/340
s 2
f 148/284/314 114/283/313 128/289/341 147/290/342
s 4
f 114/152/316 111/151/315 125/153/343 128/154/344
s off
f 129/219/345 126/220/346 127/221/347 130/222/348
s 2
f 116/299/322 131/291/349 130/298/350 127/305/351
f 117/292/321 132/285/352 131/291/349 116/299/322
f 118/286/324 133/280/353 132/285/352 117/292/321
f 119/281/325 134/276/354 133/280/353 118/286/324
f 135/277/355 134/276/354 119/281/325 120/282/326
s 3
f 136/192/356 135/191/357 120/193/328 121/194/327
s 1
f 137/232/358 136/231/359 121/235/330 122/236/329
f 138/237/360 137/232/358 122/236/329 123/242/331
f 139/243/361 138/237/360 123/242/331 124/249/332
f 140/250/362 139/243/361 124/249/332 115/257/333
f 129/258/363 140/250/362 115/257/333 126/266/364
f 125/252/336 158/251/335 145/259/365 141/260/366
s 8
f 129/173/367 130/174/368 143/175/369 142/176/370
s 2
f 147/290/342 128/289/341 144/296/371 146/297/372
s 4
f 128/154/344 125/153/343 141/155/373 144/156/374
s off
f 159/223/375 160/224/376 161/225/377 162/226/378
s 2
f 130/298/350 147/290/342 146/297/372 143/304/379
f 131/291/349 148/284/314 147/290/342 130/298/350
f 132/285/352 149/279/288 148/284/314 131/291/349
f 133/280/353 150/275/264 149/279/288 132/285/352
f 134/276/354 151/271/226 150/275/264 133/280/353
f 152/272/227 151/271/226 134/276/354 135/277/355
s 3
f 153/189/231 152/188/230 135/191/357 136/192/356
s 1
f 154/229/219 153/228/218 136/231/359 137/232/358
f 155/233/257 154/229/219 137/232/358 138/237/360
f 156/238/281 155/233/257 138/237/360 139/243/361
f 157/244/307 156/238/281 139/243/361 140/250/362
f 158/251/335 157/244/307 140/250/362 129/258/363
f 145/259/365 158/251/335 129/258/363 142/267/380
f 145/259/365 142/267/380 160/268/381 159/269/382
s 8
f 142/176/370 143/175/369 161/177/383 160/178/384
s 2
f 143/304/379 146/297/372 162/311/385 161/312/386
s off
f 146/179/387 145/180/388 159/181/389 162/182/390
g default
v 7.902906 -0.067892 -5.654391
v 7.897606 -0.067892 -1.679578
v 7.902906 2.134982 -5.654391
v 7.897606 2.134982 -1.679578
v 9.967758 2.134982 -5.651638
v 9.962458 2.134982 -1.676825
v 9.967758 -0.067892 -5.651638
v 9.962458 -0.067892 -1.676825
v 7.916484 0.084024 -4.657617
v 9.891408 0.084024 -4.657617
v 7.916484 2.263786 -4.657617
v 9.891408 2.263786 -4.657617
v 7.916484 2.263786 -5.001970
v 9.891408 2.263786 -5.001970
v 7.916484 0.084024 -5.001970
v 9.891408 0.084024 -5.001970
v 7.916484 0.084024 -2.076454
v 9.891408 0.084024 -2.076454
v 7.916484 2.263786 -2.076454
v 9.891408 2.263786 -2.076454
v 7.916484 2.263786 -2.420806
v 9.891408 2.263786 -2.420806
v 7.916484 0.084024 -2.420806
v 9.891408 0.084024 -2.420806
vt 0.375000 0.000000
vt 0.625000 0.000000
vt 0.375000 0.250000
vt 0.625000 0.250000
vt 0.375000 0.500000
vt 0.625000 0.500000
vt 0.375000 0.750000
vt 0.625000 0.750000
vt 0.375000 1.000000
vt 0.625000 1.000000
vt 0.875000 0.000000
vt 0.875000 0.250000
vt 0.125000 0.000000
vt 0.125000 0.250000
vt 0.375000 0.000000
vt 0.625000 0.000000
vt 0.625000 0.250000
vt 0.375000 0.250000
vt 0.625000 0.500000
vt 0.375000 0.500000
vt 0.625000 0.750000
vt 0.375000 0.750000
vt 0.625000 1.000000
vt 0.375000 1.000000
vt 0.875000 0.000000
vt 0.875000 0.250000
vt 0.125000 0.000000
vt 0.125000 0.250000
vt 0.375000 0.000000
vt 0.625000 0.000000
vt 0.625000 0.250000
vt 0.375000 0.250000
vt 0.625000 0.500000
vt 0.375000 0.500000
vt 0.625000 0.750000
vt 0.375000 0.750000
vt 0.625000 1.000000
vt 0.375000 1.000000
vt 0.875000 0.000000
vt 0.875000 0.250000
vt 0.125000 0.000000
vt 0.125000 0.250000
vn -0.999999 0.000000 -0.001334
vn -0.999999 0.000000 -0.001334
vn -0.999999 0.000000 -0.001334
vn -0.999999 0.000000 -0.001334
vn 0.000000 1.000000 0.000000
vn 0.000000 1.000000 0.000000
vn 0.000000 1.000000 0.000000
vn 0.000000 1.000000 0.000000
vn 0.999999 0.000000 0.001334
vn 0.999999 0.000000 0.001334
vn 0.999999 0.000000 0.001334
vn 0.999999 0.000000 0.001334
vn 0.000000 -1.000000 0.000000
vn 0.000000 -1.000000 0.000000
vn 0.000000 -1.000000 0.000000
vn 0.000000 -1.000000 0.000000
vn -0.001334 0.000000 0.999999
vn -0.001334 0.000000 0.999999
vn -0.001334 0.000000 0.999999
vn -0.001334 0.000000 0.999999
vn 0.001334 0.000000 -0.999999
vn 0.001334 0.000000 -0.999999
vn 0.001334 0.000000 -0.999999
vn 0.001334 0.000000 -0.999999
vn 0.000000 0.000000 1.000000
vn 0.000000 0.000000 1.000000
vn 0.000000 0.000000 1.000000
vn 0.000000 0.000000 1.000000
vn 0.000000 1.000000 0.000000
vn 0.000000 1.000000 0.000000
vn 0.000000 1.000000 0.000000
vn 0.000000 1.000000 0.000000
vn 0.000000 0.000000 -1.000000
vn 0.000000 0.000000 -1.000000
vn 0.000000 0.000000 -1.000000
vn 0.000000 0.000000 -1.000000
vn 0.000000 -1.000000 0.000000
vn 0.000000 -1.000000 0.000000
vn 0.000000 -1.000000 0.000000
vn 0.000000 -1.000000 0.000000
vn 1.000000 0.000000 0.000000
vn 1.000000 0.000000 0.000000
vn 1.000000 0.000000 0.000000
vn 1.000000 0.000000 0.000000
vn -1.000000 0.000000 0.000000
vn -1.000000 0.000000 0.000000
vn -1.000000 0.000000 0.000000
vn -1.000000 0.000000 0.000000
vn 0.000000 0.000000 1.000000
vn 0.000000 0.000000 1.000000
vn 0.000000 0.000000 1.000000
vn 0.000000 0.000000 1.000000
vn 0.000000 1.000000 0.000000
vn 0.000000 1.000000 0.000000
vn 0.000000 1.000000 0.000000
vn 0.000000 1.000000 0.000000
vn 0.000000 0.000000 -1.000000
vn 0.000000 0.000000 -1.000000
vn 0.000000 0.000000 -1.000000
vn 0.000000 0.000000 -1.000000
vn 0.000000 -1.000000 0.000000
vn 0.000000 -1.000000 0.000000
vn 0.000000 -1.000000 0.000000
vn 0.000000 -1.000000 0.000000
vn 1.000000 0.000000 0.000000
vn 1.000000 0.000000 0.000000
vn 1.000000 0.000000 0.000000
vn 1.000000 0.000000 0.000000
vn -1.000000 0.000000 0.000000
vn -1.000000 0.000000 0.000000
vn -1.000000 0.000000 0.000000
vn -1.000000 0.000000 0.000000
s off
g Ammo_Crate
usemtl initialShadingGroup
f 163/313/391 164/314/392 166/316/393 165/315/394
f 165/315/395 166/316/396 168/318/397 167/317/398
f 167/317/399 168/318/400 170/320/401 169/319/402
f 169/319/403 170/320/404 164/322/405 163/321/406
f 164/314/407 170/323/408 168/324/409 166/316/410
f 169/325/411 163/313/412 165/315/413 167/326/414
f 171/327/415 172/328/416 174/329/417 173/330/418
f 173/330/419 174/329/420 176/331/421 175/332/422
f 175/332/423 176/331/424 178/333/425 177/334/426
f 177/334/427 178/333/428 172/335/429 171/336/430
f 172/328/431 178/337/432 176/338/433 174/329/434
f 177/339/435 171/327/436 173/330/437 175/340/438
f 179/341/439 180/342/440 182/343/441 181/344/442
f 181/344/443 182/343/444 184/345/445 183/346/446
f 183/346/447 184/345/448 186/347/449 185/348/450
f 185/348/451 186/347/452 180/349/453 179/350/454
f 180/342/455 186/351/456 184/352/457 182/343/458
f 185/353/459 179/341/460 181/344/461 183/354/462
g default
v 8.112022 2.275259 -1.777596
v 9.932014 2.275259 -1.777596
v 8.112022 3.275259 -1.777596
v 9.932014 3.275259 -1.777596
v 8.112022 3.275259 -5.582337
v 9.932014 3.275259 -5.582337
v 8.112022 2.275259 -5.582337
v 9.932014 2.275259 -5.582337
vt 0.375000 0.000000
vt 0.625000 0.000000
vt 0.375000 0.250000
vt 0.625000 0.250000
vt 0.375000 0.500000
vt 0.625000 0.500000
vt 0.375000 0.750000
vt 0.625000 0.750000
vt 0.375000 1.000000
vt 0.625000 1.000000
vt 0.875000 0.000000
vt 0.875000 0.250000
vt 0.125000 0.000000
vt 0.125000 0.250000
vn 0.000000 0.000000 1.000000
vn 0.000000 0.000000 1.000000
vn 0.000000 0.000000 1.000000
vn 0.000000 0.000000 1.000000
vn 0.000000 1.000000 0.000000
vn 0.000000 1.000000 0.000000
vn 0.000000 1.000000 0.000000
vn 0.000000 1.000000 0.000000
vn 0.000000 0.000000 -1.000000
vn 0.000000 0.000000 -1.000000
vn 0.000000 0.000000 -1.000000
vn 0.000000 0.000000 -1.000000
vn 0.000000 -1.000000 0.000000
vn 0.000000 -1.000000 0.000000
vn 0.000000 -1.000000 0.000000
vn 0.000000 -1.000000 0.000000
vn 1.000000 0.000000 0.000000
vn 1.000000 0.000000 0.000000
vn 1.000000 0.000000 0.000000
vn 1.000000 0.000000 0.000000
vn -1.000000 0.000000 0.000000
vn -1.000000 0.000000 0.000000
vn -1.000000 0.000000 0.000000
vn -1.000000 0.000000 0.000000
s off
g Crate
usemtl initialShadingGroup
f 187/355/463 188/356/464 190/358/465 189/357/466
f 189/357/467 190/358/468 192/360/469 191/359/470
f 191/359/471 192/360/472 194/362/473 193/361/474
f 193/361/475 194/362/476 188/364/477 187/363/478
f 188/356/479 194/365/480 192/366/481 190/358/482
f 193/367/483 187/355/484 189/357/485 191/368/486
g default
v 5.081409 0.205704 -5.686681
v 7.078218 0.205704 -5.686681
v 5.081409 0.492733 -5.686681
v 7.078218 0.492733 -5.686681
v 5.081409 0.492733 -5.731449
v 7.078218 0.492733 -5.731449
v 5.081409 0.205704 -5.731449
v 7.078218 0.205704 -5.731449
v 5.081409 2.465914 -5.686681
v 7.078218 2.465914 -5.686681
v 5.081409 2.752943 -5.686681
v 7.078218 2.752943 -5.686681
v 5.081409 2.752943 -5.731449
v 7.078218 2.752943 -5.731449
v 5.081409 2.465914 -5.731449
v 7.078218 2.465914 -5.731449
v 5.074027 -0.029919 -5.698147
v 7.118154 -0.029919 -5.698147
v 5.074027 3.051076 -5.698147
v 7.118154 3.051076 -5.698147
v 5.074027 3.051076 -5.767718
v 7.118154 3.051076 -5.767718
v 5.074027 -0.029919 -5.767718
v 7.118154 -0.029919 -5.767718
vt 0.078353 0.240189
vt 0.088637 0.240189
vt 0.088637 0.306122
vt 0.078353 0.306122
vt 0.089061 0.240189
vt 0.099344 0.240189
vt 0.099344 0.306122
vt 0.089061 0.306122
vt 0.194519 0.021573
vt 0.204802 0.021573
vt 0.204802 0.087506
vt 0.194519 0.087506
vt 0.208405 0.021573
vt 0.218688 0.021573
vt 0.218688 0.087506
vt 0.208405 0.087506
vt 0.156648 0.024864
vt 0.172629 0.024864
vt 0.172629 0.725623
vt 0.156648 0.725623
vt 0.175583 0.024864
vt 0.191564 0.024864
vt 0.191564 0.725623
vt 0.175583 0.725623
vt 0.308400 0.564874
vt 0.308400 0.106192
vt 0.318684 0.106192
vt 0.318684 0.564874
vt 0.321191 0.564976
vt 0.321191 0.106294
vt 0.331475 0.106294
vt 0.331475 0.564976
vt 0.333982 0.564874
vt 0.333982 0.106192
vt 0.344266 0.106192
vt 0.344266 0.564874
vt 0.346773 0.564976
vt 0.346773 0.106294
vt 0.357057 0.106294
vt 0.357057 0.564976
vt 0.203514 0.575792
vt 0.203514 0.106240
vt 0.219495 0.106240
vt 0.219495 0.575792
vt 0.221421 0.576014
vt 0.221421 0.106462
vt 0.237402 0.106462
vt 0.237402 0.576014
vt 0.480308 0.819555
vt 0.021627 0.819555
vt 0.021627 0.753622
vt 0.480308 0.753623
vt 0.611922 0.636881
vt 0.611922 0.178199
vt 0.677855 0.178199
vt 0.677855 0.636881
vt 0.480385 0.818554
vt 0.021703 0.818554
vt 0.021703 0.752621
vt 0.480385 0.752621
vt 0.771682 0.605511
vt 0.771682 0.146829
vt 0.837615 0.146829
vt 0.837615 0.605511
vt 0.019655 0.019125
vt 0.489206 0.019125
vt 0.489206 0.726853
vt 0.019655 0.726853
vt 0.495469 0.018892
vt 0.965021 0.018892
vt 0.965021 0.726619
vt 0.495469 0.726619
vn 0.000000 0.000000 1.000000
vn 0.000000 0.000000 1.000000
vn 0.000000 0.000000 1.000000
vn 0.000000 0.000000 1.000000
vn 0.000000 1.000000 0.000000
vn 0.000000 1.000000 0.000000
vn 0.000000 1.000000 0.000000
vn 0.000000 1.000000 0.000000
vn 0.000000 0.000000 -1.000000
vn 0.000000 0.000000 -1.000000
vn 0.000000 0.000000 -1.000000
vn 0.000000 0.000000 -1.000000
vn 0.000000 -1.000000 0.000000
vn 0.000000 -1.000000 0.000000
vn 0.000000 -1.000000 0.000000
vn 0.000000 -1.000000 0.000000
vn 1.000000 0.000000 0.000000
vn 1.000000 0.000000 0.000000
vn 1.000000 0.000000 0.000000
vn 1.000000 0.000000 0.000000
vn -1.000000 0.000000 0.000000
vn -1.000000 0.000000 0.000000
vn -1.000000 0.000000 0.000000
vn -1.000000 0.000000 0.000000
vn 0.000000 0.000000 1.000000
vn 0.000000 0.000000 1.000000
vn 0.000000 0.000000 1.000000
vn 0.000000 0.000000 1.000000
vn 0.000000 1.000000 0.000000
vn 0.000000 1.000000 0.000000
vn 0.000000 1.000000 0.000000
vn 0.000000 1.000000 0.000000
vn 0.000000 0.000000 -1.000000
vn 0.000000 0.000000 -1.000000
vn 0.000000 0.000000 -1.000000
vn 0.000000 0.000000 -1.000000
vn 0.000000 -1.000000 0.000000
vn 0.000000 -1.000000 0.000000
vn 0.000000 -1.000000 0.000000
vn 0.000000 -1.000000 0.000000
vn 1.000000 0.000000 0.000000
vn 1.000000 0.000000 0.000000
vn 1.000000 0.000000 0.000000
vn 1.000000 0.000000 0.000000
vn -1.000000 0.000000 0.000000
vn -1.000000 0.000000 0.000000
vn -1.000000 0.000000 0.000000
vn -1.000000 0.000000 0.000000
vn 0.000000 0.000000 1.000000
vn 0.000000 0.000000 1.000000
vn 0.000000 0.000000 1.000000
vn 0.000000 0.000000 1.000000
vn 0.000000 1.000000 0.000000
vn 0.000000 1.000000 0.000000
vn 0.000000 1.000000 0.000000
vn 0.000000 1.000000 0.000000
vn 0.000000 0.000000 -1.000000
vn 0.000000 0.000000 -1.000000
vn 0.000000 0.000000 -1.000000
vn 0.000000 0.000000 -1.000000
vn 0.000000 -1.000000 0.000000
vn 0.000000 -1.000000 0.000000
vn 0.000000 -1.000000 0.000000
vn 0.000000 -1.000000 0.000000
vn 1.000000 0.000000 0.000000
vn 1.000000 0.000000 0.000000
vn 1.000000 0.000000 0.000000
vn 1.000000 0.000000 0.000000
vn -1.000000 0.000000 0.000000
vn -1.000000 0.000000 0.000000
vn -1.000000 0.000000 0.000000
vn -1.000000 0.000000 0.000000
s off
g Door_StoreRoom:Sliding_Door
usemtl initialShadingGroup
f 195/417/487 196/418/488 198/419/489 197/420/490
f 197/393/491 198/394/492 200/395/493 199/396/494
f 199/421/495 200/422/496 202/423/497 201/424/498
f 201/397/499 202/398/500 196/399/501 195/400/502
f 196/369/503 202/370/504 200/371/505 198/372/506
f 201/373/507 195/374/508 197/375/509 199/376/510
f 203/425/511 204/426/512 206/427/513 205/428/514
f 205/401/515 206/402/516 208/403/517 207/404/518
f 207/429/519 208/430/520 210/431/521 209/432/522
f 209/405/523 210/406/524 204/407/525 203/408/526
f 204/377/527 210/378/528 208/379/529 206/380/530
f 209/381/531 203/382/532 205/383/533 207/384/534
f 211/433/535 212/434/536 214/435/537 213/436/538
f 213/409/539 214/410/540 216/411/541 215/412/542
f 215/437/543 216/438/544 218/439/545 217/440/546
f 217/413/547 218/414/548 212/415/549 211/416/550
f 212/385/551 218/386/552 216/387/553 214/388/554
f 217/389/555 211/390/556 213/391/557 215/392/558
g default
v 7.227614 5.185200 -2.200213
v 7.227614 5.169294 -2.231428
v 7.227614 5.144522 -2.256201
v 7.227614 5.113307 -2.272106
v 7.227614 5.078704 -2.277586
v 7.227614 5.044102 -2.272106
v 7.227614 5.012887 -2.256201
v 7.227614 4.988114 -2.231428
v 7.227614 4.972209 -2.200213
v 7.227614 4.966729 -2.165611
v 7.227614 4.972209 -2.131008
v 7.227614 4.988114 -2.099793
v 7.227614 5.012887 -2.075020
v 7.227614 5.044102 -2.059115
v 7.227614 5.078704 -2.053635
v 7.227614 5.113307 -2.059115
v 7.227614 5.144522 -2.075020
v 7.227614 5.169294 -2.099793
v 7.227614 5.185199 -2.131008
v 7.227614 5.190680 -2.165611
v 2.702067 5.185200 -2.200213
v 2.702067 5.169294 -2.231428
v 2.702067 5.144522 -2.256201
v 2.702067 5.113307 -2.272106
v 2.702067 5.078704 -2.277586
v 2.702067 5.044102 -2.272106
v 2.702067 5.012887 -2.256201
v 2.702067 4.988114 -2.231428
v 2.702067 4.972209 -2.200213
v 2.702067 4.966729 -2.165611
v 2.702067 4.972209 -2.131008
v 2.702067 4.988114 -2.099793
v 2.702067 5.012887 -2.075020
v 2.702067 5.044102 -2.059115
v 2.702067 5.078704 -2.053635
v 2.702067 5.113307 -2.059115
v 2.702067 5.144522 -2.075020
v 2.702067 5.169294 -2.099793
v 2.702067 5.185199 -2.131008
v 2.702067 5.190680 -2.165611
v 7.227614 5.078704 -2.165611
v 2.702067 5.078704 -2.165611
v 2.395650 4.987095 -1.638394
v 7.584444 4.987095 -1.638394
v 2.395650 4.987095 -2.638394
v 7.584444 4.987095 -2.638394
v 2.395650 5.109872 -1.638394
v 2.496086 5.210307 -1.638394
v 2.395650 5.109872 -2.638394
v 2.496086 5.210307 -2.638394
v 7.484010 5.210307 -1.638394
v 7.584444 5.109872 -1.638394
v 7.584444 5.109872 -2.638394
v 7.484010 5.210307 -2.638394
v 2.453577 4.987095 -2.638394
v 2.453577 4.987095 -1.638394
v 7.517495 4.987095 -2.638394
v 7.517495 4.987095 -1.638394
v 2.453577 5.129200 -1.721504
v 2.395650 4.987095 -1.721504
v 2.395650 5.109872 -1.721504
v 2.496086 5.210307 -1.721504
v 7.484010 5.210307 -1.721504
v 7.584444 5.109872 -1.721504
v 7.584444 4.987095 -1.721504
v 7.517495 5.129200 -1.721504
v 2.453577 5.129200 -2.579753
v 2.395650 4.987095 -2.579753
v 2.395650 5.109872 -2.579752
v 2.496086 5.210307 -2.579753
v 7.484010 5.210307 -2.579752
v 7.584444 5.109872 -2.579753
v 7.584444 4.987095 -2.579753
v 7.517495 5.129200 -2.579753
vt 0.346275 0.239413
vt 0.327491 0.202547
vt 0.298234 0.173290
vt 0.261368 0.154506
vt 0.220502 0.148034
vt 0.179636 0.154506
vt 0.142770 0.173290
vt 0.113513 0.202547
vt 0.094729 0.239413
vt 0.088256 0.280279
vt 0.094729 0.321145
vt 0.113513 0.358011
vt 0.142770 0.387268
vt 0.179636 0.406052
vt 0.220502 0.412525
vt 0.261368 0.406052
vt 0.298234 0.387268
vt 0.327491 0.358011
vt 0.346275 0.321145
vt 0.352747 0.280279
vt 0.114705 0.412525
vt 0.125285 0.412525
vt 0.135865 0.412525
vt 0.146444 0.412525
vt 0.157024 0.412525
vt 0.167603 0.412525
vt 0.178183 0.412525
vt 0.188763 0.412525
vt 0.199342 0.412525
vt 0.209922 0.412525
vt 0.220502 0.412525
vt 0.231081 0.412525
vt 0.241661 0.412525
vt 0.252240 0.412525
vt 0.262820 0.412525
vt 0.273400 0.412525
vt 0.283979 0.412525
vt 0.294559 0.412525
vt 0.305139 0.412525
vt 0.315718 0.412525
vt 0.326298 0.412525
vt 0.114705 0.730709
vt 0.125285 0.730709
vt 0.135865 0.730709
vt 0.146444 0.730709
vt 0.157024 0.730709
vt 0.167603 0.730709
vt 0.178183 0.730709
vt 0.188763 0.730709
vt 0.199342 0.730709
vt 0.209922 0.730709
vt 0.220502 0.730709
vt 0.231081 0.730709
vt 0.241661 0.730709
vt 0.252240 0.730709
vt 0.262820 0.730709
vt 0.273400 0.730709
vt 0.283979 0.730709
vt 0.294559 0.730709
vt 0.305139 0.730709
vt 0.315718 0.730709
vt 0.326298 0.730709
vt 0.346275 0.821293
vt 0.327491 0.784427
vt 0.298234 0.755170
vt 0.261368 0.736386
vt 0.220502 0.729914
vt 0.179636 0.736386
vt 0.142770 0.755171
vt 0.113513 0.784427
vt 0.094729 0.821293
vt 0.088256 0.862159
vt 0.094729 0.903026
vt 0.113513 0.939891
vt 0.142770 0.969148
vt 0.179636 0.987932
vt 0.220502 0.994405
vt 0.261368 0.987932
vt 0.298234 0.969148
vt 0.327491 0.939891
vt 0.346275 0.903026
vt 0.352747 0.862159
vt 0.220502 0.274989
vt 0.220502 0.856870
vt 0.413259 0.005810
vt 0.416018 0.005810
vt 0.657166 0.005810
vt 0.660355 0.005810
vt 0.660355 0.141723
vt 0.655572 0.252905
vt 0.418042 0.252905
vt 0.413259 0.141723
vt 0.418042 0.500000
vt 0.418042 0.485510
vt 0.655572 0.485510
vt 0.655572 0.500000
vt 0.413259 0.747095
vt 0.416018 0.747095
vt 0.416018 0.761585
vt 0.413259 0.761585
vt 0.892960 0.005810
vt 0.907450 0.005810
vt 0.907450 0.141723
vt 0.892960 0.141723
vt 0.166164 0.005810
vt 0.180654 0.005810
vt 0.180654 0.141723
vt 0.166164 0.141723
vt 0.413259 0.611182
vt 0.660355 0.611182
vt 0.660355 0.747095
vt 0.657166 0.747095
vt 0.413259 0.583652
vt 0.660355 0.583652
vt 0.657166 0.761585
vt 0.660355 0.761585
vt 0.413259 0.973654
vt 0.416018 0.973654
vt 0.416018 0.994190
vt 0.413259 0.994190
vt 0.392723 0.141723
vt 0.392723 0.005810
vt 0.418042 0.273441
vt 0.413259 0.180740
vt 0.655572 0.273441
vt 0.660355 0.180740
vt 0.680891 0.005810
vt 0.680891 0.141723
vt 0.657166 0.973654
vt 0.660355 0.973654
vt 0.660355 0.994190
vt 0.657166 0.994190
vn 0.000000 0.951055 -0.309022
vn 0.000000 0.809015 -0.587789
vn 0.000000 0.809015 -0.587789
vn 0.000000 0.951055 -0.309022
vn 0.000000 0.587784 -0.809018
vn 0.000000 0.587784 -0.809018
vn 0.000000 0.309017 -0.951057
vn 0.000000 0.309017 -0.951057
vn 0.000000 0.000000 -1.000000
vn 0.000000 0.000000 -1.000000
vn 0.000000 -0.309017 -0.951057
vn 0.000000 -0.309017 -0.951057
vn 0.000000 -0.587785 -0.809018
vn 0.000000 -0.587785 -0.809018
vn 0.000000 -0.809020 -0.587781
vn 0.000000 -0.809020 -0.587781
vn 0.000000 -0.951055 -0.309023
vn 0.000000 -0.951055 -0.309023
vn 0.000000 -1.000000 0.000000
vn 0.000000 -1.000000 0.000000
vn 0.000000 -0.951055 0.309023
vn 0.000000 -0.951055 0.309023
vn 0.000000 -0.809017 0.587785
vn 0.000000 -0.809017 0.587785
vn 0.000000 -0.587784 0.809018
vn 0.000000 -0.587784 0.809018
vn 0.000000 -0.309018 0.951056
vn 0.000000 -0.309018 0.951056
vn 0.000000 0.000000 1.000000
vn 0.000000 0.000000 1.000000
vn 0.000000 0.309019 0.951056
vn 0.000000 0.309019 0.951056
vn 0.000000 0.587784 0.809018
vn 0.000000 0.587784 0.809018
vn 0.000000 0.809017 0.587785
vn 0.000000 0.809017 0.587785
vn 0.000000 0.951055 0.309023
vn 0.000000 0.951055 0.309023
vn 0.000000 1.000000 0.000012
vn 0.000000 1.000000 0.000012
vn 1.000000 -0.000008 0.000000
vn 1.000000 -0.000008 0.000000
vn 1.000000 -0.000002 0.000000
vn 1.000000 -0.000015 0.000000
vn 1.000000 -0.000000 0.000000
vn 1.000000 0.000000 0.000000
vn 1.000000 -0.000015 0.000000
vn 1.000000 0.000000 0.000000
vn 1.000000 0.000004 0.000000
vn 1.000000 0.000004 0.000000
vn 1.000000 0.000000 0.000000
vn 1.000000 0.000000 0.000000
vn 1.000000 0.000000 0.000000
vn 1.000000 0.000000 0.000000
vn 1.000000 0.000000 0.000000
vn 1.000000 0.000000 0.000000
vn 1.000000 0.000000 0.000000
vn 1.000000 0.000000 0.000000
vn 1.000000 -0.000004 0.000000
vn 1.000000 -0.000004 0.000000
vn 1.000000 0.000000 0.000000
vn -1.000000 0.000000 0.000000
vn -1.000000 0.000000 0.000000
vn -1.000000 0.000001 0.000000
vn -1.000000 0.000000 0.000000
vn -1.000000 0.000000 0.000000
vn -1.000000 0.000000 0.000000
vn -1.000000 0.000004 0.000000
vn -1.000000 0.000004 0.000000
vn -1.000000 0.000000 0.000000
vn -1.000000 0.000000 0.000000
vn -1.000000 0.000000 0.000000
vn -1.000000 -0.000002 0.000000
vn -1.000000 -0.000002 0.000000
vn -1.000000 0.000000 0.000000
vn -1.000000 0.000004 0.000000
vn -1.000000 0.000004 0.000000
vn -1.000000 0.000000 0.000000
vn -1.000000 0.000000 0.000000
vn -1.000000 0.000004 0.000000
vn -1.000000 0.000004 0.000000
vn -1.000000 0.000000 0.000000
vn 0.000000 0.000000 1.000000
vn 0.000000 0.000000 1.000000
vn 0.000000 0.000000 1.000000
vn 0.000000 0.000000 1.000000
vn 0.000000 0.000000 1.000000
vn 0.000000 0.000000 1.000000
vn 0.000000 0.000000 1.000000
vn 0.000000 0.000000 1.000000
vn -0.019734 0.999805 0.000000
vn -0.019734 0.999805 0.000000
vn 0.019734 0.999805 0.000000
vn 0.019734 0.999805 0.000000
vn 0.615409 -0.501719 0.607906
vn 0.005317 -0.383305 0.923607
vn 0.025976 -0.988073 0.151777
vn 0.921205 -0.387916 0.030061
vn 1.000000 0.000000 0.000000
vn 1.000000 0.000000 0.000008
vn 0.911940 0.410324 0.000004
vn 0.911940 0.410324 0.000000
vn -1.000000 0.000001 0.000000
vn -1.000000 0.000001 0.000000
vn -0.911936 0.410332 0.000000
vn -0.911936 0.410332 0.000000
vn 0.000000 0.000000 -1.000000
vn 0.000000 0.000000 -1.000000
vn 0.000000 0.000000 -1.000000
vn 0.000000 0.000000 -1.000000
vn 0.000000 0.000000 -1.000000
vn 0.000000 0.000000 -1.000000
vn 0.000000 0.000000 -1.000000
vn 0.000000 0.000000 -1.000000
vn -0.005312 -0.383591 0.923488
vn -0.025953 -0.988102 0.151593
vn -0.559788 -0.527454 0.639085
vn -0.898649 -0.437357 0.033892
vn 0.919445 -0.392103 -0.029595
vn 0.025520 -0.988659 -0.147991
vn 0.007033 -0.506972 -0.861934
vn 0.681925 -0.555948 -0.475289
vn -0.911936 0.410332 0.000000
vn -1.000000 0.000001 0.000000
vn -1.000000 0.000000 0.000000
vn -0.911937 0.410331 0.000000
vn -0.019734 0.999805 0.000000
vn -0.019734 0.999805 0.000000
vn 0.019734 0.999805 0.000000
vn 0.019734 0.999805 0.000000
vn 0.911939 0.410327 0.000000
vn 0.911940 0.410324 -0.000000
vn 1.000000 0.000000 0.000000
vn 1.000000 0.000000 -0.000001
vn -0.025501 -0.988686 -0.147817
vn -0.896469 -0.441849 -0.033350
vn -0.627862 -0.591600 -0.505766
vn -0.007025 -0.507301 -0.861740
s 1
g Light2:Light1
usemtl Light2:blinn1SG
f 219/461/559 220/462/560 240/483/561 239/482/562
f 220/462/560 221/463/563 241/484/564 240/483/561
f 221/463/563 222/464/565 242/485/566 241/484/564
f 222/464/565 223/465/567 243/486/568 242/485/566
f 223/465/567 224/466/569 244/487/570 243/486/568
f 224/466/569 225/467/571 245/488/572 244/487/570
f 225/467/571 226/468/573 246/489/574 245/488/572
f 226/468/573 227/469/575 247/490/576 246/489/574
f 227/469/575 228/470/577 248/491/578 247/490/576
f 228/470/577 229/471/579 249/492/580 248/491/578
f 229/471/579 230/472/581 250/493/582 249/492/580
f 230/472/581 231/473/583 251/494/584 250/493/582
f 231/473/583 232/474/585 252/495/586 251/494/584
f 232/474/585 233/475/587 253/496/588 252/495/586
f 233/475/587 234/476/589 254/497/590 253/496/588
f 234/476/589 235/477/591 255/498/592 254/497/590
f 235/477/591 236/478/593 256/499/594 255/498/592
f 236/478/593 237/479/595 257/500/596 256/499/594
f 237/479/595 238/480/597 258/501/598 257/500/596
f 238/480/597 219/481/559 239/502/562 258/501/598
s 2
f 220/442/599 219/441/600 259/523/601
f 221/443/602 220/442/599 259/523/601
f 222/444/603 221/443/602 259/523/601
f 223/445/604 222/444/603 259/523/601
f 224/446/605 223/445/604 259/523/601
f 225/447/606 224/446/605 259/523/601
f 226/448/607 225/447/606 259/523/601
f 227/449/608 226/448/607 259/523/601
f 228/450/609 227/449/608 259/523/601
f 229/451/610 228/450/609 259/523/601
f 230/452/611 229/451/610 259/523/601
f 231/453/612 230/452/611 259/523/601
f 232/454/613 231/453/612 259/523/601
f 233/455/614 232/454/613 259/523/601
f 234/456/615 233/455/614 259/523/601
f 235/457/616 234/456/615 259/523/601
f 236/458/617 235/457/616 259/523/601
f 237/459/618 236/458/617 259/523/601
f 238/460/619 237/459/618 259/523/601
f 219/441/600 238/460/619 259/523/601
s 3
f 239/521/620 240/520/621 260/524/622
f 240/520/621 241/519/623 260/524/622
f 241/519/623 242/518/624 260/524/622
f 242/518/624 243/517/625 260/524/622
f 243/517/625 244/516/626 260/524/622
f 244/516/626 245/515/627 260/524/622
f 245/515/627 246/514/628 260/524/622
f 246/514/628 247/513/629 260/524/622
f 247/513/629 248/512/630 260/524/622
f 248/512/630 249/511/631 260/524/622
f 249/511/631 250/510/632 260/524/622
f 250/510/632 251/509/633 260/524/622
f 251/509/633 252/508/634 260/524/622
f 252/508/634 253/507/635 260/524/622
f 253/507/635 254/506/636 260/524/622
f 254/506/636 255/505/637 260/524/622
f 255/505/637 256/504/638 260/524/622
f 256/504/638 257/503/639 260/524/622
f 257/503/639 258/522/640 260/524/622
f 258/522/640 239/521/620 260/524/622
s off
f 261/525/641 274/526/642 276/527/643 262/528/644 270/529/645 269/530/646 266/531/647 265/532/648
s 4
f 268/533/649 288/534/650 289/535/651 272/536/652
s 5
f 263/537/653 273/538/654 285/539/655 286/540/656
s 4
f 291/541/657 264/542/658 271/543/659 290/544/660
f 263/545/661 286/546/662 287/547/663 267/548/664
s off
f 267/549/665 268/533/666 272/536/667 271/550/668 264/551/669 275/552/670 273/538/671 263/537/672
s 4
f 287/553/663 288/534/650 268/533/649 267/549/664
f 289/535/651 290/554/660 271/550/659 272/536/652
s 5
f 273/538/654 275/552/673 292/555/674 285/539/655
f 275/552/673 264/551/675 291/556/676 292/555/674
f 278/557/677 277/558/678 274/559/679 261/560/680
s 4
f 279/561/681 278/562/682 261/525/683 265/532/684
f 265/532/684 266/531/685 280/563/686 279/564/681
f 281/565/687 280/563/686 266/531/685 269/530/688
f 269/530/688 270/529/689 282/566/690 281/565/687
f 262/528/691 283/567/692 282/568/690 270/529/689
s 5
f 284/569/693 283/570/694 262/571/695 276/572/696
f 277/558/678 284/569/693 276/572/696 274/559/679
f 286/540/656 285/539/655 277/558/678 278/557/677
s 4
f 287/547/663 286/546/662 278/562/682 279/561/681
f 279/564/681 280/563/686 288/534/650 287/553/663
f 289/535/651 288/534/650 280/563/686 281/565/687
f 281/565/687 282/566/690 290/554/660 289/535/651
f 283/567/692 291/541/657 290/544/660 282/568/690
s 5
f 292/555/674 291/556/676 283/570/694 284/569/693
f 285/539/655 292/555/674 284/569/693 277/558/678
g default
v 1.836782 2.093615 -5.603584
v 3.735076 2.093615 -5.603584
v 1.836782 4.684044 -5.603584
v 3.735076 4.684044 -5.603584
v 1.836782 4.684044 -5.774420
v 3.735076 4.684044 -5.774420
v 1.836782 2.093615 -5.774420
v 3.735076 2.093615 -5.774420
vt 0.375000 0.000000
vt 0.625000 0.000000
vt 0.375000 0.250000
vt 0.625000 0.250000
vt 0.375000 0.500000
vt 0.625000 0.500000
vt 0.375000 0.750000
vt 0.625000 0.750000
vt 0.375000 1.000000
vt 0.625000 1.000000
vt 0.875000 0.000000
vt 0.875000 0.250000
vt 0.125000 0.000000
vt 0.125000 0.250000
vn 0.000000 0.000000 1.000000
vn 0.000000 0.000000 1.000000
vn 0.000000 0.000000 1.000000
vn 0.000000 0.000000 1.000000
vn 0.000000 1.000000 0.000000
vn 0.000000 1.000000 0.000000
vn 0.000000 1.000000 0.000000
vn 0.000000 1.000000 0.000000
vn 0.000000 0.000000 -1.000000
vn 0.000000 0.000000 -1.000000
vn 0.000000 0.000000 -1.000000
vn 0.000000 0.000000 -1.000000
vn 0.000000 -1.000000 0.000000
vn 0.000000 -1.000000 0.000000
vn 0.000000 -1.000000 0.000000
vn 0.000000 -1.000000 0.000000
vn 1.000000 0.000000 0.000000
vn 1.000000 0.000000 0.000000
vn 1.000000 0.000000 0.000000
vn 1.000000 0.000000 0.000000
vn -1.000000 0.000000 0.000000
vn -1.000000 0.000000 0.000000
vn -1.000000 0.000000 0.000000
vn -1.000000 0.000000 0.000000
s off
g Painting
usemtl initialShadingGroup
f 293/573/697 294/574/698 296/576/699 295/575/700
f 295/575/701 296/576/702 298/578/703 297/577/704
f 297/577/705 298/578/706 300/580/707 299/579/708
f 299/579/709 300/580/710 294/582/711 293/581/712
f 294/574/713 300/583/714 298/584/715 296/576/716
f 299/585/717 293/573/718 295/575/719 297/586/720
g default
v -0.033899 0.009330 -4.990337
v 1.638787 0.009330 -5.501895
v -0.033899 3.000015 -4.990337
v 1.638787 3.000015 -5.501895
v -0.055434 3.000015 -5.060750
v 1.617252 3.000015 -5.572308
v -0.055434 0.009330 -5.060750
v 1.617252 0.009330 -5.572308
v -0.033899 2.887675 -4.990337
v -0.055434 2.887675 -5.060750
v 1.617252 2.887675 -5.572308
v 1.638787 2.887675 -5.501895
v -0.033899 0.119723 -4.990337
v -0.055434 0.119723 -5.060750
v 1.617252 0.119723 -5.572308
v 1.638787 0.119723 -5.501895
v 1.470990 3.000015 -5.450578
v 1.449456 3.000015 -5.520991
v 1.449456 2.887675 -5.520991
v 1.449456 0.119723 -5.520991
v 1.449456 0.009330 -5.520991
v 1.470990 0.009330 -5.450578
v 1.470990 0.119723 -5.450578
v 1.470990 2.887675 -5.450578
v 0.172488 3.000015 -5.053456
v 0.150954 3.000015 -5.123869
v 0.150954 2.887675 -5.123869
v 0.150954 0.119723 -5.123869
v 0.150954 0.009330 -5.123869
v 0.172488 0.009330 -5.053456
v 0.172488 0.119723 -5.053456
v 0.172488 2.887675 -5.053456
v 0.172488 1.306436 -5.053456
v -0.033899 1.306436 -4.990337
v -0.055434 1.306436 -5.060750
v 0.150954 1.306436 -5.123869
v 1.449456 1.306436 -5.520991
v 1.617252 1.306436 -5.572308
v 1.638787 1.306436 -5.501895
v 1.470990 1.306436 -5.450578
v 0.172488 1.166772 -5.053456
v -0.033899 1.166772 -4.990337
v -0.055434 1.166772 -5.060750
v 0.150954 1.166772 -5.123869
v 1.449456 1.166772 -5.520991
v 1.617252 1.166772 -5.572308
v 1.638787 1.166772 -5.501895
v 1.470990 1.166772 -5.450578
v -0.027086 0.009330 -4.968060
v 0.179301 0.009330 -5.031179
v 0.179301 0.119723 -5.031179
v -0.027086 0.119723 -4.968060
v 0.179301 2.887675 -5.031179
v -0.027086 2.887675 -4.968060
v 0.179301 3.000015 -5.031179
v -0.027086 3.000015 -4.968060
v 0.179301 1.166772 -5.031179
v -0.027086 1.166772 -4.968060
v 1.477803 0.009330 -5.428301
v 1.477803 0.119723 -5.428301
v 1.645599 0.009330 -5.479618
v 1.645599 0.119723 -5.479618
v 1.477803 1.166772 -5.428301
v 1.645599 1.166772 -5.479618
v 1.477803 2.887675 -5.428301
v 1.477803 3.000015 -5.428301
v 1.645599 2.887675 -5.479618
v 1.645599 3.000015 -5.479618
v 0.179301 1.306436 -5.031179
v -0.027086 1.306436 -4.968060
v 1.477803 1.306436 -5.428301
v 1.645599 1.306436 -5.479618
v -0.062246 0.119723 -5.083027
v 0.144141 0.119723 -5.146146
v 0.144141 0.009330 -5.146146
v -0.062246 0.009330 -5.083027
v -0.062246 3.000015 -5.083027
v 0.144141 3.000015 -5.146146
v 0.144141 2.887675 -5.146146
v -0.062246 2.887675 -5.083027
v -0.062246 1.166772 -5.083027
v 0.144141 1.166772 -5.146146
v 1.442643 3.000015 -5.543268
v 1.442643 2.887675 -5.543268
v 1.610439 3.000015 -5.594585
v 1.610439 2.887675 -5.594585
v 1.442643 1.166772 -5.543268
v 1.442643 0.119723 -5.543268
v 1.610439 1.166772 -5.594585
v 1.610439 0.119723 -5.594585
v 1.442643 0.009330 -5.543268
v 1.610439 0.009330 -5.594585
v 0.144141 1.306436 -5.146146
v -0.062246 1.306436 -5.083027
v 1.442643 1.306436 -5.543268
v 1.610439 1.306436 -5.594585
vt 0.375000 0.000000
vt 0.625000 0.000000
vt 0.375000 0.250000
vt 0.625000 0.250000
vt 0.375000 0.500000
vt 0.625000 0.500000
vt 0.375000 0.750000
vt 0.625000 0.750000
vt 0.375000 1.000000
vt 0.625000 1.000000
vt 0.875000 0.000000
vt 0.875000 0.250000
vt 0.125000 0.000000
vt 0.125000 0.250000
vt 0.375000 0.240609
vt 0.125000 0.240609
vt 0.375000 0.509391
vt 0.625000 0.509391
vt 0.875000 0.240609
vt 0.625000 0.240609
vt 0.375000 0.009228
vt 0.125000 0.009228
vt 0.375000 0.740772
vt 0.625000 0.740772
vt 0.875000 0.009228
vt 0.625000 0.009228
vt 0.599921 0.250000
vt 0.599921 0.500000
vt 0.599921 0.509391
vt 0.599921 0.740772
vt 0.599921 0.750000
vt 0.599921 0.000000
vt 0.599921 1.000000
vt 0.599921 0.009228
vt 0.599921 0.240609
vt 0.405847 0.250000
vt 0.405847 0.500000
vt 0.405847 0.509391
vt 0.405847 0.740772
vt 0.405847 0.750000
vt 0.405847 0.000000
vt 0.405847 1.000000
vt 0.405847 0.009228
vt 0.405847 0.240609
vt 0.405847 0.108429
vt 0.375000 0.108429
vt 0.125000 0.108429
vt 0.375000 0.641571
vt 0.405847 0.641571
vt 0.599921 0.641571
vt 0.625000 0.641571
vt 0.875000 0.108429
vt 0.625000 0.108429
vt 0.599921 0.108429
vt 0.405847 0.096754
vt 0.375000 0.096754
vt 0.125000 0.096754
vt 0.375000 0.653246
vt 0.405847 0.653246
vt 0.599921 0.653246
vt 0.625000 0.653246
vt 0.875000 0.096754
vt 0.625000 0.096754
vt 0.599921 0.096754
vt 0.375000 0.000000
vt 0.405847 0.000000
vt 0.375000 0.009228
vt 0.405847 0.750000
vt 0.375000 0.750000
vt 0.375000 0.740772
vt 0.375000 0.500000
vt 0.405847 0.500000
vt 0.375000 0.509391
vt 0.405847 0.250000
vt 0.375000 0.250000
vt 0.375000 0.240609
vt 0.405847 0.653246
vt 0.405847 0.740772
vt 0.375000 0.653246
vt 0.405847 0.009228
vt 0.405847 0.096754
vt 0.375000 0.096754
vt 0.599921 0.500000
vt 0.625000 0.500000
vt 0.625000 0.509391
vt 0.599921 0.740772
vt 0.599921 0.653246
vt 0.625000 0.653246
vt 0.625000 0.740772
vt 0.625000 0.750000
vt 0.599921 0.750000
vt 0.599921 0.000000
vt 0.625000 0.000000
vt 0.625000 0.009228
vt 0.599921 0.096754
vt 0.599921 0.009228
vt 0.625000 0.096754
vt 0.625000 0.240609
vt 0.625000 0.250000
vt 0.599921 0.250000
vt 0.599921 0.509391
vt 0.405847 0.509391
vt 0.405847 0.240609
vt 0.599921 0.240609
vt 0.405847 0.108429
vt 0.375000 0.108429
vt 0.405847 0.641571
vt 0.375000 0.641571
vt 0.599921 0.641571
vt 0.625000 0.641571
vt 0.599921 0.108429
vt 0.625000 0.108429
vn 0.292459 0.000000 0.956278
vn 0.292459 0.000000 0.956278
vn 0.292459 0.000000 0.956278
vn 0.292459 0.000000 0.956278
vn 0.000000 1.000000 0.000000
vn 0.000000 1.000000 0.000000
vn 0.000000 1.000000 0.000000
vn 0.000000 1.000000 0.000000
vn -0.292459 0.000000 -0.956278
vn -0.292459 0.000000 -0.956278
vn -0.292459 0.000000 -0.956278
vn -0.292459 0.000000 -0.956278
vn 0.000000 -1.000000 0.000000
vn -0.000000 -1.000000 -0.000000
vn 0.000000 -1.000000 0.000000
vn 0.000000 -1.000000 0.000000
vn 0.956278 0.000000 -0.292459
vn 0.956277 0.000000 -0.292461
vn 0.956277 0.000000 -0.292461
vn 0.956278 0.000000 -0.292459
vn -0.956278 0.000000 0.292459
vn -0.956278 0.000000 0.292459
vn -0.956278 0.000000 0.292459
vn -0.956278 0.000000 0.292459
vn -0.956278 0.000000 0.292459
vn -0.956278 0.000000 0.292459
vn -0.956278 0.000000 0.292459
vn -0.956278 0.000000 0.292459
vn -0.292459 0.000000 -0.956278
vn -0.292459 0.000000 -0.956278
vn -0.292459 0.000000 -0.956278
vn -0.292459 0.000000 -0.956278
vn 0.956278 0.000000 -0.292459
vn 0.956277 0.000000 -0.292461
vn 0.956277 0.000000 -0.292461
vn 0.956278 0.000000 -0.292459
vn 0.292459 0.000000 0.956278
vn 0.292459 0.000000 0.956278
vn 0.292459 0.000000 0.956278
vn 0.292459 0.000000 0.956278
vn -0.956278 0.000000 0.292459
vn -0.956278 0.000000 0.292459
vn -0.292459 0.000000 -0.956278
vn -0.292459 0.000000 -0.956278
vn 0.956277 0.000000 -0.292461
vn 0.956278 0.000000 -0.292459
vn 0.292459 0.000000 0.956278
vn 0.292459 0.000000 0.956278
vn 0.000000 1.000000 0.000000
vn 0.000000 1.000000 0.000000
vn -0.000000 1.000000 -0.000000
vn -0.000000 1.000000 -0.000000
vn -0.292459 0.000000 -0.956278
vn -0.292459 0.000000 -0.956278
vn -0.292459 0.000000 -0.956278
vn -0.292459 -0.000000 -0.956278
vn -0.292459 0.000000 -0.956278
vn -0.292459 0.000000 -0.956278
vn -0.292459 0.000000 -0.956278
vn -0.292459 0.000000 -0.956278
vn -0.292459 0.000000 -0.956278
vn -0.292459 0.000000 -0.956278
vn 0.000000 -1.000000 0.000000
vn -0.000000 -1.000000 -0.000000
vn -0.000000 -1.000000 -0.000000
vn 0.000000 -1.000000 0.000000
vn 0.292459 0.000000 0.956278
vn 0.292459 0.000000 0.956278
vn 0.292459 0.000000 0.956278
vn 0.292459 0.000000 0.956278
vn 0.292459 0.000000 0.956278
vn 0.292459 0.000000 0.956278
vn 0.292459 0.000000 0.956278
vn 0.292459 0.000000 0.956278
vn 0.292459 0.000000 0.956278
vn 0.292459 0.000000 0.956278
vn -0.292459 0.000000 -0.956278
vn -0.292459 0.000000 -0.956278
vn -0.292459 0.000000 -0.956278
vn -0.292459 0.000000 -0.956278
vn 0.292459 0.000000 0.956278
vn 0.292459 0.000000 0.956278
vn 0.292459 0.000000 0.956278
vn 0.292459 0.000000 0.956278
vn 0.292459 -0.000000 0.956278
vn 0.292459 -0.000000 0.956278
vn -0.956278 0.000000 0.292459
vn -0.956278 0.000000 0.292459
vn -0.292459 0.000000 -0.956278
vn -0.292459 0.000000 -0.956278
vn -0.292459 0.000000 -0.956278
vn -0.292459 0.000000 -0.956278
vn -0.292459 0.000000 -0.956278
vn -0.292459 0.000000 -0.956278
vn -0.292459 -0.000000 -0.956278
vn -0.292459 -0.000000 -0.956278
vn 0.956278 0.000000 -0.292459
vn 0.956277 0.000000 -0.292461
vn 0.292459 0.000000 0.956278
vn 0.292459 0.000000 0.956278
vn 0.292459 0.000000 0.956278
vn 0.292459 0.000000 0.956278
vn 0.292459 0.000000 0.956278
vn 0.292459 0.000000 0.956278
vn 0.000000 -1.000000 0.000000
vn 0.000000 -1.000000 0.000000
vn -0.956278 0.000000 0.292459
vn -0.956278 0.000000 0.292459
vn 0.000000 1.000000 0.000000
vn 0.000000 1.000000 0.000000
vn -0.956278 0.000000 0.292459
vn -0.956278 0.000000 0.292459
vn 0.956278 0.000000 -0.292459
vn 0.956278 0.000000 -0.292459
vn 0.956278 0.000000 -0.292459
vn 0.956278 0.000000 -0.292459
vn -0.956278 0.000000 0.292459
vn 0.000000 -1.000000 0.000000
vn 0.000000 -1.000000 0.000000
vn 0.956278 0.000000 -0.292459
vn 0.956278 0.000000 -0.292459
vn -0.956278 0.000000 0.292459
vn -0.956278 0.000000 0.292459
vn -0.956278 0.000000 0.292459
vn -0.956278 0.000000 0.292459
vn 0.956278 0.000000 -0.292459
vn 0.956278 0.000000 -0.292459
vn 0.956278 0.000000 -0.292459
vn 0.000000 1.000000 0.000000
vn 0.000000 1.000000 0.000000
vn 0.000000 1.000000 0.000000
vn 0.000000 1.000000 0.000000
vn 0.000000 1.000000 0.000000
vn 0.000000 1.000000 0.000000
vn 0.000000 -1.000000 0.000000
vn 0.000000 -1.000000 0.000000
vn 0.000000 -1.000000 0.000000
vn 0.000000 -1.000000 0.000000
vn 0.956278 0.000000 -0.292459
vn 0.956278 0.000000 -0.292459
vn 0.956278 0.000000 -0.292459
vn 0.956278 0.000000 -0.292459
vn -0.956278 0.000000 0.292459
vn -0.956278 0.000000 0.292459
vn -0.956278 0.000000 0.292459
vn -0.956278 0.000000 0.292459
vn -0.956278 0.000000 0.292459
vn 0.956278 0.000000 -0.292459
vn 0.000000 1.000000 0.000000
vn 0.000000 1.000000 0.000000
vn 0.000000 1.000000 0.000000
vn 0.000000 1.000000 0.000000
vn 0.000000 -1.000000 0.000000
vn 0.000000 -1.000000 0.000000
vn 0.000000 -1.000000 0.000000
vn 0.000000 -1.000000 0.000000
vn 0.000000 -1.000000 0.000000
vn -0.000000 -1.000000 -0.000000
vn -0.956278 0.000000 0.292459
vn -0.956278 0.000000 0.292459
vn 0.000000 1.000000 0.000000
vn 0.000000 1.000000 0.000000
vn -0.956278 0.000000 0.292459
vn -0.956278 0.000000 0.292459
vn 0.956278 0.000000 -0.292459
vn 0.956278 0.000000 -0.292459
vn 0.956278 0.000000 -0.292459
vn 0.956278 0.000000 -0.292459
vn -0.956278 0.000000 0.292459
vn -0.000000 1.000000 -0.000000
vn -0.000000 1.000000 -0.000000
vn 0.956275 0.000000 -0.292468
vn 0.956275 0.000000 -0.292468
vn -0.956277 0.000000 0.292463
vn -0.956277 0.000000 0.292463
vn -0.956277 0.000000 0.292463
vn -0.956277 0.000000 0.292463
vn 0.956275 0.000000 -0.292468
vn 0.956275 0.000000 -0.292468
vn 0.956275 0.000000 -0.292468
vn -0.000000 -1.000000 -0.000000
vn -0.000000 -1.000000 -0.000000
vn 0.000000 -1.000000 0.000000
vn 0.000000 -1.000000 0.000000
vn 0.000000 -1.000000 0.000000
vn 0.000000 -1.000000 0.000000
vn 0.000000 1.000000 0.000000
vn 0.000000 1.000000 0.000000
vn 0.000000 1.000000 0.000000
vn 0.000000 1.000000 0.000000
vn 0.956278 0.000000 -0.292459
vn 0.956278 0.000000 -0.292459
vn 0.956278 0.000000 -0.292459
vn 0.956278 0.000000 -0.292459
vn -0.956278 0.000000 0.292459
vn -0.956277 0.000000 0.292463
vn -0.956277 0.000000 0.292463
vn -0.956277 0.000000 0.292463
vn -0.956277 0.000000 0.292463
vn 0.956275 0.000000 -0.292468
vn -0.000000 -1.000000 -0.000000
vn -0.000000 -1.000000 -0.000000
vn -0.000000 -1.000000 -0.000000
vn -0.000000 -1.000000 -0.000000
vn 0.000000 1.000000 0.000000
vn 0.000000 1.000000 0.000000
vn 0.000000 1.000000 0.000000
vn 0.000000 1.000000 0.000000
s 1
g Door_V2:pCube1
usemtl initialShadingGroup
f 349/651/721 350/652/722 351/666/723 352/653/724
s 2
f 303/589/725 325/622/726 326/623/727 305/591/728
s 3
f 373/656/729 374/664/730 375/654/731 376/655/732
s 4
f 307/593/733 329/626/734 330/628/735 301/595/736
s 5
f 302/588/737 308/597/738 315/611/739 316/612/740
s 6
f 307/599/741 301/587/742 313/607/743 314/608/744
f 310/602/745 309/601/746 303/589/747 305/600/748
s 3
f 377/657/749 378/658/750 379/688/751 380/659/752
s 5
f 312/606/753 311/605/754 306/598/755 304/590/756
s 1
f 354/662/757 353/689/758 355/660/759 356/661/760
s 6
f 314/608/744 313/607/743 342/642/761 343/643/762
s 3
f 381/665/763 382/663/764 374/664/730 373/656/729
s 5
f 316/612/740 315/611/739 346/648/765 347/649/766
s 1
f 352/653/724 351/666/723 357/667/767 358/668/768
s 2
f 317/613/769 304/590/770 306/592/771 318/614/772
s 3
f 384/687/773 383/669/774 385/670/775 386/671/776
f 388/672/777 387/673/778 389/674/779 390/675/780
f 391/677/781 388/672/777 390/675/780 392/676/782
s 4
f 322/619/783 321/617/784 308/594/785 302/596/786
s 1
f 360/682/787 359/678/788 361/679/789 362/680/790
f 363/681/791 360/682/787 362/680/790 364/683/792
f 366/686/793 365/690/794 367/684/795 368/685/796
s 2
f 325/622/726 317/613/769 318/614/772 326/623/727
s 3
f 379/688/751 378/658/750 383/669/774 384/687/773
s off
f 328/625/797 344/645/798 345/646/799 320/616/800
s 3
f 375/654/731 374/664/730 388/672/777 391/677/781
s 4
f 330/628/735 329/626/734 321/617/784 322/619/783
s 1
f 351/666/723 350/652/722 359/678/788 360/682/787
s off
f 348/650/801 341/641/802 331/629/803 323/620/804
s 1
f 355/660/759 353/689/758 365/690/794 366/686/793
f 370/692/805 369/691/806 353/689/758 354/662/757
s 6
f 335/633/807 334/632/808 309/601/746 310/602/745
s 3
f 380/659/752 379/688/751 393/693/809 394/694/810
s off
f 337/636/811 336/635/812 327/624/813 319/615/814
s 3
f 396/696/815 395/695/816 384/687/773 386/671/776
s 5
f 339/639/817 338/638/818 311/605/754 312/606/753
s 1
f 365/690/794 371/697/819 372/698/820 367/684/795
s off
f 332/630/821 333/631/822 340/640/823 324/621/824
s 1
f 358/668/768 357/667/767 369/691/806 370/692/805
s 6
f 343/643/762 342/642/761 334/632/808 335/633/807
s 3
f 394/694/810 393/693/809 382/663/764 381/665/763
f 387/673/778 382/663/764 393/693/809 395/695/816
f 389/674/779 387/673/778 395/695/816 396/696/815
s 5
f 347/649/766 346/648/765 338/638/818 339/639/817
s 1
f 371/697/819 363/681/791 364/683/792 372/698/820
f 371/697/819 369/691/806 357/667/767 363/681/791
s 4
f 301/587/736 330/627/735 350/652/825 349/651/826
s 6
f 313/607/743 301/587/742 349/651/827 352/653/828
s 2
f 325/626/726 303/593/725 356/655/829 355/654/830
s 6
f 303/593/747 309/609/746 354/656/831 356/655/832
s off
f 331/591/833 341/623/834 357/658/835 351/657/836
s 6
f 342/603/761 313/591/743 352/657/828 358/659/837
s 4
f 322/622/783 302/589/786 361/661/838 359/660/839
s 5
f 302/589/737 316/601/740 362/662/840 361/661/841
s off
f 348/645/842 323/625/843 360/664/844 363/663/845
s 5
f 316/609/740 347/644/766 364/665/846 362/656/840
f 312/629/753 304/641/756 368/667/847 367/666/848
s 2
f 304/642/770 317/607/769 366/653/849 368/668/850
s 4
f 330/614/735 322/592/783 359/670/839 350/669/825
s off
f 323/592/851 331/604/852 351/671/853 360/670/854
f 332/616/855 324/646/856 365/673/857 353/672/858
s 2
f 317/647/769 325/610/726 355/675/830 366/674/849
s off
f 333/610/859 332/594/860 353/676/861 369/675/862
s 6
f 309/594/746 334/617/808 370/677/863 354/676/831
s off
f 324/618/864 340/588/865 371/679/866 365/678/867
s 5
f 339/588/817 312/612/753 367/680/848 372/679/868
s 6
f 334/650/808 342/620/761 358/682/837 370/681/863
s 5
f 347/612/766 339/649/817 372/683/868 364/680/846
s off
f 340/606/869 333/590/870 369/685/871 371/684/872
f 341/590/873 348/613/874 363/686/875 357/685/876
s 4
f 329/623/734 307/614/733 376/669/877 375/658/878
s 6
f 307/615/741 314/624/744 373/688/879 376/687/880
s 2
f 305/625/728 326/616/727 378/672/881 377/664/882
s 6
f 310/617/745 305/626/748 377/654/883 380/677/884
s off
f 344/627/885 328/618/886 374/678/887 382/652/888
s 6
f 314/620/744 343/629/762 381/666/889 373/682/879
s 2
f 318/630/772 306/621/771 385/690/890 383/689/891
s 5
f 306/613/755 311/622/754 386/660/892 385/686/893
s off
f 320/631/894 345/630/895 387/689/896 388/691/897
s 5
f 346/601/765 315/632/739 390/692/898 389/662/899
f 315/624/739 308/635/738 392/693/900 390/688/898
s 4
f 308/634/785 321/603/784 391/659/901 392/694/902
s 2
f 326/636/727 318/615/772 383/687/891 378/695/881
s off
f 319/604/903 327/637/904 379/696/905 384/671/906
f 328/621/907 320/640/908 388/697/909 374/690/910
s 4
f 321/639/784 329/606/734 375/684/878 391/698/901
s off
f 327/632/911 336/642/912 393/668/913 379/692/914
s 6
f 335/644/807 310/634/745 380/694/884 394/665/915
s off
f 337/646/916 319/645/917 384/663/918 395/673/919
s 5
f 311/635/754 338/636/818 396/695/920 386/693/892
s 6
f 343/637/762 335/647/807 394/674/915 381/696/889
s off
f 345/649/921 344/639/922 382/698/923 387/683/924
f 336/640/925 337/631/926 395/691/927 393/697/928
s 5
f 338/641/818 346/650/765 389/681/899 396/667/920
